(footprint "HEADER_MALE_2X3_2.54_SMT" (version 20210824) (generator pcbnew) (layer "F.Cu")
  (tedit 0)
  (descr "https://www.tme.eu/pl/details/95278-801a06lf_c/listwy-i-gniazda-kolkowe/amphenol/95278-801a06lf/")
  (fp_text reference "REF**" (at 0 0) (layer "F.SilkS")
    (effects (font (size 1.27 1.27) (thickness 0.15)))
    (tstamp 7bcd3150-17e1-46b4-afd3-55e375cf799e)
  )
  (fp_text value "" (at 0 0) (layer "F.SilkS")
    (effects (font (size 1.27 1.27) (thickness 0.15)))
    (tstamp 79b87a2e-4c45-4615-8233-fdf4e95cf434)
  )
  (fp_line (start 0 1.27) (end -1.27 1.27) (layer "F.SilkS") (width 0.1524) (tstamp 028a8dde-b9d6-422e-9bb9-8479dc079292))
  (fp_line (start -1.27 -3.81) (end 6.35 -3.81) (layer "F.SilkS") (width 0.1524) (tstamp 09d3d326-1713-4d66-8b78-5fa9a423466c))
  (fp_line (start 0 0) (end 0 1.27) (layer "F.SilkS") (width 0.1524) (tstamp 0d5d8d25-4bd1-4eaf-ab81-51aed242f236))
  (fp_line (start 6.35 1.27) (end 0 1.27) (layer "F.SilkS") (width 0.1524) (tstamp 4ed81f0b-c18b-4201-ae27-55ae604227eb))
  (fp_line (start -1.27 0) (end 0 0) (layer "F.SilkS") (width 0.1524) (tstamp b63e6e7b-997e-4549-8c2d-439af6e3e04f))
  (fp_line (start 6.35 -3.81) (end 6.35 1.27) (layer "F.SilkS") (width 0.1524) (tstamp c3859e69-67ed-4f07-9c18-70ec53885bd5))
  (fp_line (start -1.27 1.27) (end -1.27 0) (layer "F.SilkS") (width 0.1524) (tstamp ce40b72e-262a-41cd-9b31-973987fb8fd2))
  (fp_line (start -1.27 0) (end -1.27 -3.81) (layer "F.SilkS") (width 0.1524) (tstamp d08c54b1-1227-4535-a45e-8d00813c4be8))
  (fp_circle (center 0 -2.54) (end 0.4 -2.54) (layer "F.SilkS") (width 0.1524) (fill none) (tstamp 0d74c818-f7a9-4867-aa98-8d90b2886eb4))
  (fp_circle (center 5.08 -2.54) (end 5.48 -2.54) (layer "F.SilkS") (width 0.1524) (fill none) (tstamp 11e5e3ef-f88e-4318-b3d6-7faa7667a836))
  (fp_circle (center 5.08 0) (end 5.48 0) (layer "F.SilkS") (width 0.1524) (fill none) (tstamp 242b2819-4494-415b-9ffe-0bed06df956f))
  (fp_circle (center 2.54 -2.54) (end 2.94 -2.54) (layer "F.SilkS") (width 0.1524) (fill none) (tstamp 8ede7b65-b703-4f4f-9d67-b48856756449))
  (fp_circle (center 2.54 0) (end 2.94 0) (layer "F.SilkS") (width 0.1524) (fill none) (tstamp d6bf0bc4-62f5-4984-971e-1ef079744022))
  (fp_circle (center 0 0) (end 0.4 0) (layer "F.SilkS") (width 0.1524) (fill none) (tstamp f2b7365e-70cc-4b4d-881a-d02cb49ae61d))
  (pad "P$1" smd rect (at 0 1.49 90) (size 2.54 1.27) (layers "F.Cu" "F.Paste" "F.Mask")
    (solder_mask_margin 0.1016) (tstamp a9300ea1-f51e-4f2a-8bbe-c62399601335))
  (pad "P$2" smd rect (at 0 -4.03 90) (size 2.54 1.27) (layers "F.Cu" "F.Paste" "F.Mask")
    (solder_mask_margin 0.1016) (tstamp 65c05c39-0abc-4445-9e8d-59899c5cc79b))
  (pad "P$3" smd rect (at 2.54 1.49 90) (size 2.54 1.27) (layers "F.Cu" "F.Paste" "F.Mask")
    (solder_mask_margin 0.1016) (tstamp aa1c40a6-60d2-4fb3-ba3c-dd4d986c2125))
  (pad "P$4" smd rect (at 2.54 -4.16 90) (size 2.54 1.27) (layers "F.Cu" "F.Paste" "F.Mask")
    (solder_mask_margin 0.1016) (tstamp 8dbf2e79-7b56-4e9c-a480-604dc0c4c791))
  (pad "P$5" smd rect (at 5.08 1.49 90) (size 2.54 1.27) (layers "F.Cu" "F.Paste" "F.Mask")
    (solder_mask_margin 0.1016) (tstamp 6816817f-0218-45c0-8730-4370e04887de))
  (pad "P$6" smd rect (at 5.08 -4.16 90) (size 2.54 1.27) (layers "F.Cu" "F.Paste" "F.Mask")
    (solder_mask_margin 0.1016) (tstamp b81ae416-6dd2-4895-a14d-23e1faf59960))
)
