(footprint "SO-8FL" (version 20210824) (generator pcbnew) (layer "F.Cu")
  (tedit 61715FFA)
  (fp_text reference "REF**" (at 4.445 3.175 90) (layer "F.SilkS")
    (effects (font (size 1.1684 1.1684) (thickness 0.1016)) (justify left bottom))
    (tstamp e7ced207-139b-4d2b-b5dc-e4e2c3708dce)
  )
  (fp_text value "Val**" (at -0.1 -4.1) (layer "F.CrtYd")
    (effects (font (size 1.27 1.27) (thickness 0.15)))
    (tstamp 2c69b3e7-2fce-4ffa-b7df-b3346b63b2de)
  )
  (fp_line (start -2.53 -3) (end 2.53 -3) (layer "F.SilkS") (width 0.127) (tstamp 0ef0f6b5-ca01-46aa-ab40-70ccc0f60c05))
  (fp_line (start -2.8 3.3) (end -2.8 -2.725) (layer "F.SilkS") (width 0.127) (tstamp 23eaad08-447e-4443-999b-715b54df9adf))
  (fp_line (start 2.8 -2.725) (end 2.8 3.3) (layer "F.SilkS") (width 0.127) (tstamp 8aa88076-1f58-4c64-bb17-85ed6f7b7152))
  (pad "P$1" smd rect (at -1.905 3.175) (size 0.75 1) (layers "F.Cu" "F.Paste" "F.Mask")
    (solder_mask_margin 0.1016) (tstamp 1415975a-3952-42ad-8f4b-6bff788a897b))
  (pad "P$2" smd rect (at -0.635 3.175) (size 0.75 1) (layers "F.Cu" "F.Paste" "F.Mask")
    (solder_mask_margin 0.1016) (tstamp 99775211-d1ab-4dc2-906d-ffe16ec37466))
  (pad "P$3" smd rect (at 0.635 3.175) (size 0.75 1) (layers "F.Cu" "F.Paste" "F.Mask")
    (solder_mask_margin 0.1016) (tstamp 0b84ba34-f0b1-4000-84ea-7808a7500143))
  (pad "P$4" smd rect (at 1.905 3.175) (size 0.75 1) (layers "F.Cu" "F.Paste" "F.Mask")
    (solder_mask_margin 0.1016) (tstamp 056429fc-adf7-4d5d-8f08-265d6d084f2e))
  (pad "P$5" smd rect (at 0 -0.416875 90) (size 4.83375 5.279374) (layers "F.Cu" "F.Paste" "F.Mask")
    (solder_mask_margin 0.1016) (tstamp bd8e7981-ba3b-40c6-a792-8fff14bd57c2))
)
