%TF.GenerationSoftware,KiCad,Pcbnew,(5.99.0-12392-g2f9c6dd5cc)*%
%TF.CreationDate,2021-10-25T10:20:36+02:00*%
%TF.ProjectId,UNIVERSAL_JOINT_v2_2,554e4956-4552-4534-914c-5f4a4f494e54,rev?*%
%TF.SameCoordinates,Original*%
%TF.FileFunction,Soldermask,Bot*%
%TF.FilePolarity,Negative*%
%FSLAX46Y46*%
G04 Gerber Fmt 4.6, Leading zero omitted, Abs format (unit mm)*
G04 Created by KiCad (PCBNEW (5.99.0-12392-g2f9c6dd5cc)) date 2021-10-25 10:20:36*
%MOMM*%
%LPD*%
G01*
G04 APERTURE LIST*
G04 Aperture macros list*
%AMRoundRect*
0 Rectangle with rounded corners*
0 $1 Rounding radius*
0 $2 $3 $4 $5 $6 $7 $8 $9 X,Y pos of 4 corners*
0 Add a 4 corners polygon primitive as box body*
4,1,4,$2,$3,$4,$5,$6,$7,$8,$9,$2,$3,0*
0 Add four circle primitives for the rounded corners*
1,1,$1+$1,$2,$3*
1,1,$1+$1,$4,$5*
1,1,$1+$1,$6,$7*
1,1,$1+$1,$8,$9*
0 Add four rect primitives between the rounded corners*
20,1,$1+$1,$2,$3,$4,$5,0*
20,1,$1+$1,$4,$5,$6,$7,0*
20,1,$1+$1,$6,$7,$8,$9,0*
20,1,$1+$1,$8,$9,$2,$3,0*%
%AMRotRect*
0 Rectangle, with rotation*
0 The origin of the aperture is its center*
0 $1 length*
0 $2 width*
0 $3 Rotation angle, in degrees counterclockwise*
0 Add horizontal line*
21,1,$1,$2,0,0,$3*%
G04 Aperture macros list end*
%ADD10C,2.400000*%
%ADD11C,2.600000*%
%ADD12C,1.600000*%
%ADD13RoundRect,0.237500X0.250000X0.237500X-0.250000X0.237500X-0.250000X-0.237500X0.250000X-0.237500X0*%
%ADD14RoundRect,0.249999X1.325827X0.689429X0.689429X1.325827X-1.325827X-0.689429X-0.689429X-1.325827X0*%
%ADD15R,1.500000X1.500000*%
%ADD16RoundRect,0.062500X0.062500X0.375000X-0.062500X0.375000X-0.062500X-0.375000X0.062500X-0.375000X0*%
%ADD17RoundRect,0.062500X0.375000X0.062500X-0.375000X0.062500X-0.375000X-0.062500X0.375000X-0.062500X0*%
%ADD18RoundRect,0.237500X0.237500X-0.250000X0.237500X0.250000X-0.237500X0.250000X-0.237500X-0.250000X0*%
%ADD19RoundRect,0.101600X0.500000X0.800000X-0.500000X0.800000X-0.500000X-0.800000X0.500000X-0.800000X0*%
%ADD20RoundRect,0.101600X2.700000X3.100000X-2.700000X3.100000X-2.700000X-3.100000X2.700000X-3.100000X0*%
%ADD21RoundRect,0.237500X-0.300000X-0.237500X0.300000X-0.237500X0.300000X0.237500X-0.300000X0.237500X0*%
%ADD22RoundRect,0.237500X0.237500X-0.300000X0.237500X0.300000X-0.237500X0.300000X-0.237500X-0.300000X0*%
%ADD23RoundRect,0.237500X-0.237500X0.250000X-0.237500X-0.250000X0.237500X-0.250000X0.237500X0.250000X0*%
%ADD24RoundRect,0.237500X-0.237500X0.300000X-0.237500X-0.300000X0.237500X-0.300000X0.237500X0.300000X0*%
%ADD25RotRect,1.020000X1.780000X266.830000*%
%ADD26C,1.020000*%
%ADD27C,1.800000*%
%ADD28RotRect,1.020000X1.780000X273.170000*%
%ADD29RoundRect,0.250000X-0.475000X0.337500X-0.475000X-0.337500X0.475000X-0.337500X0.475000X0.337500X0*%
%ADD30RoundRect,0.250000X-0.574524X-0.097227X-0.097227X-0.574524X0.574524X0.097227X0.097227X0.574524X0*%
%ADD31RoundRect,0.101600X0.375000X0.500000X-0.375000X0.500000X-0.375000X-0.500000X0.375000X-0.500000X0*%
%ADD32RoundRect,0.101600X2.639687X-2.416875X2.639687X2.416875X-2.639687X2.416875X-2.639687X-2.416875X0*%
%ADD33R,2.200000X1.200000*%
%ADD34R,6.400000X5.800000*%
%ADD35RoundRect,0.101600X0.700000X-0.500000X0.700000X0.500000X-0.700000X0.500000X-0.700000X-0.500000X0*%
G04 APERTURE END LIST*
D10*
%TO.C,TP6*%
X148400000Y-137900000D03*
%TD*%
D11*
%TO.C,TP15*%
X125400000Y-93800000D03*
%TD*%
D10*
%TO.C,TP17*%
X178800000Y-104900000D03*
%TD*%
D11*
%TO.C,TP3*%
X151000000Y-89500000D03*
%TD*%
D12*
%TO.C,C15*%
X116432233Y-98432233D03*
X119967767Y-101967767D03*
%TD*%
D11*
%TO.C,TP2*%
X157500000Y-85800000D03*
%TD*%
D10*
%TO.C,TP12*%
X154700000Y-137900000D03*
%TD*%
%TO.C,TP9*%
X159100000Y-134400000D03*
%TD*%
D11*
%TO.C,TP1*%
X157500000Y-89500000D03*
%TD*%
D12*
%TO.C,C14*%
X151900000Y-72400000D03*
X151900000Y-77400000D03*
%TD*%
D10*
%TO.C,TP16*%
X182300000Y-104900000D03*
%TD*%
%TO.C,TP11*%
X154700000Y-134400000D03*
%TD*%
%TO.C,TP10*%
X159100000Y-137900000D03*
%TD*%
%TO.C,TP8*%
X143000000Y-134400000D03*
%TD*%
D11*
%TO.C,TP4*%
X151000000Y-85800000D03*
%TD*%
D10*
%TO.C,TP7*%
X143000000Y-137900000D03*
%TD*%
D11*
%TO.C,TP14*%
X130500000Y-88700000D03*
%TD*%
D10*
%TO.C,TP5*%
X148400000Y-134400000D03*
%TD*%
D12*
%TO.C,C44*%
X137100000Y-130500000D03*
X133564466Y-126964466D03*
%TD*%
D11*
%TO.C,TP13*%
X135400000Y-83800000D03*
%TD*%
D13*
%TO.C,R26*%
X165912500Y-104400000D03*
X164087500Y-104400000D03*
%TD*%
D14*
%TO.C,R21*%
X145476777Y-93676777D03*
X141163425Y-89363425D03*
%TD*%
D15*
%TO.C,U4*%
X161000000Y-105000000D03*
D16*
X161750000Y-103562500D03*
X161250000Y-103562500D03*
X160750000Y-103562500D03*
X160250000Y-103562500D03*
D17*
X159562500Y-104250000D03*
X159562500Y-104750000D03*
X159562500Y-105250000D03*
X159562500Y-105750000D03*
D16*
X160250000Y-106437500D03*
X160750000Y-106437500D03*
X161250000Y-106437500D03*
X161750000Y-106437500D03*
D17*
X162437500Y-105750000D03*
X162437500Y-105250000D03*
X162437500Y-104750000D03*
X162437500Y-104250000D03*
%TD*%
D18*
%TO.C,R20*%
X165200000Y-118912500D03*
X165200000Y-117087500D03*
%TD*%
D13*
%TO.C,R27*%
X172812500Y-104400000D03*
X170987500Y-104400000D03*
%TD*%
D19*
%TO.C,U$29*%
X158880000Y-82700000D03*
D20*
X156600000Y-75400000D03*
D19*
X154320000Y-82700000D03*
%TD*%
D21*
%TO.C,C11*%
X160237500Y-101700000D03*
X161962500Y-101700000D03*
%TD*%
D22*
%TO.C,C25*%
X158100000Y-130662500D03*
X158100000Y-128937500D03*
%TD*%
D23*
%TO.C,R8*%
X169000000Y-130000000D03*
X169000000Y-131825000D03*
%TD*%
D24*
%TO.C,C20*%
X165200000Y-120537500D03*
X165200000Y-122262500D03*
%TD*%
D14*
%TO.C,R4*%
X135476777Y-103576777D03*
X131163425Y-99263425D03*
%TD*%
D25*
%TO.C,J9*%
X175853994Y-112975194D03*
X181665089Y-113297033D03*
X175994453Y-110439081D03*
X181805547Y-110760919D03*
X176134911Y-107902967D03*
X181946006Y-108224806D03*
D26*
X180308515Y-108134116D03*
D27*
X178829771Y-111868057D03*
D26*
X180027598Y-113206343D03*
X180168057Y-110670229D03*
X177631943Y-110529771D03*
X177491485Y-113065884D03*
X177772402Y-107993657D03*
D27*
X178970229Y-109331943D03*
%TD*%
D28*
%TO.C,J10*%
X176134911Y-102097033D03*
X181946006Y-101775194D03*
X175994453Y-99560919D03*
X181805547Y-99239081D03*
X175853994Y-97024806D03*
X181665089Y-96702967D03*
D27*
X178970229Y-100668057D03*
D26*
X177631943Y-99470229D03*
D27*
X178829771Y-98131943D03*
D26*
X177772402Y-102006343D03*
X180308515Y-101865884D03*
X177491485Y-96934116D03*
X180168057Y-99329771D03*
X180027598Y-96793657D03*
%TD*%
D23*
%TO.C,R12*%
X166800000Y-130000000D03*
X166800000Y-131825000D03*
%TD*%
D29*
%TO.C,C17*%
X140100000Y-78062500D03*
X140100000Y-80137500D03*
%TD*%
D30*
%TO.C,C16*%
X113766377Y-102866377D03*
X115233623Y-104333623D03*
%TD*%
D18*
%TO.C,R25*%
X169400000Y-107812500D03*
X169400000Y-105987500D03*
%TD*%
D14*
%TO.C,R3*%
X140476777Y-98476777D03*
X136163425Y-94163425D03*
%TD*%
D23*
%TO.C,R22*%
X171000000Y-105987500D03*
X171000000Y-107812500D03*
%TD*%
%TO.C,R5*%
X171100000Y-129987500D03*
X171100000Y-131812500D03*
%TD*%
D31*
%TO.C,Q8*%
X175305000Y-91104250D03*
X174035000Y-91104250D03*
X172765000Y-91104250D03*
X171495000Y-91104250D03*
D32*
X173400000Y-87512375D03*
%TD*%
D23*
%TO.C,R14*%
X164800000Y-130087500D03*
X164800000Y-131912500D03*
%TD*%
D18*
%TO.C,R23*%
X172600000Y-107812500D03*
X172600000Y-105987500D03*
%TD*%
D33*
%TO.C,R24*%
X162900000Y-79120000D03*
D34*
X169200000Y-81400000D03*
D33*
X162900000Y-83680000D03*
%TD*%
D35*
%TO.C,T2*%
X167700000Y-101550000D03*
X169900000Y-102500000D03*
X167700000Y-103450000D03*
%TD*%
M02*
