M48
; DRILL file {KiCad (5.99.0-12392-g2f9c6dd5cc)} date Mon Oct 25 10:20:40 2021
; FORMAT={-:-/ absolute / inch / decimal}
; #@! TF.CreationDate,2021-10-25T10:20:40+02:00
; #@! TF.GenerationSoftware,Kicad,Pcbnew,(5.99.0-12392-g2f9c6dd5cc)
; #@! TF.FileFunction,Plated,1,2,PTH
FMAT,2
INCH
; #@! TA.AperFunction,Plated,PTH,ViaDrill
T1C0.0079
; #@! TA.AperFunction,Plated,PTH,ViaDrill
T2C0.0118
; #@! TA.AperFunction,Plated,PTH,ViaDrill
T3C0.0138
; #@! TA.AperFunction,Plated,PTH,ViaDrill
T4C0.0177
; #@! TA.AperFunction,Plated,PTH,ViaDrill
T5C0.0256
; #@! TA.AperFunction,Plated,PTH,ComponentDrill
T6C0.0315
; #@! TA.AperFunction,Plated,PTH,ComponentDrill
T7C0.0472
; #@! TA.AperFunction,Plated,PTH,ComponentDrill
T8C0.0512
%
G90
G05
T1
X4.4567Y-4.1693
X4.5769Y-3.6689
X4.5769Y-3.6929
X4.5769Y-3.7201
X4.5769Y-3.7441
X4.5769Y-3.7713
X4.5769Y-3.7953
X4.6009Y-3.6689
X4.6009Y-3.6929
X4.6009Y-3.7201
X4.6009Y-3.7441
X4.6009Y-3.7713
X4.6009Y-3.7953
X4.6249Y-3.6689
X4.6249Y-3.6929
X4.6249Y-3.7201
X4.6249Y-3.7441
X4.6249Y-3.7713
X4.6249Y-3.7953
X4.6489Y-3.6689
X4.6489Y-3.6929
X4.6489Y-3.7201
X4.6489Y-3.7441
X4.6489Y-3.7713
X4.6489Y-3.7953
X4.6729Y-3.6689
X4.6729Y-3.6929
X4.6729Y-3.7201
X4.6729Y-3.7441
X4.6729Y-3.7713
X4.6729Y-3.7953
X4.6969Y-3.6689
X4.6969Y-3.6929
X4.6969Y-3.7201
X4.6969Y-3.7441
X4.6969Y-3.7713
X4.6969Y-3.7953
X4.7205Y-4.2205
X4.7598Y-4.3031
X4.8031Y-4.4764
X4.8103Y-5.0197
X4.8103Y-5.0429
X4.8103Y-5.0669
X4.8131Y-3.8815
X4.8131Y-3.9055
X4.8131Y-3.9327
X4.8131Y-3.9567
X4.8131Y-3.9839
X4.8131Y-4.0079
X4.8131Y-4.0311
X4.8131Y-4.0551
X4.8343Y-5.0197
X4.8343Y-5.0429
X4.8343Y-5.0669
X4.8371Y-3.8815
X4.8371Y-3.9055
X4.8371Y-3.9327
X4.8371Y-3.9567
X4.8371Y-3.9839
X4.8371Y-4.0079
X4.8371Y-4.0311
X4.8371Y-4.0551
X4.8583Y-4.5236
X4.8583Y-4.5748
X4.8583Y-5.0197
X4.8583Y-5.0429
X4.8583Y-5.0669
X4.8611Y-3.8815
X4.8611Y-3.9055
X4.8611Y-3.9327
X4.8611Y-3.9567
X4.8611Y-3.9839
X4.8611Y-4.0079
X4.8611Y-4.0311
X4.8611Y-4.0551
X4.8851Y-3.8815
X4.8851Y-3.9055
X4.8851Y-3.9327
X4.8851Y-3.9567
X4.8851Y-3.9839
X4.8851Y-4.0079
X4.8851Y-4.0311
X4.8851Y-4.0551
X4.8865Y-4.6318
X4.9091Y-3.8815
X4.9091Y-3.9055
X4.9091Y-3.9327
X4.9091Y-3.9567
X4.9091Y-3.9839
X4.9091Y-4.0079
X4.9091Y-4.0311
X4.9091Y-4.0551
X4.9105Y-4.5268
X4.9331Y-3.8815
X4.9331Y-3.9055
X4.9331Y-3.9327
X4.9331Y-3.9567
X4.9331Y-3.9839
X4.9331Y-4.0079
X4.9331Y-4.0311
X4.9331Y-4.0551
X4.9825Y-4.6138
X4.9948Y-4.8189
X5.0065Y-4.5898
X5.0065Y-4.6138
X5.0065Y-4.6378
X5.0305Y-4.5658
X5.0305Y-4.5898
X5.0305Y-4.6138
X5.0305Y-4.6378
X5.0305Y-4.6618
X5.0545Y-4.5418
X5.0545Y-4.5658
X5.0545Y-4.5898
X5.0545Y-4.6138
X5.0545Y-4.6378
X5.0545Y-4.6618
X5.0545Y-4.6858
X5.0785Y-4.5178
X5.0785Y-4.5418
X5.0785Y-4.5658
X5.0785Y-4.5898
X5.0785Y-4.6138
X5.0785Y-4.6378
X5.0785Y-4.6618
X5.0785Y-4.6858
X5.0785Y-4.7098
X5.0827Y-4.0748
X5.0984Y-4.4055
X5.1025Y-4.4938
X5.1025Y-4.5178
X5.1025Y-4.5418
X5.1025Y-4.5658
X5.1025Y-4.5898
X5.1025Y-4.6138
X5.1025Y-4.6378
X5.1025Y-4.6618
X5.1025Y-4.6858
X5.1025Y-4.7098
X5.1025Y-4.7338
X5.1265Y-4.5178
X5.1265Y-4.5418
X5.1265Y-4.5658
X5.1265Y-4.5898
X5.1265Y-4.6138
X5.1265Y-4.6378
X5.1265Y-4.6618
X5.1265Y-4.6858
X5.1265Y-4.7098
X5.1505Y-4.5418
X5.1505Y-4.5658
X5.1505Y-4.5898
X5.1505Y-4.6138
X5.1505Y-4.6378
X5.1505Y-4.6618
X5.1505Y-4.6858
X5.1614Y-3.9961
X5.1693Y-4.252
X5.1713Y-5.0666
X5.1713Y-5.0906
X5.1713Y-5.1847
X5.1713Y-5.2087
X5.1745Y-4.5658
X5.1745Y-4.5898
X5.1745Y-4.6138
X5.1745Y-4.6378
X5.1745Y-4.6618
X5.1772Y-3.9803
X5.1772Y-4.0118
X5.1929Y-3.9646
X5.1929Y-3.9961
X5.1953Y-5.0666
X5.1953Y-5.0906
X5.1953Y-5.1847
X5.1953Y-5.2087
X5.1985Y-4.5898
X5.1985Y-4.6138
X5.1985Y-4.6378
X5.2087Y-3.9488
X5.2087Y-3.9803
X5.2092Y-4.1187
X5.2193Y-5.0666
X5.2193Y-5.0906
X5.2193Y-5.1847
X5.2193Y-5.2087
X5.2225Y-4.6138
X5.2244Y-3.9331
X5.2244Y-3.9646
X5.2402Y-3.9173
X5.2402Y-3.9488
X5.2433Y-5.0666
X5.2433Y-5.0906
X5.2433Y-5.1847
X5.2433Y-5.2087
X5.248Y-4.2087
X5.2559Y-3.9331
X5.2673Y-5.0666
X5.2673Y-5.0906
X5.2673Y-5.1847
X5.2673Y-5.2087
X5.2913Y-5.0666
X5.2913Y-5.0906
X5.2913Y-5.1847
X5.2913Y-5.2087
X5.3189Y-4.5591
X5.3543Y-3.7992
X5.3701Y-3.7835
X5.3701Y-3.815
X5.3858Y-3.7677
X5.3858Y-3.7992
X5.3858Y-4.3268
X5.3918Y-4.165
X5.3918Y-4.189
X5.3918Y-4.2122
X5.3918Y-4.2362
X5.3918Y-4.2595
X5.3918Y-4.2835
X5.4016Y-3.752
X5.4016Y-3.7835
X5.4094Y-3.8898
X5.4158Y-4.165
X5.4158Y-4.189
X5.4158Y-4.2122
X5.4158Y-4.2362
X5.4158Y-4.2595
X5.4158Y-4.2835
X5.4173Y-3.7362
X5.4173Y-3.7677
X5.4204Y-3.818
X5.4325Y-4.6018
X5.4331Y-3.7205
X5.4331Y-3.752
X5.4398Y-4.165
X5.4398Y-4.189
X5.4398Y-4.2122
X5.4398Y-4.2362
X5.4398Y-4.2595
X5.4398Y-4.2835
X5.4488Y-3.7362
X5.4638Y-4.165
X5.4638Y-4.189
X5.4638Y-4.2122
X5.4638Y-4.2362
X5.4638Y-4.2595
X5.4638Y-4.2835
X5.4796Y-3.9764
X5.4796Y-3.9996
X5.4796Y-4.0236
X5.4803Y-4.4331
X5.4835Y-4.8543
X5.4835Y-4.8776
X5.4835Y-4.9016
X5.4878Y-4.165
X5.4878Y-4.189
X5.4878Y-4.2122
X5.4878Y-4.2362
X5.4878Y-4.2595
X5.4878Y-4.2835
X5.4921Y-3.6929
X5.5036Y-3.9764
X5.5036Y-3.9996
X5.5036Y-4.0236
X5.5075Y-4.8543
X5.5075Y-4.8776
X5.5075Y-4.9016
X5.5118Y-4.165
X5.5118Y-4.189
X5.5118Y-4.2122
X5.5118Y-4.2362
X5.5118Y-4.2595
X5.5118Y-4.2835
X5.5276Y-3.9764
X5.5276Y-3.9996
X5.5276Y-4.0236
X5.5315Y-4.8543
X5.5315Y-4.8776
X5.5315Y-4.9016
X5.5422Y-3.7548
X5.5591Y-3.6063
X5.5637Y-4.8254
X5.5748Y-3.5906
X5.5748Y-3.622
X5.5906Y-3.5748
X5.5906Y-3.6063
X5.6063Y-3.5591
X5.6063Y-3.5906
X5.622Y-3.5433
X5.622Y-3.5748
X5.637Y-3.7953
X5.637Y-3.8185
X5.637Y-3.8425
X5.6378Y-3.5276
X5.6378Y-3.5591
X5.6535Y-3.5433
X5.661Y-3.7953
X5.661Y-3.8185
X5.661Y-3.8425
X5.6693Y-3.6417
X5.6831Y-2.9248
X5.6831Y-2.9488
X5.6831Y-2.976
X5.6831Y-3.0
X5.6831Y-3.0272
X5.6831Y-3.0512
X5.6835Y-3.1732
X5.6835Y-3.1972
X5.6835Y-3.2244
X5.6835Y-3.2484
X5.6835Y-3.2717
X5.6835Y-3.2957
X5.685Y-3.7953
X5.685Y-3.8185
X5.685Y-3.8425
X5.7071Y-2.9248
X5.7071Y-2.9488
X5.7071Y-2.976
X5.7071Y-3.0
X5.7071Y-3.0272
X5.7071Y-3.0512
X5.7075Y-3.1732
X5.7075Y-3.1972
X5.7075Y-3.2244
X5.7075Y-3.2484
X5.7075Y-3.2717
X5.7075Y-3.2957
X5.7311Y-2.9248
X5.7311Y-2.9488
X5.7311Y-2.976
X5.7311Y-3.0
X5.7311Y-3.0272
X5.7311Y-3.0512
X5.7315Y-3.1732
X5.7315Y-3.1972
X5.7315Y-3.2244
X5.7315Y-3.2484
X5.7315Y-3.2717
X5.7315Y-3.2957
X5.7551Y-2.9248
X5.7551Y-2.9488
X5.7551Y-2.976
X5.7551Y-3.0
X5.7551Y-3.0272
X5.7551Y-3.0512
X5.7555Y-3.1732
X5.7555Y-3.1972
X5.7555Y-3.2244
X5.7555Y-3.2484
X5.7555Y-3.2717
X5.7555Y-3.2957
X5.7717Y-3.3303
X5.7717Y-3.3543
X5.7717Y-3.3776
X5.7717Y-3.4016
X5.7717Y-3.4248
X5.7717Y-3.4488
X5.7717Y-3.4721
X5.7717Y-3.4961
X5.7717Y-3.5193
X5.7717Y-3.5433
X5.7717Y-3.5666
X5.7717Y-3.5906
X5.7791Y-2.9248
X5.7791Y-2.9488
X5.7791Y-2.976
X5.7791Y-3.0
X5.7791Y-3.0272
X5.7791Y-3.0512
X5.7795Y-3.1732
X5.7795Y-3.1972
X5.7795Y-3.2244
X5.7795Y-3.2484
X5.7795Y-3.2717
X5.7795Y-3.2957
X5.7953Y-3.3303
X5.7953Y-3.3543
X5.7953Y-3.3776
X5.7953Y-3.4016
X5.7953Y-3.4248
X5.7953Y-3.4488
X5.7953Y-3.4721
X5.7953Y-3.4961
X5.7953Y-3.5193
X5.7953Y-3.5433
X5.7953Y-3.5666
X5.7953Y-3.5906
X5.8031Y-2.9248
X5.8031Y-2.9488
X5.8031Y-2.976
X5.8031Y-3.0
X5.8031Y-3.0272
X5.8031Y-3.0512
X5.8035Y-3.1732
X5.8035Y-3.1972
X5.8035Y-3.2244
X5.8035Y-3.2484
X5.8035Y-3.2717
X5.8035Y-3.2957
X5.8071Y-4.8926
X5.815Y-4.8583
X5.8189Y-3.3303
X5.8189Y-3.3543
X5.8189Y-3.3776
X5.8189Y-3.4016
X5.8189Y-3.4248
X5.8189Y-3.4488
X5.8189Y-3.4721
X5.8189Y-3.4961
X5.8189Y-3.5193
X5.8189Y-3.5433
X5.8189Y-3.5666
X5.8189Y-3.5906
X5.8228Y-4.8307
X5.8315Y-4.6378
X5.8425Y-4.5866
X5.8555Y-4.6378
X5.878Y-4.8307
X5.8795Y-4.6378
X5.9016Y-4.542
X5.9104Y-5.0034
X5.9606Y-4.8268
X5.9665Y-4.9858
X5.9717Y-4.4528
X5.9717Y-4.476
X5.9717Y-4.5
X5.9724Y-4.6772
X5.9845Y-4.9648
X5.9957Y-4.4528
X5.9957Y-4.476
X5.9957Y-4.5
X5.9995Y-4.6858
X6.0085Y-4.9438
X6.0197Y-4.4528
X6.0197Y-4.476
X6.0197Y-4.5
X6.0265Y-4.6858
X6.0265Y-4.9858
X6.0295Y-4.9228
X6.0535Y-4.6858
X6.0906Y-4.9488
X6.1024Y-4.9685
X6.1134Y-4.5236
X6.1134Y-4.5469
X6.1134Y-4.5709
X6.1374Y-4.5236
X6.1374Y-4.5469
X6.1374Y-4.5709
X6.1496Y-4.9755
X6.1614Y-4.5236
X6.1614Y-4.5469
X6.1614Y-4.5709
X6.1809Y-4.5903
X6.185Y-4.7795
X6.2559Y-4.7244
X6.2559Y-4.8028
X6.2598Y-5.0827
X6.2598Y-5.1535
X6.267Y-4.3228
X6.267Y-4.3461
X6.267Y-4.3701
X6.291Y-4.3228
X6.291Y-4.3461
X6.291Y-4.3701
X6.2992Y-4.5079
X6.315Y-3.7165
X6.315Y-4.1102
X6.315Y-4.1339
X6.315Y-4.1575
X6.315Y-4.3228
X6.315Y-4.3461
X6.315Y-4.3701
X6.3268Y-4.8701
X6.3307Y-4.5394
X6.3386Y-4.1102
X6.3386Y-4.1339
X6.3386Y-4.1575
X6.3386Y-5.0
X6.3564Y-5.252
X6.3564Y-5.276
X6.3564Y-5.2992
X6.3564Y-5.3232
X6.3564Y-5.3465
X6.3564Y-5.3705
X6.3622Y-4.1102
X6.3622Y-4.1339
X6.3622Y-4.1575
X6.3661Y-5.0787
X6.3681Y-4.0394
X6.3692Y-4.6535
X6.3709Y-4.6142
X6.3804Y-5.252
X6.3804Y-5.276
X6.3804Y-5.2992
X6.3804Y-5.3232
X6.3804Y-5.3465
X6.3804Y-5.3705
X6.3898Y-4.9882
X6.4033Y-4.8151
X6.4044Y-5.252
X6.4044Y-5.276
X6.4044Y-5.2992
X6.4044Y-5.3232
X6.4044Y-5.3465
X6.4044Y-5.3705
X6.4139Y-5.0714
X6.4244Y-4.6929
X6.4261Y-4.8189
X6.4284Y-5.252
X6.4284Y-5.276
X6.4284Y-5.2992
X6.4284Y-5.3232
X6.4284Y-5.3465
X6.4284Y-5.3705
X6.4449Y-4.6063
X6.4524Y-5.252
X6.4524Y-5.276
X6.4524Y-5.2992
X6.4524Y-5.3232
X6.4524Y-5.3465
X6.4524Y-5.3705
X6.4528Y-4.2323
X6.4636Y-4.8189
X6.4764Y-5.252
X6.4764Y-5.276
X6.4764Y-5.2992
X6.4764Y-5.3232
X6.4764Y-5.3465
X6.4764Y-5.3705
X6.4843Y-4.4685
X6.4961Y-5.0748
X6.4992Y-5.2516
X6.4992Y-5.2748
X6.4992Y-5.2988
X6.4996Y-5.3228
X6.4996Y-5.3461
X6.5054Y-4.6471
X6.5079Y-4.811
X6.5232Y-5.2516
X6.5232Y-5.2748
X6.5232Y-5.2988
X6.5236Y-5.3228
X6.5236Y-5.3461
X6.5315Y-5.0354
X6.538Y-4.6038
X6.5472Y-5.2516
X6.5472Y-5.2748
X6.5472Y-5.2988
X6.5472Y-5.3225
X6.551Y-4.9213
X6.5512Y-4.1417
X6.5551Y-4.7992
X6.5591Y-4.5984
X6.5705Y-5.252
X6.5705Y-5.2752
X6.5709Y-5.2988
X6.5712Y-5.3228
X6.5748Y-4.9606
X6.5787Y-4.6457
X6.5787Y-5.0797
X6.5945Y-4.8701
X6.5945Y-5.252
X6.5945Y-5.2752
X6.5949Y-5.2988
X6.6102Y-4.9488
X6.6142Y-4.8898
X6.6177Y-5.252
X6.6177Y-5.2752
X6.6181Y-4.3819
X6.626Y-4.1811
X6.626Y-4.2441
X6.6299Y-4.9606
X6.6339Y-4.1328
X6.6417Y-5.252
X6.6417Y-5.2752
X6.6516Y-4.9654
X6.6535Y-5.0797
X6.6654Y-4.685
X6.6654Y-4.7244
X6.6732Y-4.7446
X6.6741Y-4.9693
X6.6846Y-4.7807
X6.685Y-4.6969
X6.7126Y-4.6142
X6.7126Y-4.65
X6.7126Y-4.6732
X6.7126Y-4.6969
X6.7126Y-4.7205
X6.7323Y-5.0797
X6.7355Y-4.4094
X6.7355Y-4.4327
X6.7355Y-4.4567
X6.7362Y-4.65
X6.7362Y-4.6732
X6.7362Y-4.6969
X6.7362Y-4.7205
X6.7397Y-4.8947
X6.7402Y-4.374
X6.7413Y-4.7789
X6.7559Y-3.6339
X6.7595Y-4.4094
X6.7595Y-4.4327
X6.7595Y-4.4567
X6.7756Y-4.878
X6.7835Y-4.4094
X6.7835Y-4.4327
X6.7835Y-4.4567
X6.8071Y-4.9892
X6.8106Y-5.0594
X6.8106Y-5.0827
X6.8228Y-5.0079
X6.8268Y-4.2205
X6.8268Y-4.311
X6.8268Y-4.4938
X6.8346Y-5.0594
X6.8346Y-5.0827
X6.8465Y-4.1515
X6.8858Y-4.8307
X6.8937Y-4.622
X6.8937Y-4.748
X6.9016Y-4.7087
X6.913Y-4.3862
X6.913Y-4.4094
X6.937Y-4.3862
X6.937Y-4.4094
X6.9406Y-4.9216
X6.9406Y-4.9449
X6.9646Y-4.9216
X6.9646Y-4.9449
X7.0429Y-4.5593
X7.0429Y-4.5122
X7.0429Y-4.5354
X7.0669Y-4.5593
X7.0669Y-4.5122
X7.0669Y-4.5354
X7.0902Y-4.5122
X7.0902Y-4.5354
X7.0906Y-4.5591
X7.1417Y-4.3071
T2
X4.6575Y-3.437
X4.6811Y-3.4134
X4.6811Y-3.4606
X4.7047Y-3.3858
X4.7047Y-3.437
X4.7165Y-3.5394
X4.7283Y-3.3622
X4.7283Y-3.4094
X4.7402Y-3.5157
X4.7402Y-3.563
X4.752Y-3.3386
X4.752Y-3.3858
X4.7638Y-3.4921
X4.7638Y-3.5394
X4.7638Y-3.5866
X4.7756Y-3.315
X4.7756Y-3.3622
X4.7874Y-3.4685
X4.7874Y-3.5157
X4.7874Y-3.563
X4.7874Y-3.6102
X4.7992Y-3.2913
X4.7992Y-3.3386
X4.811Y-3.4449
X4.811Y-3.4921
X4.811Y-3.5394
X4.811Y-3.5866
X4.8228Y-3.2677
X4.8228Y-3.315
X4.8346Y-3.4213
X4.8346Y-3.4685
X4.8346Y-3.5157
X4.8346Y-3.563
X4.8465Y-3.2441
X4.8465Y-3.2913
X4.8583Y-3.4449
X4.8583Y-3.4921
X4.8583Y-3.5394
X4.8701Y-3.2205
X4.8701Y-3.2677
X4.8819Y-3.4685
X4.8819Y-3.5157
X4.8937Y-3.1969
X4.8937Y-3.2441
X4.9055Y-3.4921
X4.9134Y-3.3465
X4.9173Y-3.1732
X4.9173Y-3.2205
X4.937Y-3.3228
X4.937Y-3.3701
X4.9409Y-3.1496
X4.9409Y-3.1969
X4.9606Y-3.2992
X4.9606Y-3.3465
X4.9606Y-3.3937
X4.9646Y-3.126
X4.9646Y-3.1732
X4.9724Y-3.811
X4.9843Y-3.2756
X4.9843Y-3.3228
X4.9843Y-3.3701
X4.9843Y-3.4173
X4.9882Y-3.1024
X4.9882Y-3.1496
X4.9961Y-3.7874
X4.9961Y-3.8346
X5.0079Y-3.252
X5.0079Y-3.2992
X5.0079Y-3.3465
X5.0079Y-3.3937
X5.0118Y-3.0787
X5.0118Y-3.126
X5.0197Y-3.7638
X5.0197Y-3.811
X5.0197Y-3.8583
X5.0315Y-3.2283
X5.0315Y-3.2756
X5.0315Y-3.3228
X5.0315Y-3.3701
X5.0354Y-3.0591
X5.0354Y-3.1024
X5.0433Y-3.7402
X5.0433Y-3.7874
X5.0433Y-3.8346
X5.0433Y-3.8819
X5.0551Y-3.252
X5.0551Y-3.2992
X5.0551Y-3.3465
X5.0591Y-3.0354
X5.0591Y-3.0827
X5.0669Y-3.7165
X5.0669Y-3.7638
X5.0669Y-3.811
X5.0669Y-3.8583
X5.0669Y-3.9055
X5.0787Y-3.2756
X5.0787Y-3.3228
X5.0827Y-3.0118
X5.0827Y-3.0591
X5.0906Y-3.6929
X5.0906Y-3.7402
X5.0906Y-3.7874
X5.0906Y-3.8346
X5.0906Y-3.8819
X5.1024Y-3.2992
X5.1063Y-2.9882
X5.1063Y-3.0354
X5.1142Y-3.1457
X5.1142Y-3.7165
X5.1142Y-3.7638
X5.1142Y-3.811
X5.1142Y-3.8583
X5.1299Y-2.9646
X5.1299Y-3.0118
X5.1378Y-3.122
X5.1378Y-3.1693
X5.1378Y-3.7402
X5.1378Y-3.7874
X5.1378Y-3.8346
X5.1535Y-2.9409
X5.1535Y-2.9882
X5.1614Y-3.0984
X5.1614Y-3.1457
X5.1614Y-3.1929
X5.1614Y-3.7638
X5.1614Y-3.811
X5.1693Y-3.6102
X5.1772Y-2.9646
X5.185Y-3.0748
X5.185Y-3.122
X5.185Y-3.1693
X5.185Y-3.2165
X5.185Y-3.7874
X5.1929Y-3.5866
X5.1929Y-3.6339
X5.2087Y-3.0512
X5.2087Y-3.0984
X5.2087Y-3.1457
X5.2087Y-3.1929
X5.2165Y-3.563
X5.2165Y-3.6102
X5.2165Y-3.6575
X5.2323Y-3.0276
X5.2323Y-3.0748
X5.2323Y-3.122
X5.2323Y-3.1693
X5.2402Y-3.5394
X5.2402Y-3.5866
X5.2402Y-3.6339
X5.2402Y-3.6811
X5.2559Y-3.0512
X5.2559Y-3.0984
X5.2559Y-3.1457
X5.2638Y-3.5157
X5.2638Y-3.563
X5.2638Y-3.6102
X5.2638Y-3.6575
X5.2638Y-3.7047
X5.2795Y-3.0748
X5.2795Y-3.122
X5.2874Y-3.4921
X5.2874Y-3.5394
X5.2874Y-3.5866
X5.2874Y-3.6339
X5.2874Y-3.6811
X5.3031Y-3.0984
X5.311Y-3.5157
X5.311Y-3.563
X5.311Y-3.6102
X5.311Y-3.6575
X5.3346Y-3.5394
X5.3346Y-3.5866
X5.3346Y-3.6339
X5.3583Y-3.563
X5.3583Y-3.6102
X5.3661Y-3.4173
X5.3819Y-3.5866
X5.3898Y-3.3937
X5.3898Y-3.4409
X5.4134Y-3.3701
X5.4134Y-3.4173
X5.4134Y-3.4646
X5.437Y-3.3465
X5.437Y-3.3937
X5.437Y-3.4409
X5.437Y-3.4882
X5.4606Y-3.3228
X5.4606Y-3.3701
X5.4606Y-3.4173
X5.4606Y-3.4646
X5.4606Y-3.5118
X5.4843Y-3.2992
X5.4843Y-3.3465
X5.4843Y-3.3937
X5.4843Y-3.4409
X5.4843Y-3.4882
X5.5079Y-3.3228
X5.5079Y-3.3701
X5.5079Y-3.4173
X5.5079Y-3.4646
X5.5315Y-3.3465
X5.5315Y-3.3937
X5.5315Y-3.4409
X5.5551Y-3.3701
X5.5551Y-3.4173
X5.5787Y-3.3937
X6.063Y-3.311
X6.063Y-3.3504
X6.063Y-3.3898
X6.063Y-3.4291
X6.063Y-3.4685
X6.063Y-3.5079
X6.063Y-3.5472
X6.063Y-3.5866
X6.0748Y-2.874
X6.0748Y-2.9134
X6.0748Y-2.9488
X6.0748Y-2.9882
X6.0748Y-3.0276
X6.0748Y-3.063
X6.0984Y-3.311
X6.0984Y-3.3504
X6.0984Y-3.3898
X6.0984Y-3.4291
X6.0984Y-3.4685
X6.0984Y-3.5079
X6.0984Y-3.5472
X6.0984Y-3.5866
X6.1102Y-2.874
X6.1102Y-2.9134
X6.1102Y-2.9488
X6.1102Y-2.9882
X6.1102Y-3.0276
X6.1102Y-3.063
X6.1339Y-3.2323
X6.1339Y-3.2717
X6.1457Y-2.874
X6.1457Y-2.9134
X6.1457Y-2.9488
X6.1457Y-2.9882
X6.1457Y-3.0276
X6.1457Y-3.063
X6.1693Y-3.2323
X6.1693Y-3.2717
X6.1811Y-2.874
X6.1811Y-2.9134
X6.1811Y-2.9488
X6.1811Y-2.9882
X6.1811Y-3.0276
X6.1811Y-3.063
X6.2047Y-3.2323
X6.2047Y-3.2717
X6.2087Y-4.0866
X6.2165Y-2.874
X6.2165Y-2.9134
X6.2165Y-2.9488
X6.2165Y-2.9882
X6.2165Y-3.0276
X6.2165Y-3.063
X6.248Y-4.0669
X6.252Y-2.874
X6.252Y-2.9134
X6.252Y-2.9488
X6.252Y-2.9882
X6.252Y-3.0276
X6.252Y-3.063
X6.3465Y-2.9606
X6.3465Y-2.9961
X6.3465Y-3.0315
X6.3465Y-3.0669
X6.3701Y-3.3504
X6.3701Y-3.3898
X6.3701Y-3.4291
X6.3701Y-3.4685
X6.3701Y-3.5039
X6.374Y-3.2441
X6.3819Y-2.9606
X6.3819Y-2.9961
X6.3819Y-3.0315
X6.3819Y-3.0669
X6.4055Y-3.2441
X6.4055Y-3.3504
X6.4055Y-3.3898
X6.4055Y-3.4291
X6.4055Y-3.4685
X6.4055Y-3.5039
X6.4094Y-3.6732
X6.4173Y-2.9606
X6.4173Y-2.9961
X6.4173Y-3.0315
X6.4173Y-3.0669
X6.4409Y-3.2441
X6.4409Y-3.3504
X6.4409Y-3.3898
X6.4409Y-3.4291
X6.4409Y-3.4685
X6.4409Y-3.5039
X6.4528Y-2.9606
X6.4528Y-2.9961
X6.4528Y-3.0315
X6.4528Y-3.0669
X6.4567Y-3.8819
X6.4764Y-3.2441
X6.4764Y-3.2795
X6.4764Y-3.315
X6.4764Y-3.3504
X6.4764Y-3.3898
X6.4764Y-3.4291
X6.4764Y-3.4685
X6.4764Y-3.5039
X6.5118Y-3.3898
X6.5118Y-3.4291
X6.5118Y-3.4685
X6.5118Y-3.5039
X6.5472Y-3.3898
X6.5472Y-3.4291
X6.5472Y-3.4685
X6.5472Y-3.5039
X6.5709Y-3.122
X6.5709Y-3.1535
X6.5709Y-3.185
X6.5709Y-3.2165
X6.5709Y-3.248
X6.5709Y-3.2795
X6.5827Y-3.3898
X6.5827Y-3.4291
X6.5827Y-3.4685
X6.5827Y-3.5039
X6.6063Y-3.122
X6.6063Y-3.1535
X6.6063Y-3.185
X6.6063Y-3.2165
X6.6063Y-3.248
X6.6063Y-3.2795
X6.6181Y-3.3898
X6.6181Y-3.4291
X6.6181Y-3.4685
X6.6181Y-3.5039
X6.6417Y-3.122
X6.6417Y-3.1535
X6.6417Y-3.185
X6.6417Y-3.2165
X6.6417Y-3.248
X6.6417Y-3.2795
X6.6535Y-3.3898
X6.6535Y-3.4291
X6.6535Y-3.4685
X6.6535Y-3.5039
X6.6772Y-3.122
X6.6772Y-3.1535
X6.6772Y-3.185
X6.6772Y-3.2165
X6.6772Y-3.248
X6.6772Y-3.2795
X6.7126Y-3.122
X6.7126Y-3.1535
X6.7126Y-3.185
X6.7126Y-3.2165
X6.7126Y-3.248
X6.7126Y-3.2795
X6.748Y-3.122
X6.748Y-3.1535
X6.748Y-3.185
X6.748Y-3.2165
X6.748Y-3.248
X6.748Y-3.2795
X6.748Y-3.3661
X6.748Y-3.3976
X6.748Y-3.4291
X6.748Y-3.4606
X6.748Y-3.4921
X6.748Y-3.5236
X6.7835Y-3.3661
X6.7835Y-3.3976
X6.7835Y-3.4291
X6.7835Y-3.4606
X6.7835Y-3.4921
X6.7835Y-3.5236
X6.8189Y-3.3661
X6.8189Y-3.3976
X6.8189Y-3.4291
X6.8189Y-3.4606
X6.8189Y-3.4921
X6.8189Y-3.5236
X6.8543Y-3.3661
X6.8543Y-3.3976
X6.8543Y-3.4291
X6.8543Y-3.4606
X6.8543Y-3.4921
X6.8543Y-3.5236
X6.8898Y-3.3661
X6.8898Y-3.3976
X6.8898Y-3.4291
X6.8898Y-3.4606
X6.8898Y-3.4921
X6.8898Y-3.5236
X6.9252Y-3.3661
X6.9252Y-3.3976
X6.9252Y-3.4291
X6.9252Y-3.4606
X6.9252Y-3.4921
X6.9252Y-3.5236
X6.9843Y-3.4606
X6.9843Y-3.5
X6.9843Y-3.5394
X7.0197Y-3.4606
X7.0197Y-3.5
X7.0197Y-3.5394
X7.0551Y-3.4606
X7.0551Y-3.5
X7.0551Y-3.5394
T3
X5.0197Y-5.0079
X5.3976Y-4.874
X5.3995Y-4.6858
X5.4213Y-4.7362
X5.7835Y-5.0496
X6.874Y-4.3622
X7.1693Y-4.315
T4
X5.4685Y-4.5388
T5
X4.7638Y-4.374
X5.4449Y-4.3661
T6
X4.5839Y-3.8753
X4.7231Y-4.0145
X5.2584Y-4.9986
X5.3976Y-5.1378
X5.9803Y-2.8504
X5.9803Y-3.0472
T7
X5.6299Y-5.2913
X5.6299Y-5.4291
X5.8425Y-5.2913
X5.8425Y-5.4291
X6.0906Y-5.2913
X6.0906Y-5.4291
X6.2638Y-5.2913
X6.2638Y-5.4291
X7.0394Y-4.1299
X7.1772Y-4.1299
T8
X4.937Y-3.6929
X5.1378Y-3.4921
X5.3307Y-3.2992
X5.9449Y-3.378
X5.9449Y-3.5236
X6.2008Y-3.378
X6.2008Y-3.5236
T0
M30
