%TF.GenerationSoftware,KiCad,Pcbnew,(5.99.0-12392-g2f9c6dd5cc)*%
%TF.CreationDate,2021-10-25T10:20:36+02:00*%
%TF.ProjectId,UNIVERSAL_JOINT_v2_2,554e4956-4552-4534-914c-5f4a4f494e54,rev?*%
%TF.SameCoordinates,Original*%
%TF.FileFunction,Legend,Bot*%
%TF.FilePolarity,Positive*%
%FSLAX46Y46*%
G04 Gerber Fmt 4.6, Leading zero omitted, Abs format (unit mm)*
G04 Created by KiCad (PCBNEW (5.99.0-12392-g2f9c6dd5cc)) date 2021-10-25 10:20:36*
%MOMM*%
%LPD*%
G01*
G04 APERTURE LIST*
%ADD10C,0.150000*%
%ADD11C,0.100000*%
%ADD12C,0.101600*%
%ADD13C,0.120000*%
%ADD14C,0.203200*%
%ADD15C,0.127000*%
G04 APERTURE END LIST*
D10*
%TO.C,R26*%
X165642857Y-103422380D02*
X165976190Y-102946190D01*
X166214285Y-103422380D02*
X166214285Y-102422380D01*
X165833333Y-102422380D01*
X165738095Y-102470000D01*
X165690476Y-102517619D01*
X165642857Y-102612857D01*
X165642857Y-102755714D01*
X165690476Y-102850952D01*
X165738095Y-102898571D01*
X165833333Y-102946190D01*
X166214285Y-102946190D01*
X165261904Y-102517619D02*
X165214285Y-102470000D01*
X165119047Y-102422380D01*
X164880952Y-102422380D01*
X164785714Y-102470000D01*
X164738095Y-102517619D01*
X164690476Y-102612857D01*
X164690476Y-102708095D01*
X164738095Y-102850952D01*
X165309523Y-103422380D01*
X164690476Y-103422380D01*
X163833333Y-102422380D02*
X164023809Y-102422380D01*
X164119047Y-102470000D01*
X164166666Y-102517619D01*
X164261904Y-102660476D01*
X164309523Y-102850952D01*
X164309523Y-103231904D01*
X164261904Y-103327142D01*
X164214285Y-103374761D01*
X164119047Y-103422380D01*
X163928571Y-103422380D01*
X163833333Y-103374761D01*
X163785714Y-103327142D01*
X163738095Y-103231904D01*
X163738095Y-102993809D01*
X163785714Y-102898571D01*
X163833333Y-102850952D01*
X163928571Y-102803333D01*
X164119047Y-102803333D01*
X164214285Y-102850952D01*
X164261904Y-102898571D01*
X164309523Y-102993809D01*
D11*
%TO.C,R21*%
X145078440Y-89125365D02*
X144677746Y-89196076D01*
X144795597Y-88842523D02*
X144300622Y-89337497D01*
X144489184Y-89526059D01*
X144559895Y-89549629D01*
X144607035Y-89549629D01*
X144677746Y-89526059D01*
X144748456Y-89455348D01*
X144772027Y-89384638D01*
X144772027Y-89337497D01*
X144748456Y-89266787D01*
X144559895Y-89078225D01*
X144819167Y-89761761D02*
X144819167Y-89808902D01*
X144842737Y-89879613D01*
X144960588Y-89997464D01*
X145031299Y-90021034D01*
X145078440Y-90021034D01*
X145149150Y-89997464D01*
X145196291Y-89950323D01*
X145243431Y-89856042D01*
X145243431Y-89290357D01*
X145549844Y-89596770D01*
X146021249Y-90068174D02*
X145738406Y-89785332D01*
X145879827Y-89926753D02*
X145384853Y-90421728D01*
X145408423Y-90303877D01*
X145408423Y-90209596D01*
X145384853Y-90138885D01*
%TO.C,U4*%
X164533333Y-106116666D02*
X164533333Y-106683333D01*
X164500000Y-106750000D01*
X164466666Y-106783333D01*
X164400000Y-106816666D01*
X164266666Y-106816666D01*
X164200000Y-106783333D01*
X164166666Y-106750000D01*
X164133333Y-106683333D01*
X164133333Y-106116666D01*
X163500000Y-106350000D02*
X163500000Y-106816666D01*
X163666666Y-106083333D02*
X163833333Y-106583333D01*
X163400000Y-106583333D01*
%TO.C,R20*%
X166946666Y-117550000D02*
X166613333Y-117316666D01*
X166946666Y-117150000D02*
X166246666Y-117150000D01*
X166246666Y-117416666D01*
X166280000Y-117483333D01*
X166313333Y-117516666D01*
X166380000Y-117550000D01*
X166480000Y-117550000D01*
X166546666Y-117516666D01*
X166580000Y-117483333D01*
X166613333Y-117416666D01*
X166613333Y-117150000D01*
X166313333Y-117816666D02*
X166280000Y-117850000D01*
X166246666Y-117916666D01*
X166246666Y-118083333D01*
X166280000Y-118150000D01*
X166313333Y-118183333D01*
X166380000Y-118216666D01*
X166446666Y-118216666D01*
X166546666Y-118183333D01*
X166946666Y-117783333D01*
X166946666Y-118216666D01*
X166246666Y-118650000D02*
X166246666Y-118716666D01*
X166280000Y-118783333D01*
X166313333Y-118816666D01*
X166380000Y-118850000D01*
X166513333Y-118883333D01*
X166680000Y-118883333D01*
X166813333Y-118850000D01*
X166880000Y-118816666D01*
X166913333Y-118783333D01*
X166946666Y-118716666D01*
X166946666Y-118650000D01*
X166913333Y-118583333D01*
X166880000Y-118550000D01*
X166813333Y-118516666D01*
X166680000Y-118483333D01*
X166513333Y-118483333D01*
X166380000Y-118516666D01*
X166313333Y-118550000D01*
X166280000Y-118583333D01*
X166246666Y-118650000D01*
D10*
%TO.C,R27*%
X175655357Y-104752380D02*
X175988690Y-104276190D01*
X176226785Y-104752380D02*
X176226785Y-103752380D01*
X175845833Y-103752380D01*
X175750595Y-103800000D01*
X175702976Y-103847619D01*
X175655357Y-103942857D01*
X175655357Y-104085714D01*
X175702976Y-104180952D01*
X175750595Y-104228571D01*
X175845833Y-104276190D01*
X176226785Y-104276190D01*
X175274404Y-103847619D02*
X175226785Y-103800000D01*
X175131547Y-103752380D01*
X174893452Y-103752380D01*
X174798214Y-103800000D01*
X174750595Y-103847619D01*
X174702976Y-103942857D01*
X174702976Y-104038095D01*
X174750595Y-104180952D01*
X175322023Y-104752380D01*
X174702976Y-104752380D01*
X174369642Y-103752380D02*
X173702976Y-103752380D01*
X174131547Y-104752380D01*
D11*
%TO.C,U$29*%
X160366666Y-74668333D02*
X160933333Y-74668333D01*
X161000000Y-74701666D01*
X161033333Y-74735000D01*
X161066666Y-74801666D01*
X161066666Y-74935000D01*
X161033333Y-75001666D01*
X161000000Y-75035000D01*
X160933333Y-75068333D01*
X160366666Y-75068333D01*
X161033333Y-75368333D02*
X161066666Y-75468333D01*
X161066666Y-75635000D01*
X161033333Y-75701666D01*
X161000000Y-75735000D01*
X160933333Y-75768333D01*
X160866666Y-75768333D01*
X160800000Y-75735000D01*
X160766666Y-75701666D01*
X160733333Y-75635000D01*
X160700000Y-75501666D01*
X160666666Y-75435000D01*
X160633333Y-75401666D01*
X160566666Y-75368333D01*
X160500000Y-75368333D01*
X160433333Y-75401666D01*
X160400000Y-75435000D01*
X160366666Y-75501666D01*
X160366666Y-75668333D01*
X160400000Y-75768333D01*
X160266666Y-75568333D02*
X161166666Y-75568333D01*
X160433333Y-76035000D02*
X160400000Y-76068333D01*
X160366666Y-76135000D01*
X160366666Y-76301666D01*
X160400000Y-76368333D01*
X160433333Y-76401666D01*
X160500000Y-76435000D01*
X160566666Y-76435000D01*
X160666666Y-76401666D01*
X161066666Y-76001666D01*
X161066666Y-76435000D01*
X161066666Y-76768333D02*
X161066666Y-76901666D01*
X161033333Y-76968333D01*
X161000000Y-77001666D01*
X160900000Y-77068333D01*
X160766666Y-77101666D01*
X160500000Y-77101666D01*
X160433333Y-77068333D01*
X160400000Y-77035000D01*
X160366666Y-76968333D01*
X160366666Y-76835000D01*
X160400000Y-76768333D01*
X160433333Y-76735000D01*
X160500000Y-76701666D01*
X160666666Y-76701666D01*
X160733333Y-76735000D01*
X160766666Y-76768333D01*
X160800000Y-76835000D01*
X160800000Y-76968333D01*
X160766666Y-77035000D01*
X160733333Y-77068333D01*
X160666666Y-77101666D01*
%TO.C,C11*%
X161650000Y-100550000D02*
X161683333Y-100583333D01*
X161783333Y-100616666D01*
X161850000Y-100616666D01*
X161950000Y-100583333D01*
X162016666Y-100516666D01*
X162050000Y-100450000D01*
X162083333Y-100316666D01*
X162083333Y-100216666D01*
X162050000Y-100083333D01*
X162016666Y-100016666D01*
X161950000Y-99950000D01*
X161850000Y-99916666D01*
X161783333Y-99916666D01*
X161683333Y-99950000D01*
X161650000Y-99983333D01*
X160983333Y-100616666D02*
X161383333Y-100616666D01*
X161183333Y-100616666D02*
X161183333Y-99916666D01*
X161250000Y-100016666D01*
X161316666Y-100083333D01*
X161383333Y-100116666D01*
X160316666Y-100616666D02*
X160716666Y-100616666D01*
X160516666Y-100616666D02*
X160516666Y-99916666D01*
X160583333Y-100016666D01*
X160650000Y-100083333D01*
X160716666Y-100116666D01*
%TO.C,C25*%
X159950000Y-129250000D02*
X159983333Y-129216666D01*
X160016666Y-129116666D01*
X160016666Y-129050000D01*
X159983333Y-128950000D01*
X159916666Y-128883333D01*
X159850000Y-128850000D01*
X159716666Y-128816666D01*
X159616666Y-128816666D01*
X159483333Y-128850000D01*
X159416666Y-128883333D01*
X159350000Y-128950000D01*
X159316666Y-129050000D01*
X159316666Y-129116666D01*
X159350000Y-129216666D01*
X159383333Y-129250000D01*
X159383333Y-129516666D02*
X159350000Y-129550000D01*
X159316666Y-129616666D01*
X159316666Y-129783333D01*
X159350000Y-129850000D01*
X159383333Y-129883333D01*
X159450000Y-129916666D01*
X159516666Y-129916666D01*
X159616666Y-129883333D01*
X160016666Y-129483333D01*
X160016666Y-129916666D01*
X159316666Y-130550000D02*
X159316666Y-130216666D01*
X159650000Y-130183333D01*
X159616666Y-130216666D01*
X159583333Y-130283333D01*
X159583333Y-130450000D01*
X159616666Y-130516666D01*
X159650000Y-130550000D01*
X159716666Y-130583333D01*
X159883333Y-130583333D01*
X159950000Y-130550000D01*
X159983333Y-130516666D01*
X160016666Y-130450000D01*
X160016666Y-130283333D01*
X159983333Y-130216666D01*
X159950000Y-130183333D01*
%TO.C,R8*%
X169416666Y-128108333D02*
X169083333Y-127875000D01*
X169416666Y-127708333D02*
X168716666Y-127708333D01*
X168716666Y-127975000D01*
X168750000Y-128041666D01*
X168783333Y-128075000D01*
X168850000Y-128108333D01*
X168950000Y-128108333D01*
X169016666Y-128075000D01*
X169050000Y-128041666D01*
X169083333Y-127975000D01*
X169083333Y-127708333D01*
X169016666Y-128508333D02*
X168983333Y-128441666D01*
X168950000Y-128408333D01*
X168883333Y-128375000D01*
X168850000Y-128375000D01*
X168783333Y-128408333D01*
X168750000Y-128441666D01*
X168716666Y-128508333D01*
X168716666Y-128641666D01*
X168750000Y-128708333D01*
X168783333Y-128741666D01*
X168850000Y-128775000D01*
X168883333Y-128775000D01*
X168950000Y-128741666D01*
X168983333Y-128708333D01*
X169016666Y-128641666D01*
X169016666Y-128508333D01*
X169050000Y-128441666D01*
X169083333Y-128408333D01*
X169150000Y-128375000D01*
X169283333Y-128375000D01*
X169350000Y-128408333D01*
X169383333Y-128441666D01*
X169416666Y-128508333D01*
X169416666Y-128641666D01*
X169383333Y-128708333D01*
X169350000Y-128741666D01*
X169283333Y-128775000D01*
X169150000Y-128775000D01*
X169083333Y-128741666D01*
X169050000Y-128708333D01*
X169016666Y-128641666D01*
%TO.C,C20*%
X164020000Y-120950000D02*
X164053333Y-120916666D01*
X164086666Y-120816666D01*
X164086666Y-120750000D01*
X164053333Y-120650000D01*
X163986666Y-120583333D01*
X163920000Y-120550000D01*
X163786666Y-120516666D01*
X163686666Y-120516666D01*
X163553333Y-120550000D01*
X163486666Y-120583333D01*
X163420000Y-120650000D01*
X163386666Y-120750000D01*
X163386666Y-120816666D01*
X163420000Y-120916666D01*
X163453333Y-120950000D01*
X163453333Y-121216666D02*
X163420000Y-121250000D01*
X163386666Y-121316666D01*
X163386666Y-121483333D01*
X163420000Y-121550000D01*
X163453333Y-121583333D01*
X163520000Y-121616666D01*
X163586666Y-121616666D01*
X163686666Y-121583333D01*
X164086666Y-121183333D01*
X164086666Y-121616666D01*
X163386666Y-122050000D02*
X163386666Y-122116666D01*
X163420000Y-122183333D01*
X163453333Y-122216666D01*
X163520000Y-122250000D01*
X163653333Y-122283333D01*
X163820000Y-122283333D01*
X163953333Y-122250000D01*
X164020000Y-122216666D01*
X164053333Y-122183333D01*
X164086666Y-122116666D01*
X164086666Y-122050000D01*
X164053333Y-121983333D01*
X164020000Y-121950000D01*
X163953333Y-121916666D01*
X163820000Y-121883333D01*
X163653333Y-121883333D01*
X163520000Y-121916666D01*
X163453333Y-121950000D01*
X163420000Y-121983333D01*
X163386666Y-122050000D01*
%TO.C,R4*%
X135314142Y-99261068D02*
X134913448Y-99331778D01*
X135031299Y-98978225D02*
X134536324Y-99473200D01*
X134724886Y-99661761D01*
X134795597Y-99685332D01*
X134842737Y-99685332D01*
X134913448Y-99661761D01*
X134984159Y-99591051D01*
X135007729Y-99520340D01*
X135007729Y-99473200D01*
X134984159Y-99402489D01*
X134795597Y-99213927D01*
X135408423Y-100015315D02*
X135738406Y-99685332D01*
X135102010Y-100086025D02*
X135337712Y-99614621D01*
X135644125Y-99921034D01*
%TO.C,J9*%
X178445825Y-105769843D02*
X178473475Y-105270608D01*
X178445722Y-105168918D01*
X178382844Y-105098667D01*
X178284840Y-105059855D01*
X178218276Y-105056168D01*
X178850640Y-105091191D02*
X178983769Y-105098564D01*
X179048491Y-105135533D01*
X179079930Y-105170658D01*
X179140965Y-105274192D01*
X179166874Y-105409164D01*
X179152127Y-105675423D01*
X179115159Y-105740144D01*
X179080033Y-105771583D01*
X179011625Y-105801179D01*
X178878496Y-105793806D01*
X178813774Y-105756837D01*
X178782335Y-105721711D01*
X178752739Y-105653304D01*
X178761956Y-105486892D01*
X178798925Y-105422171D01*
X178834050Y-105390731D01*
X178902458Y-105361136D01*
X179035588Y-105368509D01*
X179100309Y-105405478D01*
X179131748Y-105440603D01*
X179161344Y-105509011D01*
%TO.C,J10*%
X178944601Y-94085917D02*
X178972251Y-94585152D01*
X179011063Y-94683155D01*
X179081314Y-94746033D01*
X179183004Y-94773786D01*
X179249569Y-94770099D01*
X178284381Y-94823555D02*
X178683769Y-94801435D01*
X178484075Y-94812495D02*
X178445366Y-94113566D01*
X178517461Y-94209727D01*
X178587712Y-94272605D01*
X178656120Y-94302200D01*
X177813002Y-94148589D02*
X177746437Y-94152275D01*
X177681716Y-94189244D01*
X177650277Y-94224370D01*
X177620681Y-94292778D01*
X177594772Y-94427750D01*
X177603989Y-94594162D01*
X177644644Y-94725448D01*
X177681613Y-94790169D01*
X177716739Y-94821608D01*
X177785147Y-94851204D01*
X177851711Y-94847518D01*
X177916433Y-94810549D01*
X177947872Y-94775423D01*
X177977467Y-94707015D01*
X178003376Y-94572042D01*
X177994160Y-94405631D01*
X177953505Y-94274345D01*
X177916536Y-94209623D01*
X177881410Y-94178184D01*
X177813002Y-94148589D01*
%TO.C,R12*%
X167116666Y-127350000D02*
X166783333Y-127116666D01*
X167116666Y-126950000D02*
X166416666Y-126950000D01*
X166416666Y-127216666D01*
X166450000Y-127283333D01*
X166483333Y-127316666D01*
X166550000Y-127350000D01*
X166650000Y-127350000D01*
X166716666Y-127316666D01*
X166750000Y-127283333D01*
X166783333Y-127216666D01*
X166783333Y-126950000D01*
X167116666Y-128016666D02*
X167116666Y-127616666D01*
X167116666Y-127816666D02*
X166416666Y-127816666D01*
X166516666Y-127750000D01*
X166583333Y-127683333D01*
X166616666Y-127616666D01*
X166483333Y-128283333D02*
X166450000Y-128316666D01*
X166416666Y-128383333D01*
X166416666Y-128550000D01*
X166450000Y-128616666D01*
X166483333Y-128650000D01*
X166550000Y-128683333D01*
X166616666Y-128683333D01*
X166716666Y-128650000D01*
X167116666Y-128250000D01*
X167116666Y-128683333D01*
%TO.C,C17*%
X138670000Y-78650000D02*
X138703333Y-78616666D01*
X138736666Y-78516666D01*
X138736666Y-78450000D01*
X138703333Y-78350000D01*
X138636666Y-78283333D01*
X138570000Y-78250000D01*
X138436666Y-78216666D01*
X138336666Y-78216666D01*
X138203333Y-78250000D01*
X138136666Y-78283333D01*
X138070000Y-78350000D01*
X138036666Y-78450000D01*
X138036666Y-78516666D01*
X138070000Y-78616666D01*
X138103333Y-78650000D01*
X138736666Y-79316666D02*
X138736666Y-78916666D01*
X138736666Y-79116666D02*
X138036666Y-79116666D01*
X138136666Y-79050000D01*
X138203333Y-78983333D01*
X138236666Y-78916666D01*
X138036666Y-79550000D02*
X138036666Y-80016666D01*
X138736666Y-79716666D01*
%TO.C,C16*%
X113170639Y-104292964D02*
X113170639Y-104245823D01*
X113123499Y-104151542D01*
X113076358Y-104104402D01*
X112982077Y-104057261D01*
X112887796Y-104057261D01*
X112817086Y-104080832D01*
X112699235Y-104151542D01*
X112628524Y-104222253D01*
X112557813Y-104340104D01*
X112534243Y-104410815D01*
X112534243Y-104505096D01*
X112581383Y-104599377D01*
X112628524Y-104646517D01*
X112722805Y-104693658D01*
X112769945Y-104693658D01*
X113689184Y-104717228D02*
X113406341Y-104434385D01*
X113547763Y-104575806D02*
X113052788Y-105070781D01*
X113076358Y-104952930D01*
X113076358Y-104858649D01*
X113052788Y-104787939D01*
X113618473Y-105636467D02*
X113524193Y-105542186D01*
X113500622Y-105471475D01*
X113500622Y-105424335D01*
X113524193Y-105306483D01*
X113594903Y-105188632D01*
X113783465Y-105000071D01*
X113854176Y-104976500D01*
X113901316Y-104976500D01*
X113972027Y-105000071D01*
X114066308Y-105094351D01*
X114089878Y-105165062D01*
X114089878Y-105212203D01*
X114066308Y-105282913D01*
X113948457Y-105400764D01*
X113877746Y-105424335D01*
X113830605Y-105424335D01*
X113759895Y-105400764D01*
X113665614Y-105306483D01*
X113642044Y-105235773D01*
X113642044Y-105188632D01*
X113665614Y-105117922D01*
D10*
%TO.C,R25*%
X169952380Y-109357142D02*
X169476190Y-109023809D01*
X169952380Y-108785714D02*
X168952380Y-108785714D01*
X168952380Y-109166666D01*
X169000000Y-109261904D01*
X169047619Y-109309523D01*
X169142857Y-109357142D01*
X169285714Y-109357142D01*
X169380952Y-109309523D01*
X169428571Y-109261904D01*
X169476190Y-109166666D01*
X169476190Y-108785714D01*
X169047619Y-109738095D02*
X169000000Y-109785714D01*
X168952380Y-109880952D01*
X168952380Y-110119047D01*
X169000000Y-110214285D01*
X169047619Y-110261904D01*
X169142857Y-110309523D01*
X169238095Y-110309523D01*
X169380952Y-110261904D01*
X169952380Y-109690476D01*
X169952380Y-110309523D01*
X168952380Y-111214285D02*
X168952380Y-110738095D01*
X169428571Y-110690476D01*
X169380952Y-110738095D01*
X169333333Y-110833333D01*
X169333333Y-111071428D01*
X169380952Y-111166666D01*
X169428571Y-111214285D01*
X169523809Y-111261904D01*
X169761904Y-111261904D01*
X169857142Y-111214285D01*
X169904761Y-111166666D01*
X169952380Y-111071428D01*
X169952380Y-110833333D01*
X169904761Y-110738095D01*
X169857142Y-110690476D01*
D11*
%TO.C,R3*%
X140314142Y-94161068D02*
X139913448Y-94231778D01*
X140031299Y-93878225D02*
X139536324Y-94373200D01*
X139724886Y-94561761D01*
X139795597Y-94585332D01*
X139842737Y-94585332D01*
X139913448Y-94561761D01*
X139984159Y-94491051D01*
X140007729Y-94420340D01*
X140007729Y-94373200D01*
X139984159Y-94302489D01*
X139795597Y-94113927D01*
X139984159Y-94821034D02*
X140290572Y-95127447D01*
X140314142Y-94773893D01*
X140384853Y-94844604D01*
X140455563Y-94868174D01*
X140502704Y-94868174D01*
X140573414Y-94844604D01*
X140691265Y-94726753D01*
X140714836Y-94656042D01*
X140714836Y-94608902D01*
X140691265Y-94538191D01*
X140549844Y-94396770D01*
X140479133Y-94373200D01*
X140431993Y-94373200D01*
D10*
%TO.C,R22*%
X171552380Y-109357142D02*
X171076190Y-109023809D01*
X171552380Y-108785714D02*
X170552380Y-108785714D01*
X170552380Y-109166666D01*
X170600000Y-109261904D01*
X170647619Y-109309523D01*
X170742857Y-109357142D01*
X170885714Y-109357142D01*
X170980952Y-109309523D01*
X171028571Y-109261904D01*
X171076190Y-109166666D01*
X171076190Y-108785714D01*
X170647619Y-109738095D02*
X170600000Y-109785714D01*
X170552380Y-109880952D01*
X170552380Y-110119047D01*
X170600000Y-110214285D01*
X170647619Y-110261904D01*
X170742857Y-110309523D01*
X170838095Y-110309523D01*
X170980952Y-110261904D01*
X171552380Y-109690476D01*
X171552380Y-110309523D01*
X170647619Y-110690476D02*
X170600000Y-110738095D01*
X170552380Y-110833333D01*
X170552380Y-111071428D01*
X170600000Y-111166666D01*
X170647619Y-111214285D01*
X170742857Y-111261904D01*
X170838095Y-111261904D01*
X170980952Y-111214285D01*
X171552380Y-110642857D01*
X171552380Y-111261904D01*
D11*
%TO.C,R5*%
X171416666Y-127995833D02*
X171083333Y-127762500D01*
X171416666Y-127595833D02*
X170716666Y-127595833D01*
X170716666Y-127862500D01*
X170750000Y-127929166D01*
X170783333Y-127962500D01*
X170850000Y-127995833D01*
X170950000Y-127995833D01*
X171016666Y-127962500D01*
X171050000Y-127929166D01*
X171083333Y-127862500D01*
X171083333Y-127595833D01*
X170716666Y-128629166D02*
X170716666Y-128295833D01*
X171050000Y-128262500D01*
X171016666Y-128295833D01*
X170983333Y-128362500D01*
X170983333Y-128529166D01*
X171016666Y-128595833D01*
X171050000Y-128629166D01*
X171116666Y-128662500D01*
X171283333Y-128662500D01*
X171350000Y-128629166D01*
X171383333Y-128595833D01*
X171416666Y-128529166D01*
X171416666Y-128362500D01*
X171383333Y-128295833D01*
X171350000Y-128262500D01*
%TO.C,Q8*%
X177333333Y-86068333D02*
X177300000Y-86001666D01*
X177233333Y-85935000D01*
X177133333Y-85835000D01*
X177100000Y-85768333D01*
X177100000Y-85701666D01*
X177266666Y-85735000D02*
X177233333Y-85668333D01*
X177166666Y-85601666D01*
X177033333Y-85568333D01*
X176800000Y-85568333D01*
X176666666Y-85601666D01*
X176600000Y-85668333D01*
X176566666Y-85735000D01*
X176566666Y-85868333D01*
X176600000Y-85935000D01*
X176666666Y-86001666D01*
X176800000Y-86035000D01*
X177033333Y-86035000D01*
X177166666Y-86001666D01*
X177233333Y-85935000D01*
X177266666Y-85868333D01*
X177266666Y-85735000D01*
X176866666Y-86435000D02*
X176833333Y-86368333D01*
X176800000Y-86335000D01*
X176733333Y-86301666D01*
X176700000Y-86301666D01*
X176633333Y-86335000D01*
X176600000Y-86368333D01*
X176566666Y-86435000D01*
X176566666Y-86568333D01*
X176600000Y-86635000D01*
X176633333Y-86668333D01*
X176700000Y-86701666D01*
X176733333Y-86701666D01*
X176800000Y-86668333D01*
X176833333Y-86635000D01*
X176866666Y-86568333D01*
X176866666Y-86435000D01*
X176900000Y-86368333D01*
X176933333Y-86335000D01*
X177000000Y-86301666D01*
X177133333Y-86301666D01*
X177200000Y-86335000D01*
X177233333Y-86368333D01*
X177266666Y-86435000D01*
X177266666Y-86568333D01*
X177233333Y-86635000D01*
X177200000Y-86668333D01*
X177133333Y-86701666D01*
X177000000Y-86701666D01*
X176933333Y-86668333D01*
X176900000Y-86635000D01*
X176866666Y-86568333D01*
X188550000Y-77916666D02*
X188550000Y-77216666D01*
X188150000Y-77916666D01*
X188150000Y-77216666D01*
X187916666Y-77216666D02*
X187683333Y-77916666D01*
X187450000Y-77216666D01*
X187216666Y-77916666D02*
X187216666Y-77216666D01*
X186983333Y-77716666D01*
X186750000Y-77216666D01*
X186750000Y-77916666D01*
X186183333Y-77550000D02*
X186416666Y-77550000D01*
X186416666Y-77916666D02*
X186416666Y-77216666D01*
X186083333Y-77216666D01*
X185850000Y-77883333D02*
X185750000Y-77916666D01*
X185583333Y-77916666D01*
X185516666Y-77883333D01*
X185483333Y-77850000D01*
X185450000Y-77783333D01*
X185450000Y-77716666D01*
X185483333Y-77650000D01*
X185516666Y-77616666D01*
X185583333Y-77583333D01*
X185716666Y-77550000D01*
X185783333Y-77516666D01*
X185816666Y-77483333D01*
X185850000Y-77416666D01*
X185850000Y-77350000D01*
X185816666Y-77283333D01*
X185783333Y-77250000D01*
X185716666Y-77216666D01*
X185550000Y-77216666D01*
X185450000Y-77250000D01*
X184850000Y-77450000D02*
X184850000Y-77916666D01*
X185016666Y-77183333D02*
X185183333Y-77683333D01*
X184750000Y-77683333D01*
X184083333Y-77850000D02*
X184116666Y-77883333D01*
X184216666Y-77916666D01*
X184283333Y-77916666D01*
X184383333Y-77883333D01*
X184450000Y-77816666D01*
X184483333Y-77750000D01*
X184516666Y-77616666D01*
X184516666Y-77516666D01*
X184483333Y-77383333D01*
X184450000Y-77316666D01*
X184383333Y-77250000D01*
X184283333Y-77216666D01*
X184216666Y-77216666D01*
X184116666Y-77250000D01*
X184083333Y-77283333D01*
X183650000Y-77216666D02*
X183583333Y-77216666D01*
X183516666Y-77250000D01*
X183483333Y-77283333D01*
X183450000Y-77350000D01*
X183416666Y-77483333D01*
X183416666Y-77650000D01*
X183450000Y-77783333D01*
X183483333Y-77850000D01*
X183516666Y-77883333D01*
X183583333Y-77916666D01*
X183650000Y-77916666D01*
X183716666Y-77883333D01*
X183750000Y-77850000D01*
X183783333Y-77783333D01*
X183816666Y-77650000D01*
X183816666Y-77483333D01*
X183783333Y-77350000D01*
X183750000Y-77283333D01*
X183716666Y-77250000D01*
X183650000Y-77216666D01*
X183183333Y-77216666D02*
X182750000Y-77216666D01*
X182983333Y-77483333D01*
X182883333Y-77483333D01*
X182816666Y-77516666D01*
X182783333Y-77550000D01*
X182750000Y-77616666D01*
X182750000Y-77783333D01*
X182783333Y-77850000D01*
X182816666Y-77883333D01*
X182883333Y-77916666D01*
X183083333Y-77916666D01*
X183150000Y-77883333D01*
X183183333Y-77850000D01*
X182450000Y-77916666D02*
X182450000Y-77216666D01*
X182050000Y-77916666D01*
X182050000Y-77216666D01*
%TO.C,R14*%
X165116666Y-127462500D02*
X164783333Y-127229166D01*
X165116666Y-127062500D02*
X164416666Y-127062500D01*
X164416666Y-127329166D01*
X164450000Y-127395833D01*
X164483333Y-127429166D01*
X164550000Y-127462500D01*
X164650000Y-127462500D01*
X164716666Y-127429166D01*
X164750000Y-127395833D01*
X164783333Y-127329166D01*
X164783333Y-127062500D01*
X165116666Y-128129166D02*
X165116666Y-127729166D01*
X165116666Y-127929166D02*
X164416666Y-127929166D01*
X164516666Y-127862500D01*
X164583333Y-127795833D01*
X164616666Y-127729166D01*
X164650000Y-128729166D02*
X165116666Y-128729166D01*
X164383333Y-128562500D02*
X164883333Y-128395833D01*
X164883333Y-128829166D01*
D10*
%TO.C,R23*%
X173252380Y-109357142D02*
X172776190Y-109023809D01*
X173252380Y-108785714D02*
X172252380Y-108785714D01*
X172252380Y-109166666D01*
X172300000Y-109261904D01*
X172347619Y-109309523D01*
X172442857Y-109357142D01*
X172585714Y-109357142D01*
X172680952Y-109309523D01*
X172728571Y-109261904D01*
X172776190Y-109166666D01*
X172776190Y-108785714D01*
X172347619Y-109738095D02*
X172300000Y-109785714D01*
X172252380Y-109880952D01*
X172252380Y-110119047D01*
X172300000Y-110214285D01*
X172347619Y-110261904D01*
X172442857Y-110309523D01*
X172538095Y-110309523D01*
X172680952Y-110261904D01*
X173252380Y-109690476D01*
X173252380Y-110309523D01*
X172252380Y-110642857D02*
X172252380Y-111261904D01*
X172633333Y-110928571D01*
X172633333Y-111071428D01*
X172680952Y-111166666D01*
X172728571Y-111214285D01*
X172823809Y-111261904D01*
X173061904Y-111261904D01*
X173157142Y-111214285D01*
X173204761Y-111166666D01*
X173252380Y-111071428D01*
X173252380Y-110785714D01*
X173204761Y-110690476D01*
X173157142Y-110642857D01*
D11*
%TO.C,R24*%
X167550000Y-86216666D02*
X167783333Y-85883333D01*
X167950000Y-86216666D02*
X167950000Y-85516666D01*
X167683333Y-85516666D01*
X167616666Y-85550000D01*
X167583333Y-85583333D01*
X167550000Y-85650000D01*
X167550000Y-85750000D01*
X167583333Y-85816666D01*
X167616666Y-85850000D01*
X167683333Y-85883333D01*
X167950000Y-85883333D01*
X167283333Y-85583333D02*
X167250000Y-85550000D01*
X167183333Y-85516666D01*
X167016666Y-85516666D01*
X166950000Y-85550000D01*
X166916666Y-85583333D01*
X166883333Y-85650000D01*
X166883333Y-85716666D01*
X166916666Y-85816666D01*
X167316666Y-86216666D01*
X166883333Y-86216666D01*
X166283333Y-85750000D02*
X166283333Y-86216666D01*
X166450000Y-85483333D02*
X166616666Y-85983333D01*
X166183333Y-85983333D01*
D12*
%TO.C,T2*%
X170857735Y-99375961D02*
X170190078Y-99375961D01*
X170523906Y-100544361D02*
X170523906Y-99375961D01*
X169856249Y-99487238D02*
X169800611Y-99431600D01*
X169689335Y-99375961D01*
X169411144Y-99375961D01*
X169299868Y-99431600D01*
X169244230Y-99487238D01*
X169188592Y-99598514D01*
X169188592Y-99709790D01*
X169244230Y-99876704D01*
X169911887Y-100544361D01*
X169188592Y-100544361D01*
D13*
%TO.C,R26*%
X165254724Y-103877500D02*
X164745276Y-103877500D01*
X165254724Y-104922500D02*
X164745276Y-104922500D01*
%TO.C,R21*%
X146068670Y-91850365D02*
X142989837Y-88771532D01*
X143650365Y-94268670D02*
X140571532Y-91189837D01*
%TO.C,U4*%
X162135000Y-103390000D02*
X162610000Y-103390000D01*
X159865000Y-103390000D02*
X159390000Y-103390000D01*
X159390000Y-103390000D02*
X159390000Y-103865000D01*
X162135000Y-106610000D02*
X162610000Y-106610000D01*
X159390000Y-106610000D02*
X159390000Y-106135000D01*
X162610000Y-106610000D02*
X162610000Y-106135000D01*
X159865000Y-106610000D02*
X159390000Y-106610000D01*
%TO.C,R20*%
X164677500Y-118254724D02*
X164677500Y-117745276D01*
X165722500Y-118254724D02*
X165722500Y-117745276D01*
%TO.C,R27*%
X172154724Y-103877500D02*
X171645276Y-103877500D01*
X172154724Y-104922500D02*
X171645276Y-104922500D01*
D14*
%TO.C,U$29*%
X153323000Y-80059000D02*
X159877000Y-80059000D01*
X159877000Y-80059000D02*
X159876600Y-74064600D01*
X153323400Y-74064600D02*
X153323000Y-80059000D01*
D11*
X157031800Y-80922600D02*
X156168200Y-80922600D01*
X156168200Y-80922600D02*
X156168200Y-80160600D01*
X156168200Y-80160600D02*
X157031800Y-80160600D01*
X157031800Y-80160600D02*
X157031800Y-80922600D01*
D13*
%TO.C,C11*%
X160953733Y-101190000D02*
X161246267Y-101190000D01*
X160953733Y-102210000D02*
X161246267Y-102210000D01*
%TO.C,C25*%
X157590000Y-129946267D02*
X157590000Y-129653733D01*
X158610000Y-129946267D02*
X158610000Y-129653733D01*
%TO.C,R8*%
X168477500Y-130657776D02*
X168477500Y-131167224D01*
X169522500Y-130657776D02*
X169522500Y-131167224D01*
%TO.C,C20*%
X165710000Y-121253733D02*
X165710000Y-121546267D01*
X164690000Y-121253733D02*
X164690000Y-121546267D01*
%TO.C,R4*%
X133650365Y-104168670D02*
X130571532Y-101089837D01*
X136068670Y-101750365D02*
X132989837Y-98671532D01*
D11*
%TO.C,J9*%
X176153198Y-114263711D02*
X181225425Y-114544629D01*
X176574575Y-106655371D02*
X181646802Y-106936289D01*
%TO.C,J10*%
X176153198Y-95736289D02*
X181225425Y-95455371D01*
X176574575Y-103344629D02*
X181646802Y-103063711D01*
D13*
%TO.C,R12*%
X167322500Y-130657776D02*
X167322500Y-131167224D01*
X166277500Y-130657776D02*
X166277500Y-131167224D01*
%TO.C,C17*%
X139365000Y-78838748D02*
X139365000Y-79361252D01*
X140835000Y-78838748D02*
X140835000Y-79361252D01*
%TO.C,C16*%
X114834990Y-102895543D02*
X115204457Y-103265010D01*
X113795543Y-103934990D02*
X114165010Y-104304457D01*
%TO.C,R25*%
X169922500Y-107154724D02*
X169922500Y-106645276D01*
X168877500Y-107154724D02*
X168877500Y-106645276D01*
%TO.C,R3*%
X141068670Y-96650365D02*
X137989837Y-93571532D01*
X138650365Y-99068670D02*
X135571532Y-95989837D01*
%TO.C,R22*%
X171522500Y-106645276D02*
X171522500Y-107154724D01*
X170477500Y-106645276D02*
X170477500Y-107154724D01*
%TO.C,R5*%
X171622500Y-130645276D02*
X171622500Y-131154724D01*
X170577500Y-130645276D02*
X170577500Y-131154724D01*
D15*
%TO.C,Q8*%
X170600000Y-85204250D02*
X170600000Y-91229250D01*
X176200000Y-91229250D02*
X176200000Y-85204250D01*
X175930000Y-84929250D02*
X170870000Y-84929250D01*
D13*
%TO.C,R14*%
X164277500Y-130745276D02*
X164277500Y-131254724D01*
X165322500Y-130745276D02*
X165322500Y-131254724D01*
%TO.C,R23*%
X172077500Y-107154724D02*
X172077500Y-106645276D01*
X173122500Y-107154724D02*
X173122500Y-106645276D01*
%TO.C,R24*%
X164630000Y-84580000D02*
X161800000Y-84580000D01*
X166130000Y-84850000D02*
X164630000Y-84850000D01*
X166130000Y-77950000D02*
X164630000Y-77950000D01*
X164630000Y-84850000D02*
X164630000Y-84580000D01*
X164630000Y-78220000D02*
X163530000Y-78220000D01*
X164630000Y-77950000D02*
X164630000Y-78220000D01*
%TD*%
M02*
