%TF.GenerationSoftware,KiCad,Pcbnew,(5.99.0-12392-g2f9c6dd5cc)*%
%TF.CreationDate,2021-10-25T10:20:36+02:00*%
%TF.ProjectId,UNIVERSAL_JOINT_v2_2,554e4956-4552-4534-914c-5f4a4f494e54,rev?*%
%TF.SameCoordinates,Original*%
%TF.FileFunction,Paste,Top*%
%TF.FilePolarity,Positive*%
%FSLAX46Y46*%
G04 Gerber Fmt 4.6, Leading zero omitted, Abs format (unit mm)*
G04 Created by KiCad (PCBNEW (5.99.0-12392-g2f9c6dd5cc)) date 2021-10-25 10:20:36*
%MOMM*%
%LPD*%
G01*
G04 APERTURE LIST*
G04 Aperture macros list*
%AMRoundRect*
0 Rectangle with rounded corners*
0 $1 Rounding radius*
0 $2 $3 $4 $5 $6 $7 $8 $9 X,Y pos of 4 corners*
0 Add a 4 corners polygon primitive as box body*
4,1,4,$2,$3,$4,$5,$6,$7,$8,$9,$2,$3,0*
0 Add four circle primitives for the rounded corners*
1,1,$1+$1,$2,$3*
1,1,$1+$1,$4,$5*
1,1,$1+$1,$6,$7*
1,1,$1+$1,$8,$9*
0 Add four rect primitives between the rounded corners*
20,1,$1+$1,$2,$3,$4,$5,0*
20,1,$1+$1,$4,$5,$6,$7,0*
20,1,$1+$1,$6,$7,$8,$9,0*
20,1,$1+$1,$8,$9,$2,$3,0*%
%AMRotRect*
0 Rectangle, with rotation*
0 The origin of the aperture is its center*
0 $1 length*
0 $2 width*
0 $3 Rotation angle, in degrees counterclockwise*
0 Add horizontal line*
21,1,$1,$2,0,0,$3*%
G04 Aperture macros list end*
%ADD10C,0.100000*%
%ADD11R,1.200000X0.900000*%
%ADD12RoundRect,0.237500X-0.237500X0.250000X-0.237500X-0.250000X0.237500X-0.250000X0.237500X0.250000X0*%
%ADD13RoundRect,0.237500X0.287500X0.237500X-0.287500X0.237500X-0.287500X-0.237500X0.287500X-0.237500X0*%
%ADD14R,2.400000X0.740000*%
%ADD15R,1.000000X1.400000*%
%ADD16RoundRect,0.237500X0.300000X0.237500X-0.300000X0.237500X-0.300000X-0.237500X0.300000X-0.237500X0*%
%ADD17RoundRect,0.237500X-0.237500X0.300000X-0.237500X-0.300000X0.237500X-0.300000X0.237500X0.300000X0*%
%ADD18RoundRect,0.237500X0.237500X-0.250000X0.237500X0.250000X-0.237500X0.250000X-0.237500X-0.250000X0*%
%ADD19R,1.000000X1.200000*%
%ADD20RoundRect,0.237500X0.044194X0.380070X-0.380070X-0.044194X-0.044194X-0.380070X0.380070X0.044194X0*%
%ADD21R,2.400000X2.400000*%
%ADD22RoundRect,0.237500X-0.044194X-0.380070X0.380070X0.044194X0.044194X0.380070X-0.380070X-0.044194X0*%
%ADD23RoundRect,0.237500X0.250000X0.237500X-0.250000X0.237500X-0.250000X-0.237500X0.250000X-0.237500X0*%
%ADD24RoundRect,0.237500X0.237500X-0.287500X0.237500X0.287500X-0.237500X0.287500X-0.237500X-0.287500X0*%
%ADD25RoundRect,0.237500X-0.287500X-0.237500X0.287500X-0.237500X0.287500X0.237500X-0.287500X0.237500X0*%
%ADD26R,1.000000X1.100000*%
%ADD27RoundRect,0.032500X-0.470226X0.332340X0.332340X-0.470226X0.470226X-0.332340X-0.332340X0.470226X0*%
%ADD28RoundRect,0.032500X0.332340X0.470226X-0.470226X-0.332340X-0.332340X-0.470226X0.470226X0.332340X0*%
%ADD29RoundRect,0.237500X0.237500X-0.300000X0.237500X0.300000X-0.237500X0.300000X-0.237500X-0.300000X0*%
%ADD30RoundRect,0.237500X-0.250000X-0.237500X0.250000X-0.237500X0.250000X0.237500X-0.250000X0.237500X0*%
%ADD31RotRect,0.750000X1.000000X45.000000*%
%ADD32RotRect,4.833750X5.279374X135.000000*%
%ADD33RoundRect,0.237500X-0.380070X0.044194X0.044194X-0.380070X0.380070X-0.044194X-0.044194X0.380070X0*%
%ADD34RoundRect,0.237500X0.008839X0.344715X-0.344715X-0.008839X-0.008839X-0.344715X0.344715X0.008839X0*%
%ADD35R,0.900000X1.200000*%
%ADD36R,2.021000X4.215300*%
%ADD37RoundRect,0.237500X0.380070X-0.044194X-0.044194X0.380070X-0.380070X0.044194X0.044194X-0.380070X0*%
%ADD38RoundRect,0.250000X-0.337500X-0.475000X0.337500X-0.475000X0.337500X0.475000X-0.337500X0.475000X0*%
%ADD39R,1.400000X1.600000*%
%ADD40RoundRect,0.250000X0.475000X-0.337500X0.475000X0.337500X-0.475000X0.337500X-0.475000X-0.337500X0*%
%ADD41RoundRect,0.237500X-0.300000X-0.237500X0.300000X-0.237500X0.300000X0.237500X-0.300000X0.237500X0*%
%ADD42RoundRect,0.150000X0.825000X0.150000X-0.825000X0.150000X-0.825000X-0.150000X0.825000X-0.150000X0*%
G04 APERTURE END LIST*
D10*
%TO.C,U3*%
X166245653Y-115393160D02*
X166245653Y-116243160D01*
X166245653Y-116243160D02*
X166495653Y-116243160D01*
X166495653Y-116243160D02*
X166495653Y-115393160D01*
X166495653Y-115393160D02*
X166245653Y-115393160D01*
X159745653Y-122143160D02*
X160595653Y-122143160D01*
X160595653Y-122143160D02*
X160595653Y-121893160D01*
X160595653Y-121893160D02*
X159745653Y-121893160D01*
X159745653Y-121893160D02*
X159745653Y-122143160D01*
X165245653Y-115393160D02*
X165245653Y-116243160D01*
X165245653Y-116243160D02*
X165495653Y-116243160D01*
X165495653Y-116243160D02*
X165495653Y-115393160D01*
X165495653Y-115393160D02*
X165245653Y-115393160D01*
X159745653Y-122643160D02*
X160595653Y-122643160D01*
X160595653Y-122643160D02*
X160595653Y-122393160D01*
X160595653Y-122393160D02*
X159745653Y-122393160D01*
X159745653Y-122393160D02*
X159745653Y-122643160D01*
X162745653Y-115393160D02*
X162745653Y-116243160D01*
X162745653Y-116243160D02*
X162995653Y-116243160D01*
X162995653Y-116243160D02*
X162995653Y-115393160D01*
X162995653Y-115393160D02*
X162745653Y-115393160D01*
X168495653Y-117893160D02*
X167645653Y-117893160D01*
X167645653Y-117893160D02*
X167645653Y-118143160D01*
X167645653Y-118143160D02*
X168495653Y-118143160D01*
X168495653Y-118143160D02*
X168495653Y-117893160D01*
X168495653Y-119393160D02*
X167645653Y-119393160D01*
X167645653Y-119393160D02*
X167645653Y-119643160D01*
X167645653Y-119643160D02*
X168495653Y-119643160D01*
X168495653Y-119643160D02*
X168495653Y-119393160D01*
X163245653Y-115393160D02*
X163245653Y-116243160D01*
X163245653Y-116243160D02*
X163495653Y-116243160D01*
X163495653Y-116243160D02*
X163495653Y-115393160D01*
X163495653Y-115393160D02*
X163245653Y-115393160D01*
X164495653Y-124143160D02*
X164495653Y-123293160D01*
X164495653Y-123293160D02*
X164245653Y-123293160D01*
X164245653Y-123293160D02*
X164245653Y-124143160D01*
X164245653Y-124143160D02*
X164495653Y-124143160D01*
X168495653Y-120893160D02*
X167645653Y-120893160D01*
X167645653Y-120893160D02*
X167645653Y-121143160D01*
X167645653Y-121143160D02*
X168495653Y-121143160D01*
X168495653Y-121143160D02*
X168495653Y-120893160D01*
X163745653Y-115393160D02*
X163745653Y-116243160D01*
X163745653Y-116243160D02*
X163995653Y-116243160D01*
X163995653Y-116243160D02*
X163995653Y-115393160D01*
X163995653Y-115393160D02*
X163745653Y-115393160D01*
X168495653Y-120393160D02*
X167645653Y-120393160D01*
X167645653Y-120393160D02*
X167645653Y-120643160D01*
X167645653Y-120643160D02*
X168495653Y-120643160D01*
X168495653Y-120643160D02*
X168495653Y-120393160D01*
X164995653Y-124143160D02*
X164995653Y-123293160D01*
X164995653Y-123293160D02*
X164745653Y-123293160D01*
X164745653Y-123293160D02*
X164745653Y-124143160D01*
X164745653Y-124143160D02*
X164995653Y-124143160D01*
X168495653Y-121393160D02*
X167645653Y-121393160D01*
X167645653Y-121393160D02*
X167645653Y-121643160D01*
X167645653Y-121643160D02*
X168495653Y-121643160D01*
X168495653Y-121643160D02*
X168495653Y-121393160D01*
X168495653Y-119893160D02*
X167645653Y-119893160D01*
X167645653Y-119893160D02*
X167645653Y-120143160D01*
X167645653Y-120143160D02*
X168495653Y-120143160D01*
X168495653Y-120143160D02*
X168495653Y-119893160D01*
X159745653Y-120143160D02*
X160595653Y-120143160D01*
X160595653Y-120143160D02*
X160595653Y-119893160D01*
X160595653Y-119893160D02*
X159745653Y-119893160D01*
X159745653Y-119893160D02*
X159745653Y-120143160D01*
X168495653Y-122393160D02*
X167645653Y-122393160D01*
X167645653Y-122393160D02*
X167645653Y-122643160D01*
X167645653Y-122643160D02*
X168495653Y-122643160D01*
X168495653Y-122643160D02*
X168495653Y-122393160D01*
X163495653Y-124143160D02*
X163495653Y-123293160D01*
X163495653Y-123293160D02*
X163245653Y-123293160D01*
X163245653Y-123293160D02*
X163245653Y-124143160D01*
X163245653Y-124143160D02*
X163495653Y-124143160D01*
X159745653Y-121143160D02*
X160595653Y-121143160D01*
X160595653Y-121143160D02*
X160595653Y-120893160D01*
X160595653Y-120893160D02*
X159745653Y-120893160D01*
X159745653Y-120893160D02*
X159745653Y-121143160D01*
X159745653Y-121643160D02*
X160595653Y-121643160D01*
X160595653Y-121643160D02*
X160595653Y-121393160D01*
X160595653Y-121393160D02*
X159745653Y-121393160D01*
X159745653Y-121393160D02*
X159745653Y-121643160D01*
X161495653Y-124143160D02*
X161495653Y-123293160D01*
X161495653Y-123293160D02*
X161245653Y-123293160D01*
X161245653Y-123293160D02*
X161245653Y-124143160D01*
X161245653Y-124143160D02*
X161495653Y-124143160D01*
X161995653Y-124143160D02*
X161995653Y-123293160D01*
X161995653Y-123293160D02*
X161745653Y-123293160D01*
X161745653Y-123293160D02*
X161745653Y-124143160D01*
X161745653Y-124143160D02*
X161995653Y-124143160D01*
X159745653Y-119643160D02*
X160595653Y-119643160D01*
X160595653Y-119643160D02*
X160595653Y-119393160D01*
X160595653Y-119393160D02*
X159745653Y-119393160D01*
X159745653Y-119393160D02*
X159745653Y-119643160D01*
X164745653Y-115393160D02*
X164745653Y-116243160D01*
X164745653Y-116243160D02*
X164995653Y-116243160D01*
X164995653Y-116243160D02*
X164995653Y-115393160D01*
X164995653Y-115393160D02*
X164745653Y-115393160D01*
X159745653Y-118143160D02*
X160595653Y-118143160D01*
X160595653Y-118143160D02*
X160595653Y-117893160D01*
X160595653Y-117893160D02*
X159745653Y-117893160D01*
X159745653Y-117893160D02*
X159745653Y-118143160D01*
X162995653Y-124143160D02*
X162995653Y-123293160D01*
X162995653Y-123293160D02*
X162745653Y-123293160D01*
X162745653Y-123293160D02*
X162745653Y-124143160D01*
X162745653Y-124143160D02*
X162995653Y-124143160D01*
X161745653Y-115393160D02*
X161745653Y-116243160D01*
X161745653Y-116243160D02*
X161995653Y-116243160D01*
X161995653Y-116243160D02*
X161995653Y-115393160D01*
X161995653Y-115393160D02*
X161745653Y-115393160D01*
X165495653Y-124143160D02*
X165495653Y-123293160D01*
X165495653Y-123293160D02*
X165245653Y-123293160D01*
X165245653Y-123293160D02*
X165245653Y-124143160D01*
X165245653Y-124143160D02*
X165495653Y-124143160D01*
X166995653Y-124143160D02*
X166995653Y-123293160D01*
X166995653Y-123293160D02*
X166745653Y-123293160D01*
X166745653Y-123293160D02*
X166745653Y-124143160D01*
X166745653Y-124143160D02*
X166995653Y-124143160D01*
X163995653Y-124143160D02*
X163995653Y-123293160D01*
X163995653Y-123293160D02*
X163745653Y-123293160D01*
X163745653Y-123293160D02*
X163745653Y-124143160D01*
X163745653Y-124143160D02*
X163995653Y-124143160D01*
X159745653Y-120643160D02*
X160595653Y-120643160D01*
X160595653Y-120643160D02*
X160595653Y-120393160D01*
X160595653Y-120393160D02*
X159745653Y-120393160D01*
X159745653Y-120393160D02*
X159745653Y-120643160D01*
X162495653Y-124143160D02*
X162495653Y-123293160D01*
X162495653Y-123293160D02*
X162245653Y-123293160D01*
X162245653Y-123293160D02*
X162245653Y-124143160D01*
X162245653Y-124143160D02*
X162495653Y-124143160D01*
X168495653Y-116893160D02*
X167645653Y-116893160D01*
X167645653Y-116893160D02*
X167645653Y-117143160D01*
X167645653Y-117143160D02*
X168495653Y-117143160D01*
X168495653Y-117143160D02*
X168495653Y-116893160D01*
X159745653Y-117143160D02*
X160595653Y-117143160D01*
X160595653Y-117143160D02*
X160595653Y-116893160D01*
X160595653Y-116893160D02*
X159745653Y-116893160D01*
X159745653Y-116893160D02*
X159745653Y-117143160D01*
X162245653Y-115393160D02*
X162245653Y-116243160D01*
X162245653Y-116243160D02*
X162495653Y-116243160D01*
X162495653Y-116243160D02*
X162495653Y-115393160D01*
X162495653Y-115393160D02*
X162245653Y-115393160D01*
X161245653Y-115393160D02*
X161245653Y-116243160D01*
X161245653Y-116243160D02*
X161495653Y-116243160D01*
X161495653Y-116243160D02*
X161495653Y-115393160D01*
X161495653Y-115393160D02*
X161245653Y-115393160D01*
X168495653Y-118893160D02*
X167645653Y-118893160D01*
X167645653Y-118893160D02*
X167645653Y-119143160D01*
X167645653Y-119143160D02*
X168495653Y-119143160D01*
X168495653Y-119143160D02*
X168495653Y-118893160D01*
X166745653Y-115393160D02*
X166745653Y-116243160D01*
X166745653Y-116243160D02*
X166995653Y-116243160D01*
X166995653Y-116243160D02*
X166995653Y-115393160D01*
X166995653Y-115393160D02*
X166745653Y-115393160D01*
X165995653Y-124143160D02*
X165995653Y-123293160D01*
X165995653Y-123293160D02*
X165745653Y-123293160D01*
X165745653Y-123293160D02*
X165745653Y-124143160D01*
X165745653Y-124143160D02*
X165995653Y-124143160D01*
X159745653Y-118643160D02*
X160595653Y-118643160D01*
X160595653Y-118643160D02*
X160595653Y-118393160D01*
X160595653Y-118393160D02*
X159745653Y-118393160D01*
X159745653Y-118393160D02*
X159745653Y-118643160D01*
X159745653Y-119143160D02*
X160595653Y-119143160D01*
X160595653Y-119143160D02*
X160595653Y-118893160D01*
X160595653Y-118893160D02*
X159745653Y-118893160D01*
X159745653Y-118893160D02*
X159745653Y-119143160D01*
X168495653Y-118393160D02*
X167645653Y-118393160D01*
X167645653Y-118393160D02*
X167645653Y-118643160D01*
X167645653Y-118643160D02*
X168495653Y-118643160D01*
X168495653Y-118643160D02*
X168495653Y-118393160D01*
X166495653Y-124143160D02*
X166495653Y-123293160D01*
X166495653Y-123293160D02*
X166245653Y-123293160D01*
X166245653Y-123293160D02*
X166245653Y-124143160D01*
X166245653Y-124143160D02*
X166495653Y-124143160D01*
X164245653Y-115393160D02*
X164245653Y-116243160D01*
X164245653Y-116243160D02*
X164495653Y-116243160D01*
X164495653Y-116243160D02*
X164495653Y-115393160D01*
X164495653Y-115393160D02*
X164245653Y-115393160D01*
X159745653Y-117643160D02*
X160595653Y-117643160D01*
X160595653Y-117643160D02*
X160595653Y-117393160D01*
X160595653Y-117393160D02*
X159745653Y-117393160D01*
X159745653Y-117393160D02*
X159745653Y-117643160D01*
X168495653Y-117393160D02*
X167645653Y-117393160D01*
X167645653Y-117393160D02*
X167645653Y-117643160D01*
X167645653Y-117643160D02*
X168495653Y-117643160D01*
X168495653Y-117643160D02*
X168495653Y-117393160D01*
X165745653Y-115393160D02*
X165745653Y-116243160D01*
X165745653Y-116243160D02*
X165995653Y-116243160D01*
X165995653Y-116243160D02*
X165995653Y-115393160D01*
X165995653Y-115393160D02*
X165745653Y-115393160D01*
X168495653Y-121893160D02*
X167645653Y-121893160D01*
X167645653Y-121893160D02*
X167645653Y-122143160D01*
X167645653Y-122143160D02*
X168495653Y-122143160D01*
X168495653Y-122143160D02*
X168495653Y-121893160D01*
%TO.C,U1*%
X129532675Y-114087812D02*
X128387162Y-115233325D01*
X128387162Y-115233325D02*
X129532675Y-116378837D01*
X129532675Y-116378837D02*
X130678188Y-115233325D01*
X130678188Y-115233325D02*
X129532675Y-114087812D01*
X131357010Y-115912147D02*
X130211498Y-117057660D01*
X130211498Y-117057660D02*
X131357010Y-118203173D01*
X131357010Y-118203173D02*
X132502523Y-117057660D01*
X132502523Y-117057660D02*
X131357010Y-115912147D01*
X127708340Y-115912147D02*
X126562827Y-117057660D01*
X126562827Y-117057660D02*
X127708340Y-118203173D01*
X127708340Y-118203173D02*
X128853852Y-117057660D01*
X128853852Y-117057660D02*
X127708340Y-115912147D01*
X129532675Y-117736483D02*
X128387162Y-118881995D01*
X128387162Y-118881995D02*
X129532675Y-120027508D01*
X129532675Y-120027508D02*
X130678188Y-118881995D01*
X130678188Y-118881995D02*
X129532675Y-117736483D01*
%TD*%
D11*
%TO.C,D5*%
X141172253Y-118220960D03*
X141172253Y-121520960D03*
%TD*%
D12*
%TO.C,R18*%
X173600000Y-81887500D03*
X173600000Y-83712500D03*
%TD*%
D13*
%TO.C,LED5*%
X152775000Y-130500000D03*
X151025000Y-130500000D03*
%TD*%
D14*
%TO.C,J1*%
X177050000Y-122910000D03*
X173150000Y-122910000D03*
X177050000Y-121640000D03*
X173150000Y-121640000D03*
X177050000Y-120370000D03*
X173150000Y-120370000D03*
X177050000Y-119100000D03*
X173150000Y-119100000D03*
X177050000Y-117830000D03*
X173150000Y-117830000D03*
X177050000Y-116560000D03*
X173150000Y-116560000D03*
X177050000Y-115290000D03*
X173150000Y-115290000D03*
%TD*%
D15*
%TO.C,T1*%
X163950000Y-100000000D03*
X163000000Y-97800000D03*
X162050000Y-100000000D03*
%TD*%
D16*
%TO.C,C39*%
X170062500Y-106200000D03*
X168337500Y-106200000D03*
%TD*%
D17*
%TO.C,C23*%
X167200000Y-110137500D03*
X167200000Y-111862500D03*
%TD*%
D18*
%TO.C,R56*%
X163700000Y-103912500D03*
X163700000Y-102087500D03*
%TD*%
D19*
%TO.C,X1*%
X165550000Y-111850000D03*
X165550000Y-110150000D03*
X164250000Y-110150000D03*
X164250000Y-111850000D03*
%TD*%
D17*
%TO.C,C12*%
X135700000Y-119137500D03*
X135700000Y-120862500D03*
%TD*%
D11*
%TO.C,D1*%
X157300000Y-97450000D03*
X157300000Y-100750000D03*
%TD*%
D20*
%TO.C,C7*%
X133409880Y-108890120D03*
X132190120Y-110109880D03*
%TD*%
D16*
%TO.C,C38*%
X170062500Y-107800000D03*
X168337500Y-107800000D03*
%TD*%
D21*
%TO.C,U$4*%
X114700000Y-111100000D03*
X119100000Y-111100000D03*
%TD*%
D13*
%TO.C,LED4*%
X151225000Y-95900000D03*
X152975000Y-95900000D03*
%TD*%
D22*
%TO.C,C8*%
X131090120Y-109009880D03*
X132309880Y-107790120D03*
%TD*%
D16*
%TO.C,C24*%
X167062500Y-92100000D03*
X165337500Y-92100000D03*
%TD*%
D23*
%TO.C,R51*%
X152812500Y-128800000D03*
X150987500Y-128800000D03*
%TD*%
D24*
%TO.C,LED1*%
X116500000Y-117575000D03*
X116500000Y-115825000D03*
%TD*%
D25*
%TO.C,LED6*%
X167525000Y-104400000D03*
X169275000Y-104400000D03*
%TD*%
D26*
%TO.C,L1*%
X154700000Y-121728160D03*
X154700000Y-120028160D03*
%TD*%
D13*
%TO.C,LED3*%
X166125000Y-76800000D03*
X167875000Y-76800000D03*
%TD*%
D11*
%TO.C,U$22*%
X157600000Y-109150000D03*
X157600000Y-112450000D03*
%TD*%
D25*
%TO.C,LED7*%
X171025000Y-104400000D03*
X172775000Y-104400000D03*
%TD*%
D27*
%TO.C,U1*%
X134012196Y-117648094D03*
X133658643Y-118001648D03*
X133305090Y-118355201D03*
X132951536Y-118708754D03*
X132597983Y-119062308D03*
X132244430Y-119415861D03*
X131890876Y-119769415D03*
X131537323Y-120122968D03*
X131183769Y-120476521D03*
X130830216Y-120830075D03*
X130476663Y-121183628D03*
X130123109Y-121537181D03*
D28*
X128906885Y-121572537D03*
X128553332Y-121218983D03*
X128199779Y-120865430D03*
X127846225Y-120511877D03*
X127492672Y-120158323D03*
X127139119Y-119804770D03*
X126785565Y-119451216D03*
X126432012Y-119097663D03*
X126078458Y-118744110D03*
X125724905Y-118390556D03*
X125371352Y-118037003D03*
X125017798Y-117683450D03*
D27*
X125017798Y-116431870D03*
X125371352Y-116078317D03*
X125724905Y-115724764D03*
X126078458Y-115371210D03*
X126432012Y-115017657D03*
X126785565Y-114664104D03*
X127139119Y-114310550D03*
X127492672Y-113956997D03*
X127846225Y-113603443D03*
X128199779Y-113249890D03*
X128553332Y-112896337D03*
X128906885Y-112542783D03*
D28*
X130158465Y-112542783D03*
X130512018Y-112896337D03*
X130865571Y-113249890D03*
X131219125Y-113603443D03*
X131572678Y-113956997D03*
X131926231Y-114310550D03*
X132279785Y-114664104D03*
X132633338Y-115017657D03*
X132986892Y-115371210D03*
X133340445Y-115724764D03*
X133693998Y-116078317D03*
X134047552Y-116431870D03*
%TD*%
D29*
%TO.C,C22*%
X162600000Y-111862500D03*
X162600000Y-110137500D03*
%TD*%
D30*
%TO.C,R58*%
X154687500Y-95900000D03*
X156512500Y-95900000D03*
%TD*%
%TO.C,R16*%
X176387500Y-92900000D03*
X178212500Y-92900000D03*
%TD*%
D31*
%TO.C,Q1*%
X132892801Y-82686877D03*
X133790826Y-81788852D03*
X134688852Y-80890826D03*
X135586877Y-79992801D03*
D32*
X131700000Y-78800000D03*
%TD*%
D33*
%TO.C,C1*%
X134790120Y-114190120D03*
X136009880Y-115409880D03*
%TD*%
D20*
%TO.C,C5*%
X128299190Y-123847873D03*
X127079430Y-125067633D03*
%TD*%
D34*
%TO.C,R9*%
X124945235Y-124454765D03*
X123654765Y-125745235D03*
%TD*%
D23*
%TO.C,R11*%
X147512500Y-116600000D03*
X145687500Y-116600000D03*
%TD*%
%TO.C,R37*%
X166712500Y-106200000D03*
X164887500Y-106200000D03*
%TD*%
D34*
%TO.C,R13*%
X121645235Y-121154765D03*
X120354765Y-122445235D03*
%TD*%
D16*
%TO.C,C19*%
X169662500Y-115600000D03*
X167937500Y-115600000D03*
%TD*%
D35*
%TO.C,U$24*%
X174950000Y-106800000D03*
X171650000Y-106800000D03*
%TD*%
D23*
%TO.C,R10*%
X144112500Y-116600000D03*
X142287500Y-116600000D03*
%TD*%
D12*
%TO.C,R2*%
X118200000Y-115787500D03*
X118200000Y-117612500D03*
%TD*%
D36*
%TO.C,U$6*%
X146320253Y-119846560D03*
X143425853Y-119846560D03*
%TD*%
D37*
%TO.C,C6*%
X122709880Y-117209880D03*
X121490120Y-115990120D03*
%TD*%
D17*
%TO.C,C18*%
X156270653Y-120465660D03*
X156270653Y-122190660D03*
%TD*%
D23*
%TO.C,R36*%
X166712500Y-107800000D03*
X164887500Y-107800000D03*
%TD*%
D35*
%TO.C,U$16*%
X174850000Y-125300000D03*
X171550000Y-125300000D03*
%TD*%
D38*
%TO.C,C4*%
X117362500Y-114000000D03*
X119437500Y-114000000D03*
%TD*%
D15*
%TO.C,Q7*%
X161500000Y-93600000D03*
X160550000Y-91400000D03*
X162450000Y-91400000D03*
%TD*%
D37*
%TO.C,C9*%
X124045177Y-113607433D03*
X122825417Y-112387673D03*
%TD*%
D21*
%TO.C,U$3*%
X127523453Y-131809560D03*
X127523453Y-127409560D03*
%TD*%
D22*
%TO.C,C2*%
X135390120Y-112509880D03*
X136609880Y-111290120D03*
%TD*%
D34*
%TO.C,R17*%
X123845235Y-123354765D03*
X122554765Y-124645235D03*
%TD*%
D22*
%TO.C,C3*%
X137690120Y-114809880D03*
X138909880Y-113590120D03*
%TD*%
D23*
%TO.C,R19*%
X159312500Y-107400000D03*
X157487500Y-107400000D03*
%TD*%
D31*
%TO.C,Q6*%
X130398026Y-100292102D03*
X131296051Y-99394077D03*
X132194077Y-98496051D03*
X133092102Y-97598026D03*
D32*
X129205225Y-96405225D03*
%TD*%
D21*
%TO.C,D3*%
X151100000Y-93000000D03*
X155500000Y-93000000D03*
%TD*%
D39*
%TO.C,SW1*%
X166450000Y-102300000D03*
X166450000Y-93900000D03*
X170950000Y-102300000D03*
X170950000Y-93900000D03*
X168700000Y-93900000D03*
%TD*%
D31*
%TO.C,Q5*%
X122892801Y-92786877D03*
X123790826Y-91888852D03*
X124688852Y-90990826D03*
X125586877Y-90092801D03*
D32*
X121700000Y-88900000D03*
%TD*%
D16*
%TO.C,C36*%
X122262500Y-108300000D03*
X120537500Y-108300000D03*
%TD*%
D12*
%TO.C,R54*%
X159200000Y-95912500D03*
X159200000Y-94087500D03*
%TD*%
D35*
%TO.C,U$23*%
X174950000Y-109100000D03*
X171650000Y-109100000D03*
%TD*%
D23*
%TO.C,R31*%
X118912500Y-108300000D03*
X117087500Y-108300000D03*
%TD*%
D35*
%TO.C,U$10*%
X164150000Y-95500000D03*
X160850000Y-95500000D03*
%TD*%
D40*
%TO.C,C13*%
X148710653Y-121199660D03*
X148710653Y-119124660D03*
%TD*%
D30*
%TO.C,R1*%
X116687500Y-119400000D03*
X118512500Y-119400000D03*
%TD*%
D41*
%TO.C,C10*%
X137337500Y-117600000D03*
X139062500Y-117600000D03*
%TD*%
D30*
%TO.C,R6*%
X157287500Y-102300000D03*
X159112500Y-102300000D03*
%TD*%
D23*
%TO.C,R30*%
X115512500Y-108300000D03*
X113687500Y-108300000D03*
%TD*%
D13*
%TO.C,LED2*%
X172825000Y-92900000D03*
X174575000Y-92900000D03*
%TD*%
D29*
%TO.C,C21*%
X157900000Y-122162500D03*
X157900000Y-120437500D03*
%TD*%
D31*
%TO.C,Q3*%
X127792801Y-87786877D03*
X128690826Y-86888852D03*
X129588852Y-85990826D03*
X130486877Y-85092801D03*
D32*
X126600000Y-83900000D03*
%TD*%
D31*
%TO.C,Q2*%
X140398026Y-90392102D03*
X141296051Y-89494077D03*
X142194077Y-88596051D03*
X143092102Y-87698026D03*
D32*
X139205225Y-86505225D03*
%TD*%
D34*
%TO.C,R7*%
X120545235Y-120054765D03*
X119254765Y-121345235D03*
%TD*%
D31*
%TO.C,Q4*%
X135398026Y-95292102D03*
X136296051Y-94394077D03*
X137194077Y-93496051D03*
X138092102Y-92598026D03*
D32*
X134205225Y-91405225D03*
%TD*%
D23*
%TO.C,R55*%
X161412500Y-97400000D03*
X159587500Y-97400000D03*
%TD*%
D21*
%TO.C,U$1*%
X144181253Y-129462760D03*
X148581253Y-129462760D03*
%TD*%
D34*
%TO.C,R15*%
X122745235Y-122254765D03*
X121454765Y-123545235D03*
%TD*%
D42*
%TO.C,U2*%
X155370000Y-131605000D03*
X155370000Y-130335000D03*
X155370000Y-129065000D03*
X155370000Y-127795000D03*
X160320000Y-127795000D03*
X160320000Y-129065000D03*
X160320000Y-130335000D03*
X160320000Y-131605000D03*
%TD*%
D18*
%TO.C,R28*%
X173200000Y-102812500D03*
X173200000Y-100987500D03*
%TD*%
M02*
