%TF.GenerationSoftware,KiCad,Pcbnew,(5.99.0-12392-g2f9c6dd5cc)*%
%TF.CreationDate,2021-10-25T10:20:36+02:00*%
%TF.ProjectId,UNIVERSAL_JOINT_v2_2,554e4956-4552-4534-914c-5f4a4f494e54,rev?*%
%TF.SameCoordinates,Original*%
%TF.FileFunction,Profile,NP*%
%FSLAX46Y46*%
G04 Gerber Fmt 4.6, Leading zero omitted, Abs format (unit mm)*
G04 Created by KiCad (PCBNEW (5.99.0-12392-g2f9c6dd5cc)) date 2021-10-25 10:20:36*
%MOMM*%
%LPD*%
G01*
G04 APERTURE LIST*
%TA.AperFunction,Profile*%
%ADD10C,0.250000*%
%TD*%
G04 APERTURE END LIST*
D10*
X114883094Y-87848531D02*
G75*
G02*
X114765819Y-87506418I104665J227036D01*
G01*
X182118211Y-122147788D02*
G75*
G02*
X182235486Y-122489901I-104665J-227036D01*
G01*
X148444937Y-70739775D02*
X148284238Y-68066423D01*
X115981417Y-88354864D02*
G75*
G02*
X114725437Y-91079294I-627990J-1362215D01*
G01*
X131857357Y-137517396D02*
X131351024Y-138615718D01*
X114725437Y-91079294D02*
X113627115Y-90572960D01*
X114765819Y-87506418D02*
G75*
G02*
X133597510Y-70042525I33734834J-17491742D01*
G01*
X156500653Y-104998160D02*
G75*
G03*
X156500653Y-104998160I-8000000J0D01*
G01*
X113290806Y-90705968D02*
G75*
G02*
X113627115Y-90572960I231644J-94028D01*
G01*
X134581787Y-138773375D02*
X134075453Y-139871697D01*
X181019889Y-121641455D02*
X182118211Y-122147788D01*
X165992395Y-71263327D02*
G75*
G02*
X186500447Y-104873160I-17491742J-33734833D01*
G01*
X148444937Y-70739776D02*
G75*
G02*
X146568547Y-72856178I-1996396J-120006D01*
G01*
X138315425Y-74451455D02*
G75*
G02*
X146568547Y-72856178I10185228J-30546705D01*
G01*
X131008911Y-138732994D02*
G75*
G02*
X113290806Y-90705969I17491742J33734834D01*
G01*
X134208461Y-140208006D02*
G75*
G02*
X134075453Y-139871697I94028J231644D01*
G01*
X186500448Y-105123160D02*
G75*
G02*
X186500447Y-104873160I205J125000D01*
G01*
X115981416Y-88354864D02*
X114883094Y-87848531D01*
X135785492Y-73186767D02*
X134938354Y-70646099D01*
X183710499Y-119290351D02*
G75*
G02*
X183374190Y-119423359I-231644J94028D01*
G01*
X133597509Y-70042525D02*
G75*
G02*
X134938354Y-70646099I392189J-919886D01*
G01*
X131351024Y-138615718D02*
G75*
G02*
X131008911Y-138732993I-227036J104665D01*
G01*
X186500446Y-105123159D02*
G75*
G02*
X183710499Y-119290350I-37999793J124999D01*
G01*
X162419518Y-71222944D02*
X162925852Y-70124622D01*
X149303565Y-67006643D02*
G75*
G02*
X162792843Y-69788313I-802912J-37991517D01*
G01*
X165143948Y-72478923D02*
X165650281Y-71380601D01*
X182235486Y-122489902D02*
G75*
G02*
X134208462Y-140208006I-33734833J17491742D01*
G01*
X162792844Y-69788313D02*
G75*
G02*
X162925852Y-70124622I-94028J-231644D01*
G01*
X138315426Y-74451455D02*
G75*
G02*
X135785492Y-73186767I-632623J1897311D01*
G01*
X165650281Y-71380601D02*
G75*
G02*
X165992394Y-71263326I227036J-104665D01*
G01*
X148284238Y-68066424D02*
G75*
G02*
X149303565Y-67006643I998198J60004D01*
G01*
X181019888Y-121641455D02*
G75*
G02*
X182275868Y-118917025I627990J1362215D01*
G01*
X131857357Y-137517395D02*
G75*
G02*
X134581787Y-138773375I1362215J-627990D01*
G01*
X182275868Y-118917025D02*
X183374190Y-119423359D01*
X165143948Y-72478924D02*
G75*
G02*
X162419518Y-71222944I-1362215J627990D01*
G01*
M02*
