(footprint "R0402" (version 20210824) (generator pcbnew) (layer "F.Cu")
  (tedit 0)
  (descr "<b>Chip RESISTOR 0402 EIA (1005 Metric)</b>")
  (fp_text reference "REF**" (at -0.635 -0.635) (layer "F.SilkS")
    (effects (font (size 1.1684 1.1684) (thickness 0.1016)) (justify left bottom))
    (tstamp 2cd25f3f-e476-4e46-91a1-a9457dd5f2c1)
  )
  (fp_text value ">VALUE" (at -0.635 1.905) (layer "F.Fab")
    (effects (font (size 1.1684 1.1684) (thickness 0.1016)) (justify left bottom))
    (tstamp 51d83a0f-adaf-4224-adfb-51abb846b33d)
  )
  (fp_poly (pts
      (xy -0.1999 0.35)
      (xy 0.1999 0.35)
      (xy 0.1999 -0.35)
      (xy -0.1999 -0.35)
    ) (layer "F.Adhes") (width 0) (fill none) (tstamp 8825f055-4779-4cca-8758-253b88d596b4))
  (fp_line (start 1 -0.483) (end 1 0.483) (layer "F.CrtYd") (width 0.0508) (tstamp 77bceef3-db62-4d64-be1a-9d7099a313a6))
  (fp_line (start 1 0.483) (end -1 0.483) (layer "F.CrtYd") (width 0.0508) (tstamp 8763f0bb-4dd3-4c24-9eab-2a5809541874))
  (fp_line (start -1 0.483) (end -1 -0.483) (layer "F.CrtYd") (width 0.0508) (tstamp a181aecc-228a-4b66-b559-4e54a9645bc8))
  (fp_line (start -1 -0.483) (end 1 -0.483) (layer "F.CrtYd") (width 0.0508) (tstamp c1ad0e3e-7835-4ab2-9d01-cd411a3a9c73))
  (fp_line (start -0.245 -0.224) (end 0.245 -0.224) (layer "F.Fab") (width 0.1524) (tstamp 494afc86-8237-4b0e-adb8-807595e62d82))
  (fp_line (start 0.245 0.224) (end -0.245 0.224) (layer "F.Fab") (width 0.1524) (tstamp accf7c6c-29ee-40cd-bcaa-953d04645a1f))
  (fp_poly (pts
      (xy -0.554 0.3048)
      (xy -0.254 0.3048)
      (xy -0.254 -0.2951)
      (xy -0.554 -0.2951)
    ) (layer "F.Fab") (width 0) (fill none) (tstamp 14fa39c9-8763-4d3b-983b-8aeae7f41da6))
  (fp_poly (pts
      (xy 0.2588 0.3048)
      (xy 0.5588 0.3048)
      (xy 0.5588 -0.2951)
      (xy 0.2588 -0.2951)
    ) (layer "F.Fab") (width 0) (fill none) (tstamp 1d3795fb-aaa5-4cbe-ab09-ee5a14f2b692))
  (pad "1" smd rect (at -0.5 0) (size 0.6 0.7) (layers "F.Cu" "F.Paste" "F.Mask")
    (solder_mask_margin 0.1016) (tstamp ded9628d-d2ae-45d3-963b-33020d07da61))
  (pad "2" smd rect (at 0.5 0) (size 0.6 0.7) (layers "F.Cu" "F.Paste" "F.Mask")
    (solder_mask_margin 0.1016) (tstamp 7eba9c34-7f12-4954-a7ea-7c500a55855e))
)
