(footprint "SOT23" (version 20210824) (generator pcbnew) (layer "F.Cu")
  (tedit 0)
  (descr "<b>SOT-23</b>")
  (fp_text reference "REF**" (at -1.905 -1.905) (layer "F.SilkS")
    (effects (font (size 1.1684 1.1684) (thickness 0.1016)) (justify left bottom))
    (tstamp 7c5207fc-0dd2-443d-aac3-d320e72d8f9c)
  )
  (fp_text value ">VALUE" (at -1.905 3.175) (layer "F.Fab")
    (effects (font (size 1.1684 1.1684) (thickness 0.1016)) (justify left bottom))
    (tstamp 19aead51-1640-44b5-8763-fae20cae334f)
  )
  (fp_line (start 1.4224 0.6604) (end -1.4224 0.6604) (layer "F.Fab") (width 0.1524) (tstamp 5bd05db1-41d5-4039-97e7-130ea103aac2))
  (fp_line (start -1.4224 -0.6604) (end 1.4224 -0.6604) (layer "F.Fab") (width 0.1524) (tstamp 6821254f-34f8-4bd4-a939-9fe1e9e42593))
  (fp_line (start -1.4224 0.6604) (end -1.4224 -0.6604) (layer "F.Fab") (width 0.1524) (tstamp 85a52c1d-5d73-47c3-aca8-024cfb7a46f4))
  (fp_line (start 1.4224 -0.6604) (end 1.4224 0.6604) (layer "F.Fab") (width 0.1524) (tstamp b51097ed-276b-49d7-bbd3-1ee8c509b52a))
  (fp_poly (pts
      (xy 0.7112 1.2954)
      (xy 1.1684 1.2954)
      (xy 1.1684 0.7112)
      (xy 0.7112 0.7112)
    ) (layer "F.Fab") (width 0) (fill none) (tstamp 836bb035-37b1-4b60-9914-07240cf6f196))
  (fp_poly (pts
      (xy -0.2286 -0.7112)
      (xy 0.2286 -0.7112)
      (xy 0.2286 -1.2954)
      (xy -0.2286 -1.2954)
    ) (layer "F.Fab") (width 0) (fill none) (tstamp 8f5d4e26-8d20-4237-922c-7d63fa961671))
  (fp_poly (pts
      (xy -1.1684 1.2954)
      (xy -0.7112 1.2954)
      (xy -0.7112 0.7112)
      (xy -1.1684 0.7112)
    ) (layer "F.Fab") (width 0) (fill none) (tstamp c0de44b5-3d22-4cc3-8ec0-1210f6252ff2))
  (pad "1" smd rect (at -0.95 1.1) (size 1 1.4) (layers "F.Cu" "F.Paste" "F.Mask")
    (solder_mask_margin 0.1016) (tstamp 83d68db4-1745-44d5-84e4-60165895efeb))
  (pad "2" smd rect (at 0.95 1.1) (size 1 1.4) (layers "F.Cu" "F.Paste" "F.Mask")
    (solder_mask_margin 0.1016) (tstamp 9cdf29b9-7c70-4378-90e8-1ae006fd0c73))
  (pad "3" smd rect (at 0 -1.1) (size 1 1.4) (layers "F.Cu" "F.Paste" "F.Mask")
    (solder_mask_margin 0.1016) (tstamp 3f49947d-e970-4ad1-ad75-0221a1c87ede))
)
