(footprint "153CLV-1010" (version 20210824) (generator pcbnew) (layer "F.Cu")
  (tedit 0)
  (descr "<b>Aluminum electrolytic capacitors</b><p>\nSMD (Chip) Long Life Vertical 153 CLV<p>\nhttp://www.bccomponents.com/")
  (fp_text reference "REF**" (at -5.29 -5.53) (layer "F.SilkS")
    (effects (font (size 1.1684 1.1684) (thickness 0.1016)) (justify left bottom))
    (tstamp ba868596-3b5e-48e1-ad69-f3c2564fac8c)
  )
  (fp_text value ">VALUE" (at -5.325 6.785) (layer "F.Fab")
    (effects (font (size 1.1684 1.1684) (thickness 0.1016)) (justify left bottom))
    (tstamp df594a73-4c13-49c8-98c1-93ae93b2ab0e)
  )
  (fp_line (start 4.3 5.2) (end -5.2 5.2) (layer "F.SilkS") (width 0.2032) (tstamp 067e1b40-c184-4bed-b8dc-eaecf2cc73b7))
  (fp_line (start -5.2 -5.2) (end 4.3 -5.2) (layer "F.SilkS") (width 0.2032) (tstamp 06e4585f-e728-4e00-ae55-58d2f686beba))
  (fp_line (start 4.3 -5.2) (end 5.2 -4.3) (layer "F.SilkS") (width 0.2032) (tstamp 317ee9ef-b7ae-4cc4-8ca6-435a76e72a11))
  (fp_line (start 5.2 -4.3) (end 5.2 -1.5) (layer "F.SilkS") (width 0.2032) (tstamp 8976f0e3-5e45-4434-b9bb-319a319aef82))
  (fp_line (start 5.2 1.5) (end 5.2 4.3) (layer "F.SilkS") (width 0.2032) (tstamp 907ad2d4-38c2-41ba-9f75-2e92f653b24e))
  (fp_line (start -5.2 5.2) (end -5.2 1.5) (layer "F.SilkS") (width 0.2032) (tstamp ad639328-2692-4de8-9401-70766365e740))
  (fp_line (start 5.2 4.3) (end 4.3 5.2) (layer "F.SilkS") (width 0.2032) (tstamp c5b94c3a-beb7-42fc-8300-54cf0070dd1f))
  (fp_line (start -5.2 -1.5) (end -5.2 -5.2) (layer "F.SilkS") (width 0.2032) (tstamp cc3cb335-637a-4b71-b2e4-0bd5dfa4438e))
  (fp_arc (start 0 0) (end -4.65 1.55) (angle -143.130102) (layer "F.SilkS") (width 0.2032) (tstamp 3002750e-7d5d-42b9-940f-7d8be8db6bdf))
  (fp_arc (start 0 0) (end -4.65 -1.55) (angle 143.130102) (layer "F.SilkS") (width 0.2032) (tstamp ca3338d8-3a21-4d2b-b8b2-cd5e4b98ac2b))
  (fp_line (start -5.2 1.5) (end -5.2 -1.5) (layer "F.Fab") (width 0.2032) (tstamp 2e88d80a-8e79-4349-ae7d-3f4d5adb5c33))
  (fp_line (start 5.2 -1.5) (end 5.2 1.5) (layer "F.Fab") (width 0.2032) (tstamp fa5a5701-14f1-43ed-8f26-93829e24baf2))
  (fp_arc (start 0 0) (end 4.65 1.55) (angle -36.869898) (layer "F.Fab") (width 0.2032) (tstamp 0d7c717d-7016-4214-bdd9-9be29ea7769c))
  (fp_arc (start 0 0) (end -4.65 1.55) (angle 36.869898) (layer "F.Fab") (width 0.2032) (tstamp 3674ed84-bb1a-4f97-a4fc-15bf6e653381))
  (pad "+" smd rect (at 4 0) (size 4 2.5) (layers "F.Cu" "F.Paste" "F.Mask")
    (solder_mask_margin 0.1016) (tstamp 2075e201-cf6c-44db-b949-4ff4b209804f))
  (pad "-" smd rect (at -4 0) (size 4 2.5) (layers "F.Cu" "F.Paste" "F.Mask")
    (solder_mask_margin 0.1016) (tstamp 60d46358-e993-4105-8482-c78ce7a1bc96))
)
