(footprint "CTS-219-04" (version 20210824) (generator pcbnew) (layer "F.Cu")
  (tedit 0)
  (descr "<b>Surface Mount DIP Switch Series 219 SMT</b><p>\nCTS Electronic Components<br>\nSourc: www.ctscorp.com")
  (fp_text reference "REF**" (at -6.58 2.5 90) (layer "F.SilkS")
    (effects (font (size 1.1684 1.1684) (thickness 0.1016)) (justify left bottom))
    (tstamp 9fdc13c9-2fe6-456f-8632-dfdce1e304f9)
  )
  (fp_text value ">VALUE" (at 7.58 3 90) (layer "F.Fab")
    (effects (font (size 1.1684 1.1684) (thickness 0.1016)) (justify left bottom))
    (tstamp d70d4ad0-8151-4d20-9475-677f864cc72a)
  )
  (fp_text user "2" (at -1.47 2.85) (layer "F.SilkS")
    (effects (font (size 0.560832 0.560832) (thickness 0.048768)) (justify left bottom))
    (tstamp 2a027316-f6ec-4ebe-8f4f-bcd52daefd65)
  )
  (fp_text user "1" (at -4.01 2.85) (layer "F.SilkS")
    (effects (font (size 0.560832 0.560832) (thickness 0.048768)) (justify left bottom))
    (tstamp 3220a07b-e70e-4994-8374-0c861ec00818)
  )
  (fp_text user "3" (at 1.07 2.85) (layer "F.SilkS")
    (effects (font (size 0.560832 0.560832) (thickness 0.048768)) (justify left bottom))
    (tstamp 767a4e54-57b9-417f-90ab-b01bfea76dc9)
  )
  (fp_text user "ON" (at -4.31 -2.275) (layer "F.SilkS")
    (effects (font (size 0.560832 0.560832) (thickness 0.048768)) (justify left bottom))
    (tstamp 9d9d4881-5883-4ae2-bec7-3667bb48f537)
  )
  (fp_text user "4" (at 3.61 2.85) (layer "F.SilkS")
    (effects (font (size 0.560832 0.560832) (thickness 0.048768)) (justify left bottom))
    (tstamp be71a17a-5e46-42f6-bca7-30570fcad302)
  )
  (fp_line (start -5.715 3.225) (end -5.715 -3.225) (layer "F.SilkS") (width 0.2032) (tstamp 1057fef1-e289-44c6-b5f0-b11178242b9f))
  (fp_line (start -2.485 -3.225) (end -2.62 -3.225) (layer "F.SilkS") (width 0.2032) (tstamp 140b4349-51bd-4cc4-be51-c6825ba927eb))
  (fp_line (start 0.055 -3.225) (end -0.08 -3.225) (layer "F.SilkS") (width 0.2032) (tstamp 1479f186-5694-49b6-84a0-a74c6162ebea))
  (fp_line (start 2.02 2) (end 0.52 2) (layer "F.SilkS") (width 0.2032) (tstamp 20d2253f-b9a1-4eb0-8f85-ca9e1b1f0385))
  (fp_line (start 0.52 -2) (end 2.02 -2) (layer "F.SilkS") (width 0.2032) (tstamp 278596ba-636e-43df-8fd5-90980380e5d3))
  (fp_line (start 3.06 -2) (end 4.56 -2) (layer "F.SilkS") (width 0.2032) (tstamp 290b34cd-5a45-47fe-aee0-850bad5e814e))
  (fp_line (start -4.465 3.225) (end -5.715 3.225) (layer "F.SilkS") (width 0.2032) (tstamp 29a7a2af-3cfb-45ee-8a67-8d4a8c651572))
  (fp_line (start -3.06 -2) (end -3.06 2) (layer "F.SilkS") (width 0.2032) (tstamp 2bd02773-6890-42a6-9295-69a74341ec8b))
  (fp_line (start -5.16 3.225) (end -4.465 3.225) (layer "F.SilkS") (width 0.2032) (tstamp 2d03f242-eba9-4f9e-9ba2-a0c883c0eeb8))
  (fp_line (start -0.08 3.225) (end 0.055 3.225) (layer "F.SilkS") (width 0.2032) (tstamp 2fd02a20-825a-4625-8996-35398b9457da))
  (fp_line (start -4.56 -2) (end -3.06 -2) (layer "F.SilkS") (width 0.2032) (tstamp 3abe2f4c-1bd1-414f-be80-deb3d2f73b19))
  (fp_line (start -2.02 -2) (end -0.52 -2) (layer "F.SilkS") (width 0.2032) (tstamp 40fca304-6b34-435b-9a53-16c75f3bd35b))
  (fp_line (start 5.69 -3.225) (end 5.69 3.225) (layer "F.SilkS") (width 0.2032) (tstamp 42dc3d08-d985-4120-adf4-00fd94629320))
  (fp_line (start -5.715 -3.225) (end -5.16 -3.225) (layer "F.SilkS") (width 0.2032) (tstamp 4d533704-eaf7-4fe2-9f89-11a2353a68d5))
  (fp_line (start -2.02 2) (end -2.02 -2) (layer "F.SilkS") (width 0.2032) (tstamp 50433449-235e-4230-bc11-b8e6da1b4860))
  (fp_line (start 2.02 -2) (end 2.02 2) (layer "F.SilkS") (width 0.2032) (tstamp 54d598cf-40d2-4d95-b9fe-49fbb0648a36))
  (fp_line (start -0.52 2) (end -2.02 2) (layer "F.SilkS") (width 0.2032) (tstamp 552366c6-12b5-47c3-bb1c-7029668e6e11))
  (fp_line (start 0.52 2) (end 0.52 -2) (layer "F.SilkS") (width 0.2032) (tstamp 5bb379b4-5fa4-4c70-9a2c-a2c9c5636172))
  (fp_line (start 5.135 -3.225) (end 5.69 -3.225) (layer "F.SilkS") (width 0.2032) (tstamp 600d529f-f717-4fb6-be14-a496c02b5302))
  (fp_line (start 3.06 2) (end 3.06 -2) (layer "F.SilkS") (width 0.2032) (tstamp 7dbe3f17-3b91-45b5-bee9-38216ee0f7c3))
  (fp_line (start -2.62 3.225) (end -2.485 3.225) (layer "F.SilkS") (width 0.2032) (tstamp 7f205a19-1378-465c-a25e-b61a1005aaa2))
  (fp_line (start 4.56 -2) (end 4.56 2) (layer "F.SilkS") (width 0.2032) (tstamp 930d2dca-3658-4a5a-af53-6b880728b2b2))
  (fp_line (start -3.06 2) (end -4.56 2) (layer "F.SilkS") (width 0.2032) (tstamp b44f4af9-9718-4dcd-a1c4-728a26bcc85e))
  (fp_line (start 2.595 -3.225) (end 2.46 -3.225) (layer "F.SilkS") (width 0.2032) (tstamp c0b328a7-c217-4ee1-9bcf-39387d91a42c))
  (fp_line (start -4.56 2) (end -4.56 -2) (layer "F.SilkS") (width 0.2032) (tstamp c539b839-a189-46b7-b38b-d7b56e584092))
  (fp_line (start 4.56 2) (end 3.06 2) (layer "F.SilkS") (width 0.2032) (tstamp d20b5fa5-ec60-400d-a960-89f5363a01a8))
  (fp_line (start -5.69 2) (end -4.465 3.225) (layer "F.SilkS") (width 0.2032) (tstamp d331c29c-31a0-4828-80bf-ced900252372))
  (fp_line (start 2.46 3.225) (end 2.595 3.225) (layer "F.SilkS") (width 0.2032) (tstamp e15c6396-8fde-4098-a061-de7cd564511c))
  (fp_line (start -0.52 -2) (end -0.52 2) (layer "F.SilkS") (width 0.2032) (tstamp e9087e0a-6130-45e2-9222-8d1afb7f5c47))
  (fp_line (start 5.69 3.225) (end 5.135 3.225) (layer "F.SilkS") (width 0.2032) (tstamp fef2704e-de19-49d0-8d9b-4b34ac4f1d94))
  (fp_poly (pts
      (xy -4.56 2)
      (xy -3.06 2)
      (xy -3.06 0.5)
      (xy -4.56 0.5)
    ) (layer "F.SilkS") (width 0) (fill none) (tstamp 665d0394-f963-4872-b263-01475c09e2ad))
  (fp_poly (pts
      (xy 0.52 2)
      (xy 2.02 2)
      (xy 2.02 0.5)
      (xy 0.52 0.5)
    ) (layer "F.SilkS") (width 0) (fill none) (tstamp 7780b65b-fc0a-41db-b01c-1371b3b1d5ed))
  (fp_poly (pts
      (xy -2.02 2)
      (xy -0.52 2)
      (xy -0.52 0.5)
      (xy -2.02 0.5)
    ) (layer "F.SilkS") (width 0) (fill none) (tstamp 96fb6af8-044f-41a1-90fd-baecada6ba68))
  (fp_poly (pts
      (xy 3.06 2)
      (xy 4.56 2)
      (xy 4.56 0.5)
      (xy 3.06 0.5)
    ) (layer "F.SilkS") (width 0) (fill none) (tstamp d3f0dc4d-fcca-402a-8a93-26dd66250261))
  (fp_line (start -5.715 -3.225) (end 5.69 -3.225) (layer "F.Fab") (width 0.2032) (tstamp 1b075668-291e-4b68-a432-4fdb8c6b00e3))
  (fp_line (start 5.69 3.225) (end -5.715 3.225) (layer "F.Fab") (width 0.2032) (tstamp 976f4523-611a-45b7-9e50-ae224ead5476))
  (fp_poly (pts
      (xy -4.56 -3.25)
      (xy -3.06 -3.25)
      (xy -3.06 -4)
      (xy -4.56 -4)
    ) (layer "F.Fab") (width 0) (fill none) (tstamp 103c39c3-27a2-4daa-afcd-67e90a284931))
  (fp_poly (pts
      (xy -4.06 4.95)
      (xy -3.56 4.95)
      (xy -3.56 4)
      (xy -4.06 4)
    ) (layer "F.Fab") (width 0) (fill none) (tstamp 1af30888-144b-42d8-bf63-f032ab391eeb))
  (fp_poly (pts
      (xy 0.52 -3.25)
      (xy 2.02 -3.25)
      (xy 2.02 -4)
      (xy 0.52 -4)
    ) (layer "F.Fab") (width 0) (fill none) (tstamp 2b5c3b95-447a-48ff-92b6-1563e21d6d4b))
  (fp_poly (pts
      (xy -3.06 3.25)
      (xy -4.56 3.25)
      (xy -4.56 4)
      (xy -3.06 4)
    ) (layer "F.Fab") (width 0) (fill none) (tstamp 2e519da3-9f5f-4fb3-b4ef-fe567f3c3bb8))
  (fp_poly (pts
      (xy -2.02 -3.25)
      (xy -0.52 -3.25)
      (xy -0.52 -4)
      (xy -2.02 -4)
    ) (layer "F.Fab") (width 0) (fill none) (tstamp 562ca67a-e76f-4d82-ba82-f8e6e915487e))
  (fp_poly (pts
      (xy 2.02 3.25)
      (xy 0.52 3.25)
      (xy 0.52 4)
      (xy 2.02 4)
    ) (layer "F.Fab") (width 0) (fill none) (tstamp 581ec651-3ab3-45a3-8a62-22c573d9dc06))
  (fp_poly (pts
      (xy 4.56 3.25)
      (xy 3.06 3.25)
      (xy 3.06 4)
      (xy 4.56 4)
    ) (layer "F.Fab") (width 0) (fill none) (tstamp 5faea702-65f6-4461-bfcd-28689cc1c3dc))
  (fp_poly (pts
      (xy 1.52 -4.95)
      (xy 1.02 -4.95)
      (xy 1.02 -4)
      (xy 1.52 -4)
    ) (layer "F.Fab") (width 0) (fill none) (tstamp 63e6fbe7-13c3-4274-9268-e648bf7f13c0))
  (fp_poly (pts
      (xy 3.06 -3.25)
      (xy 4.56 -3.25)
      (xy 4.56 -4)
      (xy 3.06 -4)
    ) (layer "F.Fab") (width 0) (fill none) (tstamp 7bbb858f-eeb0-4ac3-8dd0-e53a79bba913))
  (fp_poly (pts
      (xy 4.06 -4.95)
      (xy 3.56 -4.95)
      (xy 3.56 -4)
      (xy 4.06 -4)
    ) (layer "F.Fab") (width 0) (fill none) (tstamp ad862219-5050-4abb-8182-e581604b8702))
  (fp_poly (pts
      (xy 3.56 4.95)
      (xy 4.06 4.95)
      (xy 4.06 4)
      (xy 3.56 4)
    ) (layer "F.Fab") (width 0) (fill none) (tstamp b68469e4-f085-40d3-b366-646f08a36202))
  (fp_poly (pts
      (xy -0.52 3.25)
      (xy -2.02 3.25)
      (xy -2.02 4)
      (xy -0.52 4)
    ) (layer "F.Fab") (width 0) (fill none) (tstamp bc9dcca7-1e5c-4212-bb9b-7ed68d33f75d))
  (fp_poly (pts
      (xy 1.02 4.95)
      (xy 1.52 4.95)
      (xy 1.52 4)
      (xy 1.02 4)
    ) (layer "F.Fab") (width 0) (fill none) (tstamp c99a95f2-8d6a-49ee-a44a-02269deea4d9))
  (fp_poly (pts
      (xy -3.56 -4.95)
      (xy -4.06 -4.95)
      (xy -4.06 -4)
      (xy -3.56 -4)
    ) (layer "F.Fab") (width 0) (fill none) (tstamp d760db15-65c2-451f-b2e6-41d3bd729872))
  (fp_poly (pts
      (xy -1.52 4.95)
      (xy -1.02 4.95)
      (xy -1.02 4)
      (xy -1.52 4)
    ) (layer "F.Fab") (width 0) (fill none) (tstamp eef1ade6-c50f-4edd-a5b3-7b47cd3633b9))
  (fp_poly (pts
      (xy -1.02 -4.95)
      (xy -1.52 -4.95)
      (xy -1.52 -4)
      (xy -1.02 -4)
    ) (layer "F.Fab") (width 0) (fill none) (tstamp f30d1357-cf8e-407a-9e82-d751da1b9a76))
  (pad "1" smd rect (at -3.81 4.3) (size 1.13 2.44) (layers "F.Cu" "F.Paste" "F.Mask")
    (solder_mask_margin 0.1016) (tstamp 90e87a79-a791-4f00-b832-40c0855c6700))
  (pad "2" smd rect (at -1.27 4.3) (size 1.13 2.44) (layers "F.Cu" "F.Paste" "F.Mask")
    (solder_mask_margin 0.1016) (tstamp 83ed97ce-7ea6-4ef5-9912-e033c8d136da))
  (pad "3" smd rect (at 1.27 4.3) (size 1.13 2.44) (layers "F.Cu" "F.Paste" "F.Mask")
    (solder_mask_margin 0.1016) (tstamp d4ecfff8-d471-4b93-b60e-ed6263db63a0))
  (pad "4" smd rect (at 3.81 4.3) (size 1.13 2.44) (layers "F.Cu" "F.Paste" "F.Mask")
    (solder_mask_margin 0.1016) (tstamp 11635874-1a94-4510-82bf-402163fc7021))
  (pad "5" smd rect (at 3.81 -4.3 180) (size 1.13 2.44) (layers "F.Cu" "F.Paste" "F.Mask")
    (solder_mask_margin 0.1016) (tstamp 9286016a-99c8-4ac5-8531-aed2b230aab1))
  (pad "6" smd rect (at 1.27 -4.3 180) (size 1.13 2.44) (layers "F.Cu" "F.Paste" "F.Mask")
    (solder_mask_margin 0.1016) (tstamp f06abeea-1627-47a9-90a3-fc2a8f285a23))
  (pad "7" smd rect (at -1.27 -4.3 180) (size 1.13 2.44) (layers "F.Cu" "F.Paste" "F.Mask")
    (solder_mask_margin 0.1016) (tstamp 9ff53493-f052-4d67-bcdd-e0873ff3e8f5))
  (pad "8" smd rect (at -3.81 -4.3 180) (size 1.13 2.44) (layers "F.Cu" "F.Paste" "F.Mask")
    (solder_mask_margin 0.1016) (tstamp db9aebd4-899e-4535-9224-a350e564f7df))
)
