(footprint "QFN50P700X700X100-49N" (version 20210824) (generator pcbnew) (layer "F.Cu")
  (tedit 0)
  (fp_text reference "REF**" (at -4 -4.5) (layer "F.SilkS")
    (effects (font (size 1.1684 1.1684) (thickness 0.1016)) (justify left bottom))
    (tstamp 075c9f23-383e-4b29-9371-51600b8982a9)
  )
  (fp_text value ">VALUE" (at -4 4.5) (layer "F.Fab")
    (effects (font (size 1.1684 1.1684) (thickness 0.1016)) (justify left top))
    (tstamp 8b580541-700a-40a4-86fb-ef93de741814)
  )
  (fp_poly (pts
      (xy -2.1 2.1)
      (xy -0.48 2.1)
      (xy -0.48 0.48)
      (xy -2.1 0.48)
    ) (layer "F.Paste") (width 0) (fill none) (tstamp 25b6df6a-9681-42f5-974d-72771708f035))
  (fp_poly (pts
      (xy 0.48 2.1)
      (xy 2.1 2.1)
      (xy 2.1 0.48)
      (xy 0.48 0.48)
    ) (layer "F.Paste") (width 0) (fill none) (tstamp 45fa280d-e3b2-41c6-81a9-06153a5bb0b1))
  (fp_poly (pts
      (xy 0.48 -0.48)
      (xy 2.1 -0.48)
      (xy 2.1 -2.1)
      (xy 0.48 -2.1)
    ) (layer "F.Paste") (width 0) (fill none) (tstamp 62de59d3-559e-419a-a9cd-b93d85c5a9ee))
  (fp_poly (pts
      (xy -2.1 -0.48)
      (xy -0.48 -0.48)
      (xy -0.48 -2.1)
      (xy -2.1 -2.1)
    ) (layer "F.Paste") (width 0) (fill none) (tstamp 7d4208b7-3fb8-4040-b7ef-60576464e2dc))
  (fp_line (start 3.5 -3.5) (end 3.5 -3.2) (layer "F.SilkS") (width 0.127) (tstamp 12802c1d-033d-4578-bcce-27d4d09349e1))
  (fp_line (start -3.5 -3.5) (end -3.2 -3.5) (layer "F.SilkS") (width 0.127) (tstamp 14227f41-fcc2-4aa5-bcaf-49e1713d2ec6))
  (fp_line (start 3.5 3.5) (end 3.2 3.5) (layer "F.SilkS") (width 0.127) (tstamp 15cdc6c1-fa38-4021-9f2b-c83ec8dd22c4))
  (fp_line (start -3.5 -3.5) (end -3.5 -3.2) (layer "F.SilkS") (width 0.127) (tstamp 1ed69c85-547d-4716-8ce3-758874892240))
  (fp_line (start -3.5 3.5) (end -3.2 3.5) (layer "F.SilkS") (width 0.127) (tstamp 303671c8-a988-44c9-8a79-11bee73d58ea))
  (fp_line (start -3.5 3.5) (end -3.5 3.2) (layer "F.SilkS") (width 0.127) (tstamp a87934e2-f7db-4eaa-b4e3-e4cbc151488c))
  (fp_line (start 3.5 3.5) (end 3.5 3.2) (layer "F.SilkS") (width 0.127) (tstamp b3888858-13b9-4d34-8669-990b7ad5990f))
  (fp_line (start 3.5 -3.5) (end 3.2 -3.5) (layer "F.SilkS") (width 0.127) (tstamp baec9dde-85a8-465d-bd28-f9a94838aab7))
  (fp_circle (center -4.675 -2.75) (end -4.575 -2.75) (layer "F.SilkS") (width 0.2) (fill none) (tstamp f09904cb-f5fa-47cd-8264-d4ed0b94a1b1))
  (fp_line (start -4.115 -4.115) (end 4.115 -4.115) (layer "F.CrtYd") (width 0.05) (tstamp 380a4949-ef0a-498b-9076-47d4176b8085))
  (fp_line (start 4.115 4.115) (end 4.115 -4.115) (layer "F.CrtYd") (width 0.05) (tstamp 6ea7f3a0-e144-494f-b8da-8bee468ac653))
  (fp_line (start -4.115 4.115) (end 4.115 4.115) (layer "F.CrtYd") (width 0.05) (tstamp ac4a4d6c-427d-4365-b140-ec7baf4c8dc0))
  (fp_line (start -4.115 4.115) (end -4.115 -4.115) (layer "F.CrtYd") (width 0.05) (tstamp ec47f12a-2f9d-443b-bf5d-692fd521b7ff))
  (fp_line (start -3.5 3.5) (end -3.5 -3.5) (layer "F.Fab") (width 0.127) (tstamp 5a925367-7cb4-499f-8ec1-b829931f351f))
  (fp_line (start 3.5 3.5) (end 3.5 -3.5) (layer "F.Fab") (width 0.127) (tstamp 6a4bf20a-e6ad-427d-bfe7-5596ea893689))
  (fp_line (start 3.5 3.5) (end -3.5 3.5) (layer "F.Fab") (width 0.127) (tstamp 866eeed1-35e3-4924-8b76-fc8012f53b64))
  (fp_line (start 3.5 -3.5) (end -3.5 -3.5) (layer "F.Fab") (width 0.127) (tstamp c9985fc7-81bc-4928-be24-32635727bbfd))
  (fp_circle (center -4.675 -2.75) (end -4.575 -2.75) (layer "F.Fab") (width 0.2) (fill none) (tstamp eabe34e1-ce55-43cd-a373-11af10481d76))
  (pad "1" smd roundrect (at -3.635 -2.75) (size 1.2 0.26) (layers "F.Cu" "F.Paste" "F.Mask") (roundrect_rratio 0.125)
    (solder_mask_margin 0.1016) (tstamp 65456073-d6ee-44a7-b872-b18acd68b277))
  (pad "2" smd roundrect (at -3.635 -2.25) (size 1.2 0.26) (layers "F.Cu" "F.Paste" "F.Mask") (roundrect_rratio 0.125)
    (solder_mask_margin 0.1016) (tstamp 1dec5f19-e9ea-466e-913e-a9d500ce096c))
  (pad "3" smd roundrect (at -3.635 -1.75) (size 1.2 0.26) (layers "F.Cu" "F.Paste" "F.Mask") (roundrect_rratio 0.125)
    (solder_mask_margin 0.1016) (tstamp 47171413-25b7-4d42-b264-ade5d6fcc204))
  (pad "4" smd roundrect (at -3.635 -1.25) (size 1.2 0.26) (layers "F.Cu" "F.Paste" "F.Mask") (roundrect_rratio 0.125)
    (solder_mask_margin 0.1016) (tstamp d0a7c75b-06d7-4500-ad9c-8754244c84ff))
  (pad "5" smd roundrect (at -3.635 -0.75) (size 1.2 0.26) (layers "F.Cu" "F.Paste" "F.Mask") (roundrect_rratio 0.125)
    (solder_mask_margin 0.1016) (tstamp fe88de10-90b2-4478-be90-0e176f9db404))
  (pad "6" smd roundrect (at -3.635 -0.25) (size 1.2 0.26) (layers "F.Cu" "F.Paste" "F.Mask") (roundrect_rratio 0.125)
    (solder_mask_margin 0.1016) (tstamp 0c89bc13-89d1-40a7-a956-9753b140eb6a))
  (pad "7" smd roundrect (at -3.635 0.25) (size 1.2 0.26) (layers "F.Cu" "F.Paste" "F.Mask") (roundrect_rratio 0.125)
    (solder_mask_margin 0.1016) (tstamp 97345e73-0c14-4dfd-b1b2-e406402f7289))
  (pad "8" smd roundrect (at -3.635 0.75) (size 1.2 0.26) (layers "F.Cu" "F.Paste" "F.Mask") (roundrect_rratio 0.125)
    (solder_mask_margin 0.1016) (tstamp 9f12c8bf-545f-4c73-89e0-788251255652))
  (pad "9" smd roundrect (at -3.635 1.25) (size 1.2 0.26) (layers "F.Cu" "F.Paste" "F.Mask") (roundrect_rratio 0.125)
    (solder_mask_margin 0.1016) (tstamp 2a6ecdd1-0079-4270-8e17-dedb90332a4b))
  (pad "10" smd roundrect (at -3.635 1.75) (size 1.2 0.26) (layers "F.Cu" "F.Paste" "F.Mask") (roundrect_rratio 0.125)
    (solder_mask_margin 0.1016) (tstamp 20d5946f-a860-4c7e-bf0a-5e5af550d343))
  (pad "11" smd roundrect (at -3.635 2.25) (size 1.2 0.26) (layers "F.Cu" "F.Paste" "F.Mask") (roundrect_rratio 0.125)
    (solder_mask_margin 0.1016) (tstamp 9f9a19e1-9d00-4cdf-a714-7b364d57366d))
  (pad "12" smd roundrect (at -3.635 2.75) (size 1.2 0.26) (layers "F.Cu" "F.Paste" "F.Mask") (roundrect_rratio 0.125)
    (solder_mask_margin 0.1016) (tstamp 29030bd7-cff9-4da6-a7c3-ef724811f98b))
  (pad "13" smd roundrect (at -2.75 3.635 90) (size 1.2 0.26) (layers "F.Cu" "F.Paste" "F.Mask") (roundrect_rratio 0.125)
    (solder_mask_margin 0.1016) (tstamp b5cd99bb-e8bd-4a4b-8879-eb4024bbe1e2))
  (pad "14" smd roundrect (at -2.25 3.635 90) (size 1.2 0.26) (layers "F.Cu" "F.Paste" "F.Mask") (roundrect_rratio 0.125)
    (solder_mask_margin 0.1016) (tstamp fefa0951-59d0-4f7f-abb3-6c0e7c2f2a24))
  (pad "15" smd roundrect (at -1.75 3.635 90) (size 1.2 0.26) (layers "F.Cu" "F.Paste" "F.Mask") (roundrect_rratio 0.125)
    (solder_mask_margin 0.1016) (tstamp 4b6a35c0-0fe7-44b1-afe5-a72a9673be14))
  (pad "16" smd roundrect (at -1.25 3.635 90) (size 1.2 0.26) (layers "F.Cu" "F.Paste" "F.Mask") (roundrect_rratio 0.125)
    (solder_mask_margin 0.1016) (tstamp bba78c85-ea74-48f3-b6c1-61d4cae44c80))
  (pad "17" smd roundrect (at -0.75 3.635 90) (size 1.2 0.26) (layers "F.Cu" "F.Paste" "F.Mask") (roundrect_rratio 0.125)
    (solder_mask_margin 0.1016) (tstamp 46cbbbe7-6d6f-407a-be4f-c904b469f57b))
  (pad "18" smd roundrect (at -0.25 3.635 90) (size 1.2 0.26) (layers "F.Cu" "F.Paste" "F.Mask") (roundrect_rratio 0.125)
    (solder_mask_margin 0.1016) (tstamp 16a56742-7c7f-4ef1-a676-37b1ab57c30e))
  (pad "19" smd roundrect (at 0.25 3.635 90) (size 1.2 0.26) (layers "F.Cu" "F.Paste" "F.Mask") (roundrect_rratio 0.125)
    (solder_mask_margin 0.1016) (tstamp b965ff48-52ae-4a20-b9fe-bed23b8b1906))
  (pad "20" smd roundrect (at 0.75 3.635 90) (size 1.2 0.26) (layers "F.Cu" "F.Paste" "F.Mask") (roundrect_rratio 0.125)
    (solder_mask_margin 0.1016) (tstamp 8c2d4e2e-57f4-46ff-a171-773d425dd8cd))
  (pad "21" smd roundrect (at 1.25 3.635 90) (size 1.2 0.26) (layers "F.Cu" "F.Paste" "F.Mask") (roundrect_rratio 0.125)
    (solder_mask_margin 0.1016) (tstamp 8de99163-e921-45fd-8a09-61d544505d60))
  (pad "22" smd roundrect (at 1.75 3.635 90) (size 1.2 0.26) (layers "F.Cu" "F.Paste" "F.Mask") (roundrect_rratio 0.125)
    (solder_mask_margin 0.1016) (tstamp 1570a755-dc21-47e8-9798-14bdd8195898))
  (pad "23" smd roundrect (at 2.25 3.635 90) (size 1.2 0.26) (layers "F.Cu" "F.Paste" "F.Mask") (roundrect_rratio 0.125)
    (solder_mask_margin 0.1016) (tstamp 89f08e0c-e86c-4e61-8067-ce305c55450e))
  (pad "24" smd roundrect (at 2.75 3.635 90) (size 1.2 0.26) (layers "F.Cu" "F.Paste" "F.Mask") (roundrect_rratio 0.125)
    (solder_mask_margin 0.1016) (tstamp 3f0575f5-2684-42df-b638-cfbb91933777))
  (pad "25" smd roundrect (at 3.635 2.75) (size 1.2 0.26) (layers "F.Cu" "F.Paste" "F.Mask") (roundrect_rratio 0.125)
    (solder_mask_margin 0.1016) (tstamp 80159450-2e25-4a53-ba4e-640836b844e5))
  (pad "26" smd roundrect (at 3.635 2.25) (size 1.2 0.26) (layers "F.Cu" "F.Paste" "F.Mask") (roundrect_rratio 0.125)
    (solder_mask_margin 0.1016) (tstamp b3352186-9932-4835-9f83-8656f60d4e20))
  (pad "27" smd roundrect (at 3.635 1.75) (size 1.2 0.26) (layers "F.Cu" "F.Paste" "F.Mask") (roundrect_rratio 0.125)
    (solder_mask_margin 0.1016) (tstamp 639f4fcd-68f8-4b9c-b3c9-a9f8e538da7b))
  (pad "28" smd roundrect (at 3.635 1.25) (size 1.2 0.26) (layers "F.Cu" "F.Paste" "F.Mask") (roundrect_rratio 0.125)
    (solder_mask_margin 0.1016) (tstamp e2e70817-9a0a-43eb-a5e6-237539c3847b))
  (pad "29" smd roundrect (at 3.635 0.75) (size 1.2 0.26) (layers "F.Cu" "F.Paste" "F.Mask") (roundrect_rratio 0.125)
    (solder_mask_margin 0.1016) (tstamp 0d132d43-3629-4cd5-9ebf-3b5b0fc1b514))
  (pad "30" smd roundrect (at 3.635 0.25) (size 1.2 0.26) (layers "F.Cu" "F.Paste" "F.Mask") (roundrect_rratio 0.125)
    (solder_mask_margin 0.1016) (tstamp 85a2d38a-8274-4e40-b605-947788215a34))
  (pad "31" smd roundrect (at 3.635 -0.25) (size 1.2 0.26) (layers "F.Cu" "F.Paste" "F.Mask") (roundrect_rratio 0.125)
    (solder_mask_margin 0.1016) (tstamp 7d996d89-b35f-4430-b298-00b43bc1eadd))
  (pad "32" smd roundrect (at 3.635 -0.75) (size 1.2 0.26) (layers "F.Cu" "F.Paste" "F.Mask") (roundrect_rratio 0.125)
    (solder_mask_margin 0.1016) (tstamp f5814773-193f-4cb0-b5fc-3b2cb5c85d00))
  (pad "33" smd roundrect (at 3.635 -1.25) (size 1.2 0.26) (layers "F.Cu" "F.Paste" "F.Mask") (roundrect_rratio 0.125)
    (solder_mask_margin 0.1016) (tstamp 2f06d2ef-26f6-4993-8d2c-c0ca4caf7dd7))
  (pad "34" smd roundrect (at 3.635 -1.75) (size 1.2 0.26) (layers "F.Cu" "F.Paste" "F.Mask") (roundrect_rratio 0.125)
    (solder_mask_margin 0.1016) (tstamp ca4e1318-be7e-4556-80b9-87a457ae57d9))
  (pad "35" smd roundrect (at 3.635 -2.25) (size 1.2 0.26) (layers "F.Cu" "F.Paste" "F.Mask") (roundrect_rratio 0.125)
    (solder_mask_margin 0.1016) (tstamp eb71b81f-39ff-45a5-9cec-07183d7be465))
  (pad "36" smd roundrect (at 3.635 -2.75) (size 1.2 0.26) (layers "F.Cu" "F.Paste" "F.Mask") (roundrect_rratio 0.125)
    (solder_mask_margin 0.1016) (tstamp d8cc3fb6-62d4-4e67-92d3-4942008059c1))
  (pad "37" smd roundrect (at 2.75 -3.585 90) (size 1.2 0.26) (layers "F.Cu" "F.Paste" "F.Mask") (roundrect_rratio 0.125)
    (solder_mask_margin 0.1016) (tstamp 5e9baa3e-9ec1-403a-9960-6a46d77dda78))
  (pad "38" smd roundrect (at 2.25 -3.585 90) (size 1.2 0.26) (layers "F.Cu" "F.Paste" "F.Mask") (roundrect_rratio 0.125)
    (solder_mask_margin 0.1016) (tstamp d2265c4f-dbc0-4ed6-a606-b39c7f78185d))
  (pad "39" smd roundrect (at 1.75 -3.585 90) (size 1.2 0.26) (layers "F.Cu" "F.Paste" "F.Mask") (roundrect_rratio 0.125)
    (solder_mask_margin 0.1016) (tstamp 5b799836-8fef-4e29-9abe-4bd24cdde73d))
  (pad "40" smd roundrect (at 1.25 -3.585 90) (size 1.2 0.26) (layers "F.Cu" "F.Paste" "F.Mask") (roundrect_rratio 0.125)
    (solder_mask_margin 0.1016) (tstamp 89cf0f26-cdcb-4e8f-b432-9ecf0164379c))
  (pad "41" smd roundrect (at 0.75 -3.585 90) (size 1.2 0.26) (layers "F.Cu" "F.Paste" "F.Mask") (roundrect_rratio 0.125)
    (solder_mask_margin 0.1016) (tstamp bc11d060-d75b-4e45-974b-6d6dad3554d3))
  (pad "42" smd roundrect (at 0.25 -3.585 90) (size 1.2 0.26) (layers "F.Cu" "F.Paste" "F.Mask") (roundrect_rratio 0.125)
    (solder_mask_margin 0.1016) (tstamp 9a738e52-49b2-43b2-82a3-09517a82d586))
  (pad "43" smd roundrect (at -0.25 -3.585 90) (size 1.2 0.26) (layers "F.Cu" "F.Paste" "F.Mask") (roundrect_rratio 0.125)
    (solder_mask_margin 0.1016) (tstamp bf64fc90-9561-4546-a07b-e20282cf0eb1))
  (pad "44" smd roundrect (at -0.75 -3.585 90) (size 1.2 0.26) (layers "F.Cu" "F.Paste" "F.Mask") (roundrect_rratio 0.125)
    (solder_mask_margin 0.1016) (tstamp 3f2a584d-4f01-4ef6-8334-6444cf9f7d45))
  (pad "45" smd roundrect (at -1.25 -3.585 90) (size 1.2 0.26) (layers "F.Cu" "F.Paste" "F.Mask") (roundrect_rratio 0.125)
    (solder_mask_margin 0.1016) (tstamp 50330b31-f716-4ab5-8d8f-d076433b3e5c))
  (pad "46" smd roundrect (at -1.75 -3.585 90) (size 1.2 0.26) (layers "F.Cu" "F.Paste" "F.Mask") (roundrect_rratio 0.125)
    (solder_mask_margin 0.1016) (tstamp 8e2e4603-8b1f-4bc2-893c-8d08ff62ee7d))
  (pad "47" smd roundrect (at -2.25 -3.585 90) (size 1.2 0.26) (layers "F.Cu" "F.Paste" "F.Mask") (roundrect_rratio 0.125)
    (solder_mask_margin 0.1016) (tstamp f66862e8-6c4d-4f1a-bf40-ef0c72d2739e))
  (pad "48" smd roundrect (at -2.75 -3.585 90) (size 1.2 0.26) (layers "F.Cu" "F.Paste" "F.Mask") (roundrect_rratio 0.125)
    (solder_mask_margin 0.1016) (tstamp 6d82d457-2a01-4dd7-b191-d806066da025))
  (pad "49" smd rect (at 0 0) (size 5.15 5.15) (layers "F.Cu" "F.Mask")
    (solder_mask_margin 0.1016) (tstamp 3b732330-8569-4c82-8fe2-4e336cb25184))
)
