(footprint "R2512" (version 20210824) (generator pcbnew) (layer "F.Cu")
  (tedit 0)
  (descr "<b>RESISTOR</b>")
  (fp_text reference "REF**" (at -2.54 -1.905) (layer "F.SilkS")
    (effects (font (size 1.1684 1.1684) (thickness 0.1016)) (justify left bottom))
    (tstamp 9c48620f-e6fe-491f-9ba9-f28e7c266e97)
  )
  (fp_text value ">VALUE" (at -2.54 3.175) (layer "F.Fab")
    (effects (font (size 1.1684 1.1684) (thickness 0.1016)) (justify left bottom))
    (tstamp ca0b0794-fc42-4348-90f4-7c8f15e37c81)
  )
  (fp_poly (pts
      (xy -0.5001 1)
      (xy 0.5001 1)
      (xy 0.5001 -1)
      (xy -0.5001 -1)
    ) (layer "F.Adhes") (width 0) (fill none) (tstamp 9152d2fa-a06e-41e3-b806-9f5477fbf7bd))
  (fp_line (start -3.973 1.983) (end -3.973 -1.983) (layer "F.CrtYd") (width 0.0508) (tstamp 32d36161-6572-4bec-b50d-015af7c714fb))
  (fp_line (start -3.973 -1.983) (end 3.973 -1.983) (layer "F.CrtYd") (width 0.0508) (tstamp 65ac25fb-8200-4b89-b191-c11f1473a00f))
  (fp_line (start 3.973 -1.983) (end 3.973 1.983) (layer "F.CrtYd") (width 0.0508) (tstamp 7ad7c592-78cf-4115-93af-1bb8843d3eab))
  (fp_line (start 3.973 1.983) (end -3.973 1.983) (layer "F.CrtYd") (width 0.0508) (tstamp 950686e5-4ffe-4baa-96f2-9c269d19f7b8))
  (fp_line (start -2.362 1.473) (end 2.387 1.473) (layer "F.Fab") (width 0.1524) (tstamp 7f7d7a7b-3643-4607-863e-d285f5ee9e5c))
  (fp_line (start -2.362 -1.473) (end 2.387 -1.473) (layer "F.Fab") (width 0.1524) (tstamp 9e8055d4-d1f1-49af-92bb-56539e84c3dc))
  (fp_poly (pts
      (xy 2.3622 1.5494)
      (xy 3.2121 1.5494)
      (xy 3.2121 -1.5507)
      (xy 2.3622 -1.5507)
    ) (layer "F.Fab") (width 0) (fill none) (tstamp 453307a6-f197-4add-a6e8-a351021e3e24))
  (fp_poly (pts
      (xy -3.2004 1.5494)
      (xy -2.3505 1.5494)
      (xy -2.3505 -1.5507)
      (xy -3.2004 -1.5507)
    ) (layer "F.Fab") (width 0) (fill none) (tstamp 973293ba-578a-4c49-bcee-1e3602bf6d44))
  (pad "1" smd rect (at -2.8 0) (size 1.8 3.2) (layers "F.Cu" "F.Paste" "F.Mask")
    (solder_mask_margin 0.1016) (tstamp ad05b08f-d714-4512-8169-35a754cff01a))
  (pad "2" smd rect (at 2.8 0) (size 1.8 3.2) (layers "F.Cu" "F.Paste" "F.Mask")
    (solder_mask_margin 0.1016) (tstamp 1515421b-e672-49fc-a253-6a29c0d4a90c))
)
