(footprint "SOD523" (version 20210824) (generator pcbnew) (layer "F.Cu")
  (tedit 0)
  (descr "<B>DIODE</B>")
  (fp_text reference "REF**" (at -0.635 -0.635) (layer "F.SilkS")
    (effects (font (size 1.1684 1.1684) (thickness 0.1016)) (justify left bottom))
    (tstamp 8e36debb-213a-4172-9c5e-6f2ad179f6f5)
  )
  (fp_text value ">VALUE" (at -0.635 1.905) (layer "F.Fab")
    (effects (font (size 1.1684 1.1684) (thickness 0.1016)) (justify left bottom))
    (tstamp c220ef43-bac4-4807-8ac9-1069acad0165)
  )
  (fp_line (start -0.59 -0.4) (end 0.59 -0.4) (layer "F.Fab") (width 0.1016) (tstamp 094659b0-a0f9-4650-814d-ed3c92e37d16))
  (fp_line (start 0.59 0.4) (end -0.59 0.4) (layer "F.Fab") (width 0.1016) (tstamp 7d580102-7bc9-4ea9-acf0-24049a8b2b75))
  (fp_line (start -0.59 0.4) (end -0.59 -0.4) (layer "F.Fab") (width 0.1016) (tstamp 8f216db3-e522-4dd7-a0c2-546d50f4a29e))
  (fp_line (start 0.59 -0.4) (end 0.59 0.4) (layer "F.Fab") (width 0.1016) (tstamp 98fecb34-4a4a-4cd2-badf-2f56cc6489f0))
  (fp_poly (pts
      (xy -0.75 0.17)
      (xy -0.54 0.17)
      (xy -0.54 -0.17)
      (xy -0.75 -0.17)
    ) (layer "F.Fab") (width 0) (fill none) (tstamp 2abe9a5a-7654-4c78-a6b9-51f1adc410c6))
  (fp_poly (pts
      (xy -0.59 0.4)
      (xy -0.3 0.4)
      (xy -0.3 -0.4)
      (xy -0.59 -0.4)
    ) (layer "F.Fab") (width 0) (fill none) (tstamp 614366f1-b18f-4f02-8966-e2525486fa51))
  (fp_poly (pts
      (xy 0.54 0.17)
      (xy 0.75 0.17)
      (xy 0.75 -0.17)
      (xy 0.54 -0.17)
    ) (layer "F.Fab") (width 0) (fill none) (tstamp a3ad21af-dc8d-46ab-965e-99908d98dce3))
  (pad "A" smd rect (at 0.7 0) (size 0.7 0.5) (layers "F.Cu" "F.Paste" "F.Mask")
    (solder_mask_margin 0.1016) (tstamp b9ad0442-6a29-4823-bc59-780f38eb945e))
  (pad "C" smd rect (at -0.6 0) (size 0.7 0.5) (layers "F.Cu" "F.Paste" "F.Mask")
    (solder_mask_margin 0.1016) (tstamp b203eab9-ba95-4be6-a0aa-a89f11886ea7))
)
