(footprint "XT30" (version 20210824) (generator pcbnew) (layer "F.Cu")
  (tedit 0)
  (fp_text reference "REF**" (at 0 0) (layer "F.SilkS")
    (effects (font (size 1.27 1.27) (thickness 0.15)))
    (tstamp d56e46a0-511c-45e6-b774-3a627afe1b64)
  )
  (fp_text value "" (at 0 0) (layer "F.SilkS")
    (effects (font (size 1.27 1.27) (thickness 0.15)))
    (tstamp 9b322188-62c6-4d2d-bc7f-14ea0132f22f)
  )
  (fp_line (start -2.794 -2.159) (end -2.159 -2.159) (layer "F.SilkS") (width 0.127) (tstamp 3fef3f80-557a-434d-b9de-063349a45116))
  (fp_line (start 4.572 -1.905) (end 5.334 -1.905) (layer "F.SilkS") (width 0.127) (tstamp 649d5b49-e5ac-435a-ace7-407bd57a484e))
  (fp_line (start 4.953 -2.286) (end 4.953 -1.524) (layer "F.SilkS") (width 0.127) (tstamp a1879e70-b62d-411e-8f98-44642f9c7aee))
  (fp_line (start -4.6 -1.4) (end -4.6 1.6) (layer "F.SilkS") (width 0.127) (tstamp a8d38888-bbe4-42cc-8417-7c6db5cb4955))
  (fp_line (start -3.6 2.6) (end -4.6 1.6) (layer "F.SilkS") (width 0.127) (tstamp aca1a90a-ee37-43e1-8a11-0b900d56a9cc))
  (fp_line (start 5.6 -2.6) (end 5.6 2.6) (layer "F.SilkS") (width 0.127) (tstamp b865eccb-68c8-480a-9e59-fa9ef73c2eba))
  (fp_line (start 5.6 2.6) (end -3.6 2.6) (layer "F.SilkS") (width 0.127) (tstamp bb9e3bfc-ef71-49b5-bbb3-ac59926915ef))
  (fp_line (start -3.4 -2.6) (end -4.6 -1.4) (layer "F.SilkS") (width 0.127) (tstamp d035e76f-1e01-4648-b709-022a7fbbb548))
  (fp_line (start -3.4 -2.6) (end 5.6 -2.6) (layer "F.SilkS") (width 0.127) (tstamp d973caee-e65b-4772-afbc-ca7ba6d38ec5))
  (pad "P$1" thru_hole rect (at -2 0) (size 3.216 3.216) (drill 2.2) (layers *.Cu *.Mask)
    (solder_mask_margin 0.1016) (tstamp 2679c0e4-a7a6-48ce-acfc-c18444b10861))
  (pad "P$2" thru_hole circle (at 3 0) (size 3.216 3.216) (drill 2.2) (layers *.Cu *.Mask)
    (solder_mask_margin 0.1016) (tstamp d0dddafa-6643-4773-9bf2-603f02cd9bc9))
)
