PCBNEW-LibModule-V1  2021-10-18 20:38:20
# encoding utf-8
Units mm
$INDEX
M207810345
$EndINDEX
$MODULE M207810345
Po 0 0 0 15 616dcd2c 00000000 ~~
Li M207810345
Cd M20-7810345-3
Kw Connector
Sc 0
At STD
AR 
Op 0 0 0
T0 0.000 -0 1.27 1.27 0 0.254 N V 21 N "J**"
T1 0.000 -0 1.27 1.27 0 0.254 N I 21 N "M207810345"
DS -3.81 -2.54 3.81 -2.54 0.2 24
DS 3.81 -2.54 3.81 2.54 0.2 24
DS 3.81 2.54 -3.81 2.54 0.2 24
DS -3.81 2.54 -3.81 -2.54 0.2 24
DS -4.81 -4.8 4.81 -4.8 0.1 24
DS 4.81 -4.8 4.81 4.8 0.1 24
DS 4.81 4.8 -4.81 4.8 0.1 24
DS -4.81 4.8 -4.81 -4.8 0.1 24
DS -3.81 -2.54 -3.81 2.54 0.1 21
DS 3.81 -2.54 3.81 2.54 0.1 21
$PAD
Po -2.540 2.91
Sh "1" R 1.020 1.780 0 0 0
At SMD N 00888000
Ne 0 ""
$EndPAD
$PAD
Po -2.540 -2.91
Sh "2" R 1.020 1.780 0 0 0
At SMD N 00888000
Ne 0 ""
$EndPAD
$PAD
Po 0.000 2.91
Sh "3" R 1.020 1.780 0 0 0
At SMD N 00888000
Ne 0 ""
$EndPAD
$PAD
Po 0.000 -2.91
Sh "4" R 1.020 1.780 0 0 0
At SMD N 00888000
Ne 0 ""
$EndPAD
$PAD
Po 2.540 2.91
Sh "5" R 1.020 1.780 0 0 0
At SMD N 00888000
Ne 0 ""
$EndPAD
$PAD
Po 2.540 -2.91
Sh "6" R 1.020 1.780 0 0 0
At SMD N 00888000
Ne 0 ""
$EndPAD
$PAD
Po -2.540 1.27
Sh "8" C 0.510 0.510 0 0 900
Dr 1.02 0 0
At STD N 00E0FFFF
Ne 0 ""
$EndPAD
$PAD
Po -2.540 -1.27
Sh "9" C 0.510 0.510 0 0 900
Dr 1.02 0 0
At STD N 00E0FFFF
Ne 0 ""
$EndPAD
$PAD
Po 0.000 1.27
Sh "10" C 0.510 0.510 0 0 900
Dr 1.02 0 0
At STD N 00E0FFFF
Ne 0 ""
$EndPAD
$PAD
Po 0.000 -1.27
Sh "11" C 0.510 0.510 0 0 900
Dr 1.02 0 0
At STD N 00E0FFFF
Ne 0 ""
$EndPAD
$PAD
Po 2.540 1.27
Sh "12" C 0.510 0.510 0 0 900
Dr 1.02 0 0
At STD N 00E0FFFF
Ne 0 ""
$EndPAD
$PAD
Po 2.540 -1.27
Sh "13" C 0.510 0.510 0 0 900
Dr 1.02 0 0
At STD N 00E0FFFF
Ne 0 ""
$EndPAD
$PAD
Po -1.270 -0
Sh "14" C 0.900 0.900 0 0 900
Dr 1.8 0 0
At STD N 00E0FFFF
Ne 0 ""
$EndPAD
$PAD
Po 1.270 -0
Sh "15" C 0.900 0.900 0 0 900
Dr 1.8 0 0
At STD N 00E0FFFF
Ne 0 ""
$EndPAD
$EndMODULE M207810345
$EndLIBRARY
