<?xml version="1.0" encoding="utf-8"?>
<!DOCTYPE eagle SYSTEM "eagle.dtd">
<eagle version="9.6.2">
<drawing>
<settings>
<setting alwaysvectorfont="no"/>
<setting verticaltext="up"/>
</settings>
<grid distance="0.1" unitdist="inch" unit="inch" style="lines" multiple="1" display="no" altdistance="0.01" altunitdist="inch" altunit="inch"/>
<layers>
<layer number="1" name="Top" color="4" fill="1" visible="yes" active="yes"/>
<layer number="2" name="Route2" color="16" fill="1" visible="no" active="yes"/>
<layer number="3" name="Route3" color="17" fill="1" visible="no" active="yes"/>
<layer number="4" name="Route4" color="18" fill="1" visible="no" active="yes"/>
<layer number="5" name="Route5" color="19" fill="1" visible="no" active="yes"/>
<layer number="6" name="Route6" color="25" fill="1" visible="no" active="yes"/>
<layer number="7" name="Route7" color="26" fill="1" visible="no" active="yes"/>
<layer number="8" name="Route8" color="27" fill="1" visible="no" active="yes"/>
<layer number="9" name="Route9" color="28" fill="1" visible="no" active="yes"/>
<layer number="10" name="Route10" color="29" fill="1" visible="no" active="yes"/>
<layer number="11" name="Route11" color="30" fill="1" visible="no" active="yes"/>
<layer number="12" name="Route12" color="20" fill="1" visible="no" active="yes"/>
<layer number="13" name="Route13" color="21" fill="1" visible="no" active="yes"/>
<layer number="14" name="Route14" color="22" fill="1" visible="no" active="yes"/>
<layer number="15" name="Route15" color="23" fill="1" visible="no" active="yes"/>
<layer number="16" name="Bottom" color="1" fill="1" visible="yes" active="yes"/>
<layer number="17" name="Pads" color="2" fill="1" visible="yes" active="yes"/>
<layer number="18" name="Vias" color="2" fill="1" visible="yes" active="yes"/>
<layer number="19" name="Unrouted" color="6" fill="1" visible="yes" active="yes"/>
<layer number="20" name="Dimension" color="24" fill="1" visible="yes" active="yes"/>
<layer number="21" name="tPlace" color="7" fill="1" visible="yes" active="yes"/>
<layer number="22" name="bPlace" color="7" fill="1" visible="yes" active="yes"/>
<layer number="23" name="tOrigins" color="15" fill="1" visible="yes" active="yes"/>
<layer number="24" name="bOrigins" color="15" fill="1" visible="yes" active="yes"/>
<layer number="25" name="tNames" color="7" fill="1" visible="yes" active="yes"/>
<layer number="26" name="bNames" color="7" fill="1" visible="yes" active="yes"/>
<layer number="27" name="tValues" color="7" fill="1" visible="yes" active="yes"/>
<layer number="28" name="bValues" color="7" fill="1" visible="yes" active="yes"/>
<layer number="29" name="tStop" color="7" fill="3" visible="no" active="yes"/>
<layer number="30" name="bStop" color="7" fill="6" visible="no" active="yes"/>
<layer number="31" name="tCream" color="7" fill="4" visible="no" active="yes"/>
<layer number="32" name="bCream" color="7" fill="5" visible="no" active="yes"/>
<layer number="33" name="tFinish" color="6" fill="3" visible="no" active="yes"/>
<layer number="34" name="bFinish" color="6" fill="6" visible="no" active="yes"/>
<layer number="35" name="tGlue" color="7" fill="4" visible="no" active="yes"/>
<layer number="36" name="bGlue" color="7" fill="5" visible="no" active="yes"/>
<layer number="37" name="tTest" color="7" fill="1" visible="no" active="yes"/>
<layer number="38" name="bTest" color="7" fill="1" visible="no" active="yes"/>
<layer number="39" name="tKeepout" color="4" fill="11" visible="yes" active="yes"/>
<layer number="40" name="bKeepout" color="1" fill="11" visible="yes" active="yes"/>
<layer number="41" name="tRestrict" color="4" fill="10" visible="yes" active="yes"/>
<layer number="42" name="bRestrict" color="1" fill="10" visible="yes" active="yes"/>
<layer number="43" name="vRestrict" color="2" fill="10" visible="yes" active="yes"/>
<layer number="44" name="Drills" color="7" fill="1" visible="no" active="yes"/>
<layer number="45" name="Holes" color="7" fill="1" visible="no" active="yes"/>
<layer number="46" name="Milling" color="3" fill="1" visible="no" active="yes"/>
<layer number="47" name="Measures" color="7" fill="1" visible="no" active="yes"/>
<layer number="48" name="Document" color="7" fill="1" visible="yes" active="yes"/>
<layer number="49" name="Reference" color="7" fill="1" visible="yes" active="yes"/>
<layer number="51" name="tDocu" color="7" fill="1" visible="yes" active="yes"/>
<layer number="52" name="bDocu" color="7" fill="1" visible="yes" active="yes"/>
<layer number="88" name="SimResults" color="9" fill="1" visible="yes" active="yes"/>
<layer number="89" name="SimProbes" color="9" fill="1" visible="yes" active="yes"/>
<layer number="90" name="Modules" color="5" fill="1" visible="yes" active="yes"/>
<layer number="91" name="Nets" color="2" fill="1" visible="yes" active="yes"/>
<layer number="92" name="Busses" color="1" fill="1" visible="yes" active="yes"/>
<layer number="93" name="Pins" color="2" fill="1" visible="no" active="yes"/>
<layer number="94" name="Symbols" color="4" fill="1" visible="yes" active="yes"/>
<layer number="95" name="Names" color="7" fill="1" visible="yes" active="yes"/>
<layer number="96" name="Values" color="7" fill="1" visible="yes" active="yes"/>
<layer number="97" name="Info" color="7" fill="1" visible="yes" active="yes"/>
<layer number="98" name="Guide" color="6" fill="1" visible="yes" active="yes"/>
<layer number="99" name="SpiceOrder" color="5" fill="1" visible="yes" active="yes"/>
</layers>
<library>
<packages>
<package name="DPACK" urn="urn:adsk.eagle:footprint:16277/1">
<description>&lt;b&gt;DPAK&lt;/b&gt;&lt;p&gt;
(Motorola)</description>
<wire x1="3.2766" y1="3.8354" x2="3.277" y2="-2.159" width="0.2032" layer="21"/>
<wire x1="3.277" y1="-2.159" x2="-3.277" y2="-2.159" width="0.2032" layer="21"/>
<wire x1="-3.277" y1="-2.159" x2="-3.2766" y2="3.8354" width="0.2032" layer="21"/>
<wire x1="-3.277" y1="3.835" x2="3.2774" y2="3.8346" width="0.2032" layer="51"/>
<wire x1="-2.5654" y1="3.937" x2="-2.5654" y2="4.6482" width="0.2032" layer="51"/>
<wire x1="-2.5654" y1="4.6482" x2="-2.1082" y2="5.1054" width="0.2032" layer="51"/>
<wire x1="-2.1082" y1="5.1054" x2="2.1082" y2="5.1054" width="0.2032" layer="51"/>
<wire x1="2.1082" y1="5.1054" x2="2.5654" y2="4.6482" width="0.2032" layer="51"/>
<wire x1="2.5654" y1="4.6482" x2="2.5654" y2="3.937" width="0.2032" layer="51"/>
<wire x1="2.5654" y1="3.937" x2="-2.5654" y2="3.937" width="0.2032" layer="51"/>
<smd name="2" x="0" y="2.5" dx="5.4" dy="6.2" layer="1"/>
<smd name="1" x="-2.28" y="-4.8" dx="1" dy="1.6" layer="1"/>
<smd name="3" x="2.28" y="-4.8" dx="1" dy="1.6" layer="1"/>
<text x="-3.81" y="-2.54" size="1.27" layer="25" rot="R90">&gt;NAME</text>
<text x="5.08" y="-2.54" size="1.27" layer="27" rot="R90">&gt;VALUE</text>
<rectangle x1="-2.7178" y1="-5.1562" x2="-1.8542" y2="-2.2606" layer="51"/>
<rectangle x1="1.8542" y1="-5.1562" x2="2.7178" y2="-2.2606" layer="51"/>
<rectangle x1="-0.4318" y1="-3.0226" x2="0.4318" y2="-2.2606" layer="21"/>
<polygon width="0.1998" layer="51">
<vertex x="-2.5654" y="3.937"/>
<vertex x="-2.5654" y="4.6482"/>
<vertex x="-2.1082" y="5.1054"/>
<vertex x="2.1082" y="5.1054"/>
<vertex x="2.5654" y="4.6482"/>
<vertex x="2.5654" y="3.937"/>
</polygon>
</package>
<package name="SOD123FL" urn="urn:adsk.eagle:footprint:42266/1">
<description>SOD-123FL CASE 498-01 ISSUE A&lt;br&gt;</description>
<wire x1="-1.35" y1="0.8" x2="1.35" y2="0.8" width="0.2032" layer="51"/>
<wire x1="1.35" y1="0.8" x2="1.35" y2="-0.8" width="0.2032" layer="51"/>
<wire x1="1.35" y1="-0.8" x2="-1.35" y2="-0.8" width="0.2032" layer="51"/>
<wire x1="-1.35" y1="-0.8" x2="-1.35" y2="0.8" width="0.2032" layer="51"/>
<wire x1="-0.85" y1="0.8" x2="0.85" y2="0.8" width="0.2032" layer="21"/>
<wire x1="0.85" y1="-0.8" x2="-0.85" y2="-0.8" width="0.2032" layer="21"/>
<smd name="A" x="1.625" y="0" dx="0.91" dy="1.22" layer="1"/>
<smd name="C" x="-1.625" y="0" dx="0.91" dy="1.22" layer="1" rot="R180"/>
<text x="-2" y="1" size="1.27" layer="25">&gt;NAME</text>
<text x="-2" y="-2.5" size="1.27" layer="27">&gt;VALUE</text>
<rectangle x1="-1.8" y1="-0.55" x2="-1.425" y2="0.55" layer="51"/>
<rectangle x1="1.425" y1="-0.55" x2="1.8" y2="0.55" layer="51" rot="R180"/>
<rectangle x1="-0.95" y1="-0.775" x2="-0.65" y2="0.8" layer="21"/>
</package>
<package name="SOD123FL-BACKUP">
<description>SOD-123FL CASE 498-01 ISSUE A&lt;br&gt;</description>
<wire x1="-1.35" y1="0.8" x2="1.35" y2="0.8" width="0.2032" layer="51"/>
<wire x1="1.35" y1="0.8" x2="1.35" y2="-0.8" width="0.2032" layer="51"/>
<wire x1="1.35" y1="-0.8" x2="-1.35" y2="-0.8" width="0.2032" layer="51"/>
<wire x1="-1.35" y1="-0.8" x2="-1.35" y2="0.8" width="0.2032" layer="51"/>
<wire x1="-0.85" y1="0.8" x2="0.85" y2="0.8" width="0.2032" layer="21"/>
<wire x1="0.85" y1="-0.8" x2="-0.85" y2="-0.8" width="0.2032" layer="21"/>
<smd name="A" x="1.625" y="0" dx="0.91" dy="1.22" layer="1"/>
<smd name="C" x="-1.625" y="0" dx="0.91" dy="1.22" layer="1" rot="R180"/>
<text x="-2" y="1" size="1.27" layer="25">&gt;NAME</text>
<text x="-2" y="-2.5" size="1.27" layer="27">&gt;VALUE</text>
<rectangle x1="-1.8" y1="-0.55" x2="-1.425" y2="0.55" layer="51"/>
<rectangle x1="1.425" y1="-0.55" x2="1.8" y2="0.55" layer="51" rot="R180"/>
<rectangle x1="-0.95" y1="-0.775" x2="-0.65" y2="0.8" layer="21"/>
</package>
<package name="SODFL4116X98N" urn="urn:adsk.eagle:footprint:27545244/1">
<description>SODFL, 4.10 mm span, 2.70 X 1.65 X 0.98 mm body
&lt;p&gt;SODFL package with 4.10 mm span with body size 2.70 X 1.65 X 0.98 mm&lt;/p&gt;</description>
<wire x1="1.45" y1="0.9" x2="-2.6286" y2="0.9" width="0.12" layer="21"/>
<wire x1="-2.6286" y1="0.9" x2="-2.6286" y2="-0.9" width="0.12" layer="21"/>
<wire x1="-2.6286" y1="-0.9" x2="1.45" y2="-0.9" width="0.12" layer="21"/>
<wire x1="1.45" y1="-0.9" x2="-1.45" y2="-0.9" width="0.12" layer="51"/>
<wire x1="-1.45" y1="-0.9" x2="-1.45" y2="0.9" width="0.12" layer="51"/>
<wire x1="-1.45" y1="0.9" x2="1.45" y2="0.9" width="0.12" layer="51"/>
<wire x1="1.45" y1="0.9" x2="1.45" y2="-0.9" width="0.12" layer="51"/>
<smd name="1" x="-1.7297" y="0" dx="1.1697" dy="1.1153" layer="1"/>
<smd name="2" x="1.7297" y="0" dx="1.1697" dy="1.1153" layer="1"/>
<text x="0" y="1.535" size="1.27" layer="25" align="bottom-center">&gt;NAME</text>
<text x="0" y="-1.535" size="1.27" layer="27" align="top-center">&gt;VALUE</text>
</package>
<package name="DIODE_SOD123" urn="urn:adsk.eagle:footprint:15662191/2">
<description>&lt;b&gt;Diode&lt;/b&gt;</description>
<wire x1="-0.873" y1="0.8" x2="0.873" y2="0.8" width="0.2032" layer="21"/>
<wire x1="0.873" y1="0.8" x2="0.873" y2="-0.8" width="0.2032" layer="51"/>
<wire x1="0.873" y1="-0.8" x2="-0.873" y2="-0.8" width="0.2032" layer="21"/>
<wire x1="-0.873" y1="-0.8" x2="-0.873" y2="0.8" width="0.2032" layer="51"/>
<wire x1="-0.3" y1="0" x2="0.3" y2="0.4" width="0.2032" layer="21"/>
<wire x1="0.3" y1="0.4" x2="0.3" y2="-0.4" width="0.2032" layer="21"/>
<wire x1="0.3" y1="-0.4" x2="-0.3" y2="0" width="0.2032" layer="21"/>
<rectangle x1="-1.723" y1="-0.45" x2="-0.973" y2="0.4" layer="51"/>
<rectangle x1="0.973" y1="-0.45" x2="1.723" y2="0.4" layer="51"/>
<rectangle x1="-0.5" y1="-0.5" x2="-0.3" y2="0.5" layer="21"/>
<smd name="A" x="1.805" y="0" dx="1.4" dy="1.4" layer="1"/>
<smd name="C" x="-1.805" y="0" dx="1.4" dy="1.4" layer="1"/>
<text x="-2.54" y="1.016" size="1.016" layer="25" ratio="18">&gt;NAME</text>
<text x="-2.54" y="-1.905" size="0.8128" layer="27" ratio="10">&gt;VALUE</text>
</package>
<package name="PMX42_DPAK" urn="urn:adsk.eagle:footprint:15662178/2">
<description>&lt;b&gt;SMD D-PAK&lt;/b&gt;</description>
<wire x1="3.3" y1="-3" x2="3.3" y2="3.2" width="0.2032" layer="21"/>
<wire x1="-3.3" y1="3.2" x2="-3.3" y2="-3" width="0.2032" layer="21"/>
<wire x1="3.3" y1="3.2" x2="-3.3" y2="3.2" width="0.2032" layer="51"/>
<wire x1="3.3" y1="-3" x2="-3.3" y2="-3" width="0.2032" layer="21"/>
<rectangle x1="-2.6416" y1="-5.7404" x2="-1.8796" y2="-3.0734" layer="51"/>
<rectangle x1="1.8288" y1="-5.7404" x2="2.5908" y2="-3.0734" layer="51"/>
<rectangle x1="-0.381" y1="-3.8354" x2="0.381" y2="-3.0734" layer="51"/>
<smd name="1" x="-2.2606" y="-4.9276" dx="1.6002" dy="2.9972" layer="1"/>
<smd name="3" x="2.2098" y="-4.9276" dx="1.6002" dy="2.9972" layer="1"/>
<smd name="4" x="0" y="1.8528" dx="5.4516" dy="7" layer="1" thermals="no"/>
<text x="3.175" y="3.81" size="1.016" layer="25" ratio="18">&gt;NAME</text>
<text x="-2.54" y="-1.27" size="0.8128" layer="27" ratio="10">&gt;VALUE</text>
<text x="-2.413" y="-2.5273" size="0.6096" layer="51">1</text>
<text x="-0.2032" y="-2.5273" size="0.6096" layer="51">2</text>
<text x="1.9812" y="-2.5273" size="0.6096" layer="51">3</text>
<text x="-0.3302" y="1.8415" size="0.6096" layer="51">4</text>
</package>
</packages>
<packages3d>
<package3d name="SODFL4116X98N" urn="urn:adsk.eagle:package:27545199/1" type="model">
<description>SODFL, 4.10 mm span, 2.70 X 1.65 X 0.98 mm body
&lt;p&gt;SODFL package with 4.10 mm span with body size 2.70 X 1.65 X 0.98 mm&lt;/p&gt;</description>
<packageinstances>
<packageinstance name="SODFL4116X98N"/>
</packageinstances>
</package3d>
<package3d name="DIODE_SOD123" urn="urn:adsk.eagle:package:15662249/3" type="model">
<description>&lt;b&gt;Diode&lt;/b&gt;</description>
<packageinstances>
<packageinstance name="DIODE_SOD123"/>
</packageinstances>
</package3d>
<package3d name="SOD123FL" urn="urn:adsk.eagle:package:42478/1" type="box">
<description>SOD-123FL CASE 498-01 ISSUE A</description>
<packageinstances>
<packageinstance name="SOD123FL"/>
</packageinstances>
</package3d>
<package3d name="PMX42_DPAK" urn="urn:adsk.eagle:package:15662262/3" type="model">
<description>&lt;b&gt;SMD D-PAK&lt;/b&gt;</description>
<packageinstances>
<packageinstance name="PMX42_DPAK"/>
</packageinstances>
</package3d>
</packages3d>
<symbols>
<symbol name="DIODE2A">
<wire x1="-1.016" y1="1.27" x2="1.016" y2="2.54" width="0.254" layer="94"/>
<wire x1="1.016" y1="2.54" x2="-1.016" y2="3.81" width="0.254" layer="94"/>
<wire x1="1.016" y1="3.81" x2="1.016" y2="2.54" width="0.254" layer="94"/>
<wire x1="-1.016" y1="3.81" x2="-1.016" y2="1.27" width="0.254" layer="94"/>
<wire x1="1.016" y1="2.54" x2="1.016" y2="1.27" width="0.254" layer="94"/>
<wire x1="-1.016" y1="-3.81" x2="1.016" y2="-2.54" width="0.254" layer="94"/>
<wire x1="1.016" y1="-2.54" x2="-1.016" y2="-1.27" width="0.254" layer="94"/>
<wire x1="1.016" y1="-1.27" x2="1.016" y2="-2.54" width="0.254" layer="94"/>
<wire x1="-1.016" y1="-1.27" x2="-1.016" y2="-3.81" width="0.254" layer="94"/>
<wire x1="1.016" y1="-2.54" x2="1.016" y2="-3.81" width="0.254" layer="94"/>
<wire x1="2.54" y1="2.54" x2="2.54" y2="-2.54" width="0.1524" layer="94"/>
<wire x1="-1.11125" y1="2.54" x2="-2.54" y2="2.54" width="0.1524" layer="94"/>
<wire x1="2.54" y1="2.54" x2="1.11125" y2="2.54" width="0.1524" layer="94"/>
<wire x1="2.54" y1="-2.54" x2="1.11125" y2="-2.54" width="0.1524" layer="94"/>
<wire x1="-1.11125" y1="-2.54" x2="-2.54" y2="-2.54" width="0.1524" layer="94"/>
<circle x="2.54" y="0" radius="0.3592" width="0" layer="94"/>
<text x="-1.524" y="4.191" size="1.778" layer="95">&gt;NAME</text>
<text x="-1.524" y="-5.715" size="1.778" layer="96">&gt;VALUE</text>
<pin name="A1" x="-2.54" y="2.54" visible="off" length="point" direction="pas" swaplevel="1"/>
<pin name="C" x="5.08" y="0" visible="off" length="short" direction="pas" rot="R180"/>
<pin name="A2" x="-2.54" y="-2.54" visible="off" length="point" direction="pas" swaplevel="1"/>
<wire x1="1.016" y1="3.81" x2="1.524" y2="3.81" width="0.254" layer="94"/>
<wire x1="1.016" y1="1.27" x2="0.508" y2="1.27" width="0.254" layer="94"/>
<wire x1="1.016" y1="-1.27" x2="1.524" y2="-1.27" width="0.254" layer="94"/>
<wire x1="1.016" y1="-3.81" x2="0.508" y2="-3.81" width="0.254" layer="94"/>
</symbol>
<symbol name="SCHOTTKY">
<wire x1="-1.27" y1="-1.27" x2="1.27" y2="0" width="0.254" layer="94"/>
<wire x1="1.27" y1="0" x2="-1.27" y2="1.27" width="0.254" layer="94"/>
<wire x1="1.905" y1="1.27" x2="1.27" y2="1.27" width="0.254" layer="94"/>
<wire x1="1.27" y1="1.27" x2="1.27" y2="0" width="0.254" layer="94"/>
<wire x1="-1.27" y1="1.27" x2="-1.27" y2="0" width="0.254" layer="94"/>
<wire x1="-1.27" y1="0" x2="-1.27" y2="-1.27" width="0.254" layer="94"/>
<wire x1="1.27" y1="0" x2="1.27" y2="-1.27" width="0.254" layer="94"/>
<wire x1="1.905" y1="1.27" x2="1.905" y2="1.016" width="0.254" layer="94"/>
<wire x1="1.27" y1="-1.27" x2="0.635" y2="-1.27" width="0.254" layer="94"/>
<wire x1="0.635" y1="-1.016" x2="0.635" y2="-1.27" width="0.254" layer="94"/>
<wire x1="-1.27" y1="0" x2="-2.54" y2="0" width="0.254" layer="94"/>
<wire x1="1.27" y1="0" x2="2.54" y2="0" width="0.254" layer="94"/>
<text x="-2.286" y="1.905" size="1.778" layer="95">&gt;NAME</text>
<text x="-2.286" y="-3.429" size="1.778" layer="96">&gt;VALUE</text>
<pin name="A" x="-2.54" y="0" visible="off" length="point" direction="pas"/>
<pin name="C" x="2.54" y="0" visible="off" length="point" direction="pas" rot="R180"/>
</symbol>
</symbols>
<devicesets>
<deviceset name="MBRD20">
<gates>
<gate name="G$1" symbol="DIODE2A" x="0" y="0"/>
</gates>
<devices>
<device name="" package="PMX42_DPAK">
<connects>
<connect gate="G$1" pin="A1" pad="1"/>
<connect gate="G$1" pin="A2" pad="3"/>
<connect gate="G$1" pin="C" pad="4"/>
</connects>
<package3dinstances>
<package3dinstance package3d_urn="urn:adsk.eagle:package:15662262/3"/>
</package3dinstances>
<technologies>
<technology name=""/>
</technologies>
</device>
</devices>
</deviceset>
<deviceset name="MBR1H100SFT3G">
<gates>
<gate name="G$1" symbol="SCHOTTKY" x="0" y="0"/>
</gates>
<devices>
<device name="" package="DIODE_SOD123">
<connects>
<connect gate="G$1" pin="A" pad="A"/>
<connect gate="G$1" pin="C" pad="C"/>
</connects>
<package3dinstances>
<package3dinstance package3d_urn="urn:adsk.eagle:package:15662249/3"/>
</package3dinstances>
<technologies>
<technology name=""/>
</technologies>
</device>
</devices>
</deviceset>
</devicesets>
</library>
</drawing>
<compatibility>
<note version="8.3" severity="warning">
Since Version 8.3, EAGLE supports URNs for individual library
assets (packages, symbols, and devices). The URNs of those assets
will not be understood (or retained) with this version.
</note>
<note version="8.3" severity="warning">
Since Version 8.3, EAGLE supports the association of 3D packages
with devices in libraries, schematics, and board files. Those 3D
packages will not be understood (or retained) with this version.
</note>
</compatibility>
</eagle>
