<?xml version="1.0" encoding="utf-8"?>
<!DOCTYPE eagle SYSTEM "eagle.dtd">
<eagle version="9.6.2">
<drawing>
<settings>
<setting alwaysvectorfont="no"/>
<setting keepoldvectorfont="yes"/>
<setting verticaltext="up"/>
</settings>
<grid distance="0.1" unitdist="mm" unit="mm" style="lines" multiple="1" display="yes" altdistance="0.025" altunitdist="mm" altunit="mm"/>
<layers>
<layer number="1" name="Top" color="4" fill="1" visible="yes" active="yes"/>
<layer number="2" name="Route2" color="1" fill="3" visible="no" active="no"/>
<layer number="3" name="Route3" color="4" fill="3" visible="no" active="no"/>
<layer number="4" name="Route4" color="1" fill="4" visible="no" active="no"/>
<layer number="5" name="Route5" color="4" fill="4" visible="no" active="no"/>
<layer number="6" name="Route6" color="1" fill="8" visible="no" active="no"/>
<layer number="7" name="Route7" color="4" fill="8" visible="no" active="no"/>
<layer number="8" name="Route8" color="1" fill="2" visible="no" active="no"/>
<layer number="9" name="Route9" color="4" fill="2" visible="no" active="no"/>
<layer number="10" name="Route10" color="1" fill="7" visible="no" active="no"/>
<layer number="11" name="Route11" color="4" fill="7" visible="no" active="no"/>
<layer number="12" name="Route12" color="1" fill="5" visible="no" active="no"/>
<layer number="13" name="Route13" color="4" fill="5" visible="no" active="no"/>
<layer number="14" name="Route14" color="1" fill="6" visible="no" active="no"/>
<layer number="15" name="Route15" color="4" fill="6" visible="no" active="no"/>
<layer number="16" name="Bottom" color="1" fill="1" visible="yes" active="yes"/>
<layer number="17" name="Pads" color="2" fill="1" visible="yes" active="yes"/>
<layer number="18" name="Vias" color="2" fill="1" visible="yes" active="yes"/>
<layer number="19" name="Unrouted" color="6" fill="1" visible="yes" active="yes"/>
<layer number="20" name="Dimension" color="15" fill="1" visible="yes" active="yes"/>
<layer number="21" name="tPlace" color="7" fill="1" visible="yes" active="yes"/>
<layer number="22" name="bPlace" color="7" fill="1" visible="no" active="yes"/>
<layer number="23" name="tOrigins" color="15" fill="1" visible="yes" active="yes"/>
<layer number="24" name="bOrigins" color="15" fill="1" visible="yes" active="yes"/>
<layer number="25" name="tNames" color="7" fill="1" visible="yes" active="yes"/>
<layer number="26" name="bNames" color="7" fill="1" visible="yes" active="yes"/>
<layer number="27" name="tValues" color="7" fill="1" visible="yes" active="yes"/>
<layer number="28" name="bValues" color="7" fill="1" visible="yes" active="yes"/>
<layer number="29" name="tStop" color="7" fill="3" visible="yes" active="yes"/>
<layer number="30" name="bStop" color="7" fill="6" visible="no" active="yes"/>
<layer number="31" name="tCream" color="7" fill="4" visible="no" active="yes"/>
<layer number="32" name="bCream" color="7" fill="5" visible="no" active="yes"/>
<layer number="33" name="tFinish" color="6" fill="3" visible="no" active="yes"/>
<layer number="34" name="bFinish" color="6" fill="6" visible="no" active="yes"/>
<layer number="35" name="tGlue" color="7" fill="4" visible="no" active="yes"/>
<layer number="36" name="bGlue" color="7" fill="5" visible="no" active="yes"/>
<layer number="37" name="tTest" color="7" fill="1" visible="no" active="yes"/>
<layer number="38" name="bTest" color="7" fill="1" visible="no" active="yes"/>
<layer number="39" name="tKeepout" color="4" fill="11" visible="yes" active="yes"/>
<layer number="40" name="bKeepout" color="1" fill="11" visible="yes" active="yes"/>
<layer number="41" name="tRestrict" color="4" fill="10" visible="yes" active="yes"/>
<layer number="42" name="bRestrict" color="1" fill="10" visible="yes" active="yes"/>
<layer number="43" name="vRestrict" color="2" fill="10" visible="yes" active="yes"/>
<layer number="44" name="Drills" color="7" fill="1" visible="no" active="yes"/>
<layer number="45" name="Holes" color="7" fill="1" visible="no" active="yes"/>
<layer number="46" name="Milling" color="3" fill="1" visible="no" active="yes"/>
<layer number="47" name="Measures" color="7" fill="1" visible="no" active="yes"/>
<layer number="48" name="Document" color="7" fill="1" visible="no" active="yes"/>
<layer number="49" name="Reference" color="7" fill="1" visible="no" active="yes"/>
<layer number="51" name="tDocu" color="7" fill="1" visible="no" active="yes"/>
<layer number="52" name="bDocu" color="7" fill="1" visible="no" active="yes"/>
<layer number="90" name="Modules" color="5" fill="1" visible="yes" active="yes"/>
<layer number="91" name="Nets" color="2" fill="1" visible="yes" active="yes"/>
<layer number="92" name="Busses" color="1" fill="1" visible="yes" active="yes"/>
<layer number="93" name="Pins" color="2" fill="1" visible="yes" active="yes"/>
<layer number="94" name="Symbols" color="4" fill="1" visible="yes" active="yes"/>
<layer number="95" name="Names" color="7" fill="1" visible="yes" active="yes"/>
<layer number="96" name="Values" color="7" fill="1" visible="yes" active="yes"/>
<layer number="97" name="Info" color="7" fill="1" visible="yes" active="yes"/>
<layer number="98" name="Guide" color="6" fill="1" visible="yes" active="yes"/>
</layers>
<library>
<packages>
<package name="QFP80P900X900X160-32N">
<wire x1="-3.5" y1="3.5" x2="-3.5" y2="-3.5" width="0.1524" layer="51"/>
<wire x1="-3.5" y1="-3.5" x2="3.5" y2="-3.5" width="0.1524" layer="51"/>
<wire x1="3.5" y1="-3.5" x2="3.5" y2="3.5" width="0.1524" layer="51"/>
<wire x1="3.5" y1="3.5" x2="-3.5" y2="3.5" width="0.1524" layer="51"/>
<wire x1="-3.65" y1="3.4" x2="-3.65" y2="3.65" width="0.1524" layer="21"/>
<wire x1="-3.65" y1="3.65" x2="-3.4" y2="3.65" width="0.1524" layer="21"/>
<wire x1="3.4" y1="3.65" x2="3.65" y2="3.65" width="0.1524" layer="21"/>
<wire x1="3.65" y1="3.65" x2="3.65" y2="3.4" width="0.1524" layer="21"/>
<wire x1="3.65" y1="-3.4" x2="3.65" y2="-3.65" width="0.1524" layer="21"/>
<wire x1="3.65" y1="-3.65" x2="3.4" y2="-3.65" width="0.1524" layer="21"/>
<wire x1="-3.4" y1="-3.65" x2="-3.65" y2="-3.65" width="0.1524" layer="21"/>
<wire x1="-3.65" y1="-3.65" x2="-3.65" y2="-3.4" width="0.1524" layer="21"/>
<wire x1="-5.21" y1="5.21" x2="-5.21" y2="-5.21" width="0.05" layer="39"/>
<wire x1="-5.21" y1="-5.21" x2="5.21" y2="-5.21" width="0.05" layer="39"/>
<wire x1="5.21" y1="-5.21" x2="5.21" y2="5.21" width="0.05" layer="39"/>
<wire x1="5.21" y1="5.21" x2="-5.21" y2="5.21" width="0.05" layer="39"/>
<text x="-5.2" y="5.3" size="1.778" layer="25">&gt;NAME</text>
<text x="-5.2" y="-5.3" size="1.778" layer="27" align="top-left">&gt;VALUE</text>
<circle x="-5.7" y="2.8" radius="0.1" width="0.2" layer="21"/>
<circle x="-5.7" y="2.8" radius="0.1" width="0.2" layer="51"/>
<smd name="1" x="-4.18" y="2.8" dx="1.56" dy="0.55" layer="1" roundness="25"/>
<smd name="2" x="-4.18" y="2" dx="1.56" dy="0.55" layer="1" roundness="25"/>
<smd name="3" x="-4.18" y="1.2" dx="1.56" dy="0.55" layer="1" roundness="25"/>
<smd name="4" x="-4.18" y="0.4" dx="1.56" dy="0.55" layer="1" roundness="25"/>
<smd name="5" x="-4.18" y="-0.4" dx="1.56" dy="0.55" layer="1" roundness="25"/>
<smd name="6" x="-4.18" y="-1.2" dx="1.56" dy="0.55" layer="1" roundness="25"/>
<smd name="7" x="-4.18" y="-2" dx="1.56" dy="0.55" layer="1" roundness="25"/>
<smd name="8" x="-4.18" y="-2.8" dx="1.56" dy="0.55" layer="1" roundness="25"/>
<smd name="9" x="-2.8" y="-4.18" dx="1.56" dy="0.55" layer="1" roundness="25" rot="R90"/>
<smd name="10" x="-2" y="-4.18" dx="1.56" dy="0.55" layer="1" roundness="25" rot="R90"/>
<smd name="11" x="-1.2" y="-4.18" dx="1.56" dy="0.55" layer="1" roundness="25" rot="R90"/>
<smd name="12" x="-0.4" y="-4.18" dx="1.56" dy="0.55" layer="1" roundness="25" rot="R90"/>
<smd name="13" x="0.4" y="-4.18" dx="1.56" dy="0.55" layer="1" roundness="25" rot="R90"/>
<smd name="14" x="1.2" y="-4.18" dx="1.56" dy="0.55" layer="1" roundness="25" rot="R90"/>
<smd name="15" x="2" y="-4.18" dx="1.56" dy="0.55" layer="1" roundness="25" rot="R90"/>
<smd name="16" x="2.8" y="-4.18" dx="1.56" dy="0.55" layer="1" roundness="25" rot="R90"/>
<smd name="17" x="4.18" y="-2.8" dx="1.56" dy="0.55" layer="1" roundness="25" rot="R180"/>
<smd name="18" x="4.18" y="-2" dx="1.56" dy="0.55" layer="1" roundness="25" rot="R180"/>
<smd name="19" x="4.18" y="-1.2" dx="1.56" dy="0.55" layer="1" roundness="25" rot="R180"/>
<smd name="20" x="4.18" y="-0.4" dx="1.56" dy="0.55" layer="1" roundness="25" rot="R180"/>
<smd name="21" x="4.18" y="0.4" dx="1.56" dy="0.55" layer="1" roundness="25" rot="R180"/>
<smd name="22" x="4.18" y="1.2" dx="1.56" dy="0.55" layer="1" roundness="25" rot="R180"/>
<smd name="23" x="4.18" y="2" dx="1.56" dy="0.55" layer="1" roundness="25" rot="R180"/>
<smd name="24" x="4.18" y="2.8" dx="1.56" dy="0.55" layer="1" roundness="25" rot="R180"/>
<smd name="25" x="2.8" y="4.18" dx="1.56" dy="0.55" layer="1" roundness="25" rot="R270"/>
<smd name="26" x="2" y="4.18" dx="1.56" dy="0.55" layer="1" roundness="25" rot="R270"/>
<smd name="27" x="1.2" y="4.18" dx="1.56" dy="0.55" layer="1" roundness="25" rot="R270"/>
<smd name="28" x="0.4" y="4.18" dx="1.56" dy="0.55" layer="1" roundness="25" rot="R270"/>
<smd name="29" x="-0.4" y="4.18" dx="1.56" dy="0.55" layer="1" roundness="25" rot="R270"/>
<smd name="30" x="-1.2" y="4.18" dx="1.56" dy="0.55" layer="1" roundness="25" rot="R270"/>
<smd name="31" x="-2" y="4.18" dx="1.56" dy="0.55" layer="1" roundness="25" rot="R270"/>
<smd name="32" x="-2.8" y="4.18" dx="1.56" dy="0.55" layer="1" roundness="25" rot="R270"/>
</package>
<package name="LQFP48-7X7" urn="urn:adsk.eagle:footprint:26794/1" locally_modified="yes">
<description>&lt;b&gt;48-pin low profile quad flat package (7 x 7)&lt;/b&gt;&lt;p&gt;
Source: &lt;a href="http://www.st.com/stonline/products/literature/ds/14771/stm8s105c4.pdf"&gt; Data sheet &lt;/a&gt;</description>
<wire x1="-3.4" y1="3.1" x2="-3.1" y2="3.4" width="0.2032" layer="21"/>
<wire x1="-3.1" y1="3.4" x2="3.1" y2="3.4" width="0.2032" layer="51"/>
<wire x1="3.1" y1="3.4" x2="3.4" y2="3.1" width="0.2032" layer="21"/>
<wire x1="3.4" y1="3.1" x2="3.4" y2="-3.1" width="0.2032" layer="51"/>
<wire x1="3.4" y1="-3.1" x2="3.1" y2="-3.4" width="0.2032" layer="21"/>
<wire x1="3.1" y1="-3.4" x2="-3.1" y2="-3.4" width="0.2032" layer="51"/>
<wire x1="-3.1" y1="-3.4" x2="-3.4" y2="-3.1" width="0.2032" layer="21"/>
<wire x1="-3.4" y1="-3.1" x2="-3.4" y2="3.1" width="0.2032" layer="51"/>
<circle x="-2.5" y="2.5" radius="0.5" width="0" layer="21"/>
<smd name="1" x="-4.15" y="2.75" dx="1.4" dy="0.3" layer="1" stop="no" cream="no"/>
<smd name="2" x="-4.15" y="2.25" dx="1.4" dy="0.3" layer="1" stop="no" cream="no"/>
<smd name="3" x="-4.15" y="1.75" dx="1.4" dy="0.3" layer="1" stop="no" cream="no"/>
<smd name="4" x="-4.15" y="1.25" dx="1.4" dy="0.3" layer="1" stop="no" cream="no"/>
<smd name="5" x="-4.15" y="0.75" dx="1.4" dy="0.3" layer="1" stop="no" cream="no"/>
<smd name="6" x="-4.15" y="0.25" dx="1.4" dy="0.3" layer="1" stop="no" cream="no"/>
<smd name="7" x="-4.15" y="-0.25" dx="1.4" dy="0.3" layer="1" stop="no" cream="no"/>
<smd name="8" x="-4.15" y="-0.75" dx="1.4" dy="0.3" layer="1" stop="no" cream="no"/>
<smd name="9" x="-4.15" y="-1.25" dx="1.4" dy="0.3" layer="1" stop="no" cream="no"/>
<smd name="10" x="-4.15" y="-1.75" dx="1.4" dy="0.3" layer="1" stop="no" cream="no"/>
<smd name="11" x="-4.15" y="-2.25" dx="1.4" dy="0.3" layer="1" stop="no" cream="no"/>
<smd name="12" x="-4.15" y="-2.75" dx="1.4" dy="0.3" layer="1" stop="no" cream="no"/>
<smd name="13" x="-2.75" y="-4.15" dx="1.4" dy="0.3" layer="1" rot="R90" stop="no" cream="no"/>
<smd name="14" x="-2.25" y="-4.15" dx="1.4" dy="0.3" layer="1" rot="R90" stop="no" cream="no"/>
<smd name="15" x="-1.75" y="-4.15" dx="1.4" dy="0.3" layer="1" rot="R90" stop="no" cream="no"/>
<smd name="16" x="-1.25" y="-4.15" dx="1.4" dy="0.3" layer="1" rot="R90" stop="no" cream="no"/>
<smd name="17" x="-0.75" y="-4.15" dx="1.4" dy="0.3" layer="1" rot="R90" stop="no" cream="no"/>
<smd name="18" x="-0.25" y="-4.15" dx="1.4" dy="0.3" layer="1" rot="R90" stop="no" cream="no"/>
<smd name="19" x="0.25" y="-4.15" dx="1.4" dy="0.3" layer="1" rot="R90" stop="no" cream="no"/>
<smd name="20" x="0.75" y="-4.15" dx="1.4" dy="0.3" layer="1" rot="R90" stop="no" cream="no"/>
<smd name="21" x="1.25" y="-4.15" dx="1.4" dy="0.3" layer="1" rot="R90" stop="no" cream="no"/>
<smd name="22" x="1.75" y="-4.15" dx="1.4" dy="0.3" layer="1" rot="R90" stop="no" cream="no"/>
<smd name="23" x="2.25" y="-4.15" dx="1.4" dy="0.3" layer="1" rot="R90" stop="no" cream="no"/>
<smd name="24" x="2.75" y="-4.15" dx="1.4" dy="0.3" layer="1" rot="R90" stop="no" cream="no"/>
<smd name="25" x="4.15" y="-2.75" dx="1.4" dy="0.3" layer="1" rot="R180" stop="no" cream="no"/>
<smd name="26" x="4.15" y="-2.25" dx="1.4" dy="0.3" layer="1" rot="R180" stop="no" cream="no"/>
<smd name="27" x="4.15" y="-1.75" dx="1.4" dy="0.3" layer="1" rot="R180" stop="no" cream="no"/>
<smd name="28" x="4.15" y="-1.25" dx="1.4" dy="0.3" layer="1" rot="R180" stop="no" cream="no"/>
<smd name="29" x="4.15" y="-0.75" dx="1.4" dy="0.3" layer="1" rot="R180" stop="no" cream="no"/>
<smd name="30" x="4.15" y="-0.25" dx="1.4" dy="0.3" layer="1" rot="R180" stop="no" cream="no"/>
<smd name="31" x="4.15" y="0.25" dx="1.4" dy="0.3" layer="1" rot="R180" stop="no" cream="no"/>
<smd name="32" x="4.15" y="0.75" dx="1.4" dy="0.3" layer="1" rot="R180" stop="no" cream="no"/>
<smd name="33" x="4.15" y="1.25" dx="1.4" dy="0.3" layer="1" rot="R180" stop="no" cream="no"/>
<smd name="34" x="4.15" y="1.75" dx="1.4" dy="0.3" layer="1" rot="R180" stop="no" cream="no"/>
<smd name="35" x="4.15" y="2.25" dx="1.4" dy="0.3" layer="1" rot="R180" stop="no" cream="no"/>
<smd name="36" x="4.15" y="2.75" dx="1.4" dy="0.3" layer="1" rot="R180" stop="no" cream="no"/>
<smd name="37" x="2.75" y="4.15" dx="1.4" dy="0.3" layer="1" rot="R270" stop="no" cream="no"/>
<smd name="38" x="2.25" y="4.15" dx="1.4" dy="0.3" layer="1" rot="R270" stop="no" cream="no"/>
<smd name="39" x="1.75" y="4.15" dx="1.4" dy="0.3" layer="1" rot="R270" stop="no" cream="no"/>
<smd name="40" x="1.25" y="4.15" dx="1.4" dy="0.3" layer="1" rot="R270" stop="no" cream="no"/>
<smd name="41" x="0.75" y="4.15" dx="1.4" dy="0.3" layer="1" rot="R270" stop="no" cream="no"/>
<smd name="42" x="0.25" y="4.15" dx="1.4" dy="0.3" layer="1" rot="R270" stop="no" cream="no"/>
<smd name="43" x="-0.25" y="4.15" dx="1.4" dy="0.3" layer="1" rot="R270" stop="no" cream="no"/>
<smd name="44" x="-0.75" y="4.15" dx="1.4" dy="0.3" layer="1" rot="R270" stop="no" cream="no"/>
<smd name="45" x="-1.25" y="4.15" dx="1.4" dy="0.3" layer="1" rot="R270" stop="no" cream="no"/>
<smd name="46" x="-1.75" y="4.15" dx="1.4" dy="0.3" layer="1" rot="R270" stop="no" cream="no"/>
<smd name="47" x="-2.25" y="4.15" dx="1.4" dy="0.3" layer="1" rot="R270" stop="no" cream="no"/>
<smd name="48" x="-2.75" y="4.15" dx="1.4" dy="0.3" layer="1" rot="R270" stop="no" cream="no"/>
<text x="-4" y="5.075" size="1.27" layer="25">&gt;NAME</text>
<text x="-4" y="-6.2" size="1.27" layer="27">&gt;VALUE</text>
<rectangle x1="-4.375" y1="2.625" x2="-3.525" y2="2.875" layer="31"/>
<rectangle x1="-4.225" y1="2.65" x2="-3.475" y2="2.85" layer="51"/>
<rectangle x1="-4.375" y1="2.125" x2="-3.525" y2="2.375" layer="31"/>
<rectangle x1="-4.225" y1="2.15" x2="-3.475" y2="2.35" layer="51"/>
<rectangle x1="-4.375" y1="1.625" x2="-3.525" y2="1.875" layer="31"/>
<rectangle x1="-4.225" y1="1.65" x2="-3.475" y2="1.85" layer="51"/>
<rectangle x1="-4.375" y1="1.125" x2="-3.525" y2="1.375" layer="31"/>
<rectangle x1="-4.225" y1="1.15" x2="-3.475" y2="1.35" layer="51"/>
<rectangle x1="-4.375" y1="0.625" x2="-3.525" y2="0.875" layer="31"/>
<rectangle x1="-4.225" y1="0.65" x2="-3.475" y2="0.85" layer="51"/>
<rectangle x1="-4.375" y1="0.125" x2="-3.525" y2="0.375" layer="31"/>
<rectangle x1="-4.225" y1="0.15" x2="-3.475" y2="0.35" layer="51"/>
<rectangle x1="-4.375" y1="-0.375" x2="-3.525" y2="-0.125" layer="31"/>
<rectangle x1="-4.225" y1="-0.35" x2="-3.475" y2="-0.15" layer="51"/>
<rectangle x1="-4.375" y1="-0.875" x2="-3.525" y2="-0.625" layer="31"/>
<rectangle x1="-4.225" y1="-0.85" x2="-3.475" y2="-0.65" layer="51"/>
<rectangle x1="-4.375" y1="-1.375" x2="-3.525" y2="-1.125" layer="31"/>
<rectangle x1="-4.225" y1="-1.35" x2="-3.475" y2="-1.15" layer="51"/>
<rectangle x1="-4.375" y1="-1.875" x2="-3.525" y2="-1.625" layer="31"/>
<rectangle x1="-4.225" y1="-1.85" x2="-3.475" y2="-1.65" layer="51"/>
<rectangle x1="-4.375" y1="-2.375" x2="-3.525" y2="-2.125" layer="31"/>
<rectangle x1="-4.225" y1="-2.35" x2="-3.475" y2="-2.15" layer="51"/>
<rectangle x1="-4.375" y1="-2.875" x2="-3.525" y2="-2.625" layer="31"/>
<rectangle x1="-4.225" y1="-2.85" x2="-3.475" y2="-2.65" layer="51"/>
<rectangle x1="-3.175" y1="-4.075" x2="-2.325" y2="-3.825" layer="31" rot="R90"/>
<rectangle x1="-3.125" y1="-3.95" x2="-2.375" y2="-3.75" layer="51" rot="R90"/>
<rectangle x1="-2.675" y1="-4.075" x2="-1.825" y2="-3.825" layer="31" rot="R90"/>
<rectangle x1="-2.625" y1="-3.95" x2="-1.875" y2="-3.75" layer="51" rot="R90"/>
<rectangle x1="-2.175" y1="-4.075" x2="-1.325" y2="-3.825" layer="31" rot="R90"/>
<rectangle x1="-2.125" y1="-3.95" x2="-1.375" y2="-3.75" layer="51" rot="R90"/>
<rectangle x1="-1.675" y1="-4.075" x2="-0.825" y2="-3.825" layer="31" rot="R90"/>
<rectangle x1="-1.625" y1="-3.95" x2="-0.875" y2="-3.75" layer="51" rot="R90"/>
<rectangle x1="-1.175" y1="-4.075" x2="-0.325" y2="-3.825" layer="31" rot="R90"/>
<rectangle x1="-1.125" y1="-3.95" x2="-0.375" y2="-3.75" layer="51" rot="R90"/>
<rectangle x1="-0.675" y1="-4.075" x2="0.175" y2="-3.825" layer="31" rot="R90"/>
<rectangle x1="-0.625" y1="-3.95" x2="0.125" y2="-3.75" layer="51" rot="R90"/>
<rectangle x1="-0.175" y1="-4.075" x2="0.675" y2="-3.825" layer="31" rot="R90"/>
<rectangle x1="-0.125" y1="-3.95" x2="0.625" y2="-3.75" layer="51" rot="R90"/>
<rectangle x1="0.325" y1="-4.075" x2="1.175" y2="-3.825" layer="31" rot="R90"/>
<rectangle x1="0.375" y1="-3.95" x2="1.125" y2="-3.75" layer="51" rot="R90"/>
<rectangle x1="0.825" y1="-4.075" x2="1.675" y2="-3.825" layer="31" rot="R90"/>
<rectangle x1="0.875" y1="-3.95" x2="1.625" y2="-3.75" layer="51" rot="R90"/>
<rectangle x1="1.325" y1="-4.075" x2="2.175" y2="-3.825" layer="31" rot="R90"/>
<rectangle x1="1.375" y1="-3.95" x2="2.125" y2="-3.75" layer="51" rot="R90"/>
<rectangle x1="1.825" y1="-4.075" x2="2.675" y2="-3.825" layer="31" rot="R90"/>
<rectangle x1="1.875" y1="-3.95" x2="2.625" y2="-3.75" layer="51" rot="R90"/>
<rectangle x1="2.325" y1="-4.075" x2="3.175" y2="-3.825" layer="31" rot="R90"/>
<rectangle x1="2.375" y1="-3.95" x2="3.125" y2="-3.75" layer="51" rot="R90"/>
<rectangle x1="3.525" y1="-2.875" x2="4.375" y2="-2.625" layer="31" rot="R180"/>
<rectangle x1="3.475" y1="-2.85" x2="4.225" y2="-2.65" layer="51" rot="R180"/>
<rectangle x1="3.525" y1="-2.375" x2="4.375" y2="-2.125" layer="31" rot="R180"/>
<rectangle x1="3.475" y1="-2.35" x2="4.225" y2="-2.15" layer="51" rot="R180"/>
<rectangle x1="3.525" y1="-1.875" x2="4.375" y2="-1.625" layer="31" rot="R180"/>
<rectangle x1="3.475" y1="-1.85" x2="4.225" y2="-1.65" layer="51" rot="R180"/>
<rectangle x1="3.525" y1="-1.375" x2="4.375" y2="-1.125" layer="31" rot="R180"/>
<rectangle x1="3.475" y1="-1.35" x2="4.225" y2="-1.15" layer="51" rot="R180"/>
<rectangle x1="3.525" y1="-0.875" x2="4.375" y2="-0.625" layer="31" rot="R180"/>
<rectangle x1="3.475" y1="-0.85" x2="4.225" y2="-0.65" layer="51" rot="R180"/>
<rectangle x1="3.525" y1="-0.375" x2="4.375" y2="-0.125" layer="31" rot="R180"/>
<rectangle x1="3.475" y1="-0.35" x2="4.225" y2="-0.15" layer="51" rot="R180"/>
<rectangle x1="3.525" y1="0.125" x2="4.375" y2="0.375" layer="31" rot="R180"/>
<rectangle x1="3.475" y1="0.15" x2="4.225" y2="0.35" layer="51" rot="R180"/>
<rectangle x1="3.525" y1="0.625" x2="4.375" y2="0.875" layer="31" rot="R180"/>
<rectangle x1="3.475" y1="0.65" x2="4.225" y2="0.85" layer="51" rot="R180"/>
<rectangle x1="3.525" y1="1.125" x2="4.375" y2="1.375" layer="31" rot="R180"/>
<rectangle x1="3.475" y1="1.15" x2="4.225" y2="1.35" layer="51" rot="R180"/>
<rectangle x1="3.525" y1="1.625" x2="4.375" y2="1.875" layer="31" rot="R180"/>
<rectangle x1="3.475" y1="1.65" x2="4.225" y2="1.85" layer="51" rot="R180"/>
<rectangle x1="3.525" y1="2.125" x2="4.375" y2="2.375" layer="31" rot="R180"/>
<rectangle x1="3.475" y1="2.15" x2="4.225" y2="2.35" layer="51" rot="R180"/>
<rectangle x1="3.525" y1="2.625" x2="4.375" y2="2.875" layer="31" rot="R180"/>
<rectangle x1="3.475" y1="2.65" x2="4.225" y2="2.85" layer="51" rot="R180"/>
<rectangle x1="2.325" y1="3.825" x2="3.175" y2="4.075" layer="31" rot="R270"/>
<rectangle x1="2.375" y1="3.75" x2="3.125" y2="3.95" layer="51" rot="R270"/>
<rectangle x1="1.825" y1="3.825" x2="2.675" y2="4.075" layer="31" rot="R270"/>
<rectangle x1="1.875" y1="3.75" x2="2.625" y2="3.95" layer="51" rot="R270"/>
<rectangle x1="1.325" y1="3.825" x2="2.175" y2="4.075" layer="31" rot="R270"/>
<rectangle x1="1.375" y1="3.75" x2="2.125" y2="3.95" layer="51" rot="R270"/>
<rectangle x1="0.825" y1="3.825" x2="1.675" y2="4.075" layer="31" rot="R270"/>
<rectangle x1="0.875" y1="3.75" x2="1.625" y2="3.95" layer="51" rot="R270"/>
<rectangle x1="0.325" y1="3.825" x2="1.175" y2="4.075" layer="31" rot="R270"/>
<rectangle x1="0.375" y1="3.75" x2="1.125" y2="3.95" layer="51" rot="R270"/>
<rectangle x1="-0.175" y1="3.825" x2="0.675" y2="4.075" layer="31" rot="R270"/>
<rectangle x1="-0.125" y1="3.75" x2="0.625" y2="3.95" layer="51" rot="R270"/>
<rectangle x1="-0.675" y1="3.825" x2="0.175" y2="4.075" layer="31" rot="R270"/>
<rectangle x1="-0.625" y1="3.75" x2="0.125" y2="3.95" layer="51" rot="R270"/>
<rectangle x1="-1.175" y1="3.825" x2="-0.325" y2="4.075" layer="31" rot="R270"/>
<rectangle x1="-1.125" y1="3.75" x2="-0.375" y2="3.95" layer="51" rot="R270"/>
<rectangle x1="-1.675" y1="3.825" x2="-0.825" y2="4.075" layer="31" rot="R270"/>
<rectangle x1="-1.625" y1="3.75" x2="-0.875" y2="3.95" layer="51" rot="R270"/>
<rectangle x1="-2.175" y1="3.825" x2="-1.325" y2="4.075" layer="31" rot="R270"/>
<rectangle x1="-2.125" y1="3.75" x2="-1.375" y2="3.95" layer="51" rot="R270"/>
<rectangle x1="-2.675" y1="3.825" x2="-1.825" y2="4.075" layer="31" rot="R270"/>
<rectangle x1="-2.625" y1="3.75" x2="-1.875" y2="3.95" layer="51" rot="R270"/>
<rectangle x1="-3.175" y1="3.825" x2="-2.325" y2="4.075" layer="31" rot="R270"/>
<rectangle x1="-3.125" y1="3.75" x2="-2.375" y2="3.95" layer="51" rot="R270"/>
<rectangle x1="-4.8" y1="2.6" x2="-3.4" y2="2.9" layer="29"/>
<rectangle x1="-4.8" y1="2.1" x2="-3.4" y2="2.4" layer="29"/>
<rectangle x1="-4.8" y1="1.6" x2="-3.4" y2="1.9" layer="29"/>
<rectangle x1="-4.8" y1="1.1" x2="-3.4" y2="1.4" layer="29"/>
<rectangle x1="-4.8" y1="0.6" x2="-3.4" y2="0.9" layer="29"/>
<rectangle x1="-4.8" y1="0.1" x2="-3.4" y2="0.4" layer="29"/>
<rectangle x1="-4.8" y1="-0.4" x2="-3.4" y2="-0.1" layer="29"/>
<rectangle x1="-4.8" y1="-0.9" x2="-3.4" y2="-0.6" layer="29"/>
<rectangle x1="-4.8" y1="-1.4" x2="-3.4" y2="-1.1" layer="29"/>
<rectangle x1="-4.8" y1="-1.9" x2="-3.4" y2="-1.6" layer="29"/>
<rectangle x1="-4.8" y1="-2.4" x2="-3.4" y2="-2.1" layer="29"/>
<rectangle x1="-4.8" y1="-2.9" x2="-3.4" y2="-2.6" layer="29"/>
<rectangle x1="-2.9" y1="-4.8" x2="-2.6" y2="-3.4" layer="29"/>
<rectangle x1="-2.4" y1="-4.8" x2="-2.1" y2="-3.4" layer="29"/>
<rectangle x1="-1.9" y1="-4.8" x2="-1.6" y2="-3.4" layer="29"/>
<rectangle x1="-1.4" y1="-4.8" x2="-1.1" y2="-3.4" layer="29"/>
<rectangle x1="-0.9" y1="-4.8" x2="-0.6" y2="-3.4" layer="29"/>
<rectangle x1="-0.4" y1="-4.8" x2="-0.1" y2="-3.4" layer="29"/>
<rectangle x1="0.1" y1="-4.8" x2="0.4" y2="-3.4" layer="29"/>
<rectangle x1="0.6" y1="-4.8" x2="0.9" y2="-3.4" layer="29"/>
<rectangle x1="1.1" y1="-4.8" x2="1.4" y2="-3.4" layer="29"/>
<rectangle x1="1.6" y1="-4.8" x2="1.9" y2="-3.4" layer="29"/>
<rectangle x1="2.1" y1="-4.8" x2="2.4" y2="-3.4" layer="29"/>
<rectangle x1="2.6" y1="-4.8" x2="2.9" y2="-3.4" layer="29"/>
<rectangle x1="3.4" y1="-2.9" x2="4.8" y2="-2.6" layer="29"/>
<rectangle x1="3.4" y1="-2.4" x2="4.8" y2="-2.1" layer="29"/>
<rectangle x1="3.4" y1="-1.9" x2="4.8" y2="-1.6" layer="29"/>
<rectangle x1="3.4" y1="-1.4" x2="4.8" y2="-1.1" layer="29"/>
<rectangle x1="3.4" y1="-0.9" x2="4.8" y2="-0.6" layer="29"/>
<rectangle x1="3.4" y1="-0.4" x2="4.8" y2="-0.1" layer="29"/>
<rectangle x1="3.4" y1="0.1" x2="4.8" y2="0.4" layer="29"/>
<rectangle x1="3.4" y1="0.6" x2="4.8" y2="0.9" layer="29"/>
<rectangle x1="3.4" y1="1.1" x2="4.8" y2="1.4" layer="29"/>
<rectangle x1="3.4" y1="1.6" x2="4.8" y2="1.9" layer="29"/>
<rectangle x1="3.4" y1="2.1" x2="4.8" y2="2.4" layer="29"/>
<rectangle x1="3.4" y1="2.6" x2="4.8" y2="2.9" layer="29"/>
<rectangle x1="2.6" y1="3.4" x2="2.9" y2="4.8" layer="29"/>
<rectangle x1="2.1" y1="3.4" x2="2.4" y2="4.8" layer="29"/>
<rectangle x1="1.6" y1="3.4" x2="1.9" y2="4.8" layer="29"/>
<rectangle x1="1.1" y1="3.4" x2="1.4" y2="4.8" layer="29"/>
<rectangle x1="0.6" y1="3.4" x2="0.9" y2="4.8" layer="29"/>
<rectangle x1="0.1" y1="3.4" x2="0.4" y2="4.8" layer="29"/>
<rectangle x1="-0.4" y1="3.4" x2="-0.1" y2="4.8" layer="29"/>
<rectangle x1="-0.9" y1="3.4" x2="-0.6" y2="4.8" layer="29"/>
<rectangle x1="-1.4" y1="3.4" x2="-1.1" y2="4.8" layer="29"/>
<rectangle x1="-1.9" y1="3.4" x2="-1.6" y2="4.8" layer="29"/>
<rectangle x1="-2.4" y1="3.4" x2="-2.1" y2="4.8" layer="29"/>
<rectangle x1="-2.9" y1="3.4" x2="-2.6" y2="4.8" layer="29"/>
</package>
</packages>
<symbols>
<symbol name="STM32G431KBT6">
<wire x1="15.24" y1="33.02" x2="15.24" y2="-30.48" width="0.254" layer="94"/>
<wire x1="15.24" y1="-30.48" x2="-15.24" y2="-30.48" width="0.254" layer="94"/>
<wire x1="-15.24" y1="-30.48" x2="-15.24" y2="33.02" width="0.254" layer="94"/>
<wire x1="-15.24" y1="33.02" x2="15.24" y2="33.02" width="0.254" layer="94"/>
<text x="-15.24" y="34.29" size="2.1844" layer="95">&gt;NAME</text>
<text x="-15.24" y="-31.75" size="2.1844" layer="96" align="top-left">&gt;VALUE</text>
<pin name="VDD" x="20.32" y="30.48" length="middle" direction="pwr" rot="R180"/>
<pin name="PF0-OSC_IN" x="-20.32" y="22.86" length="middle" direction="in"/>
<pin name="PF1-OSC_OUT" x="-20.32" y="20.32" length="middle" direction="out"/>
<pin name="PG10-NRST" x="20.32" y="-5.08" length="middle" rot="R180"/>
<pin name="PA0" x="-20.32" y="15.24" length="middle"/>
<pin name="PA1" x="-20.32" y="12.7" length="middle"/>
<pin name="PA2" x="-20.32" y="10.16" length="middle"/>
<pin name="PA3" x="-20.32" y="7.62" length="middle"/>
<pin name="PA4" x="-20.32" y="5.08" length="middle"/>
<pin name="PA5" x="-20.32" y="2.54" length="middle"/>
<pin name="PA6" x="-20.32" y="0" length="middle"/>
<pin name="PA7" x="-20.32" y="-2.54" length="middle"/>
<pin name="PB0" x="20.32" y="15.24" length="middle" rot="R180"/>
<pin name="VSSA" x="20.32" y="-25.4" length="middle" direction="pwr" rot="R180"/>
<pin name="VDDA/VREF+" x="20.32" y="27.94" length="middle" direction="pwr" rot="R180"/>
<pin name="VSS" x="20.32" y="-27.94" length="middle" direction="pwr" rot="R180"/>
<pin name="PA8" x="-20.32" y="-5.08" length="middle"/>
<pin name="PA9" x="-20.32" y="-7.62" length="middle"/>
<pin name="PA10" x="-20.32" y="-10.16" length="middle"/>
<pin name="PA11" x="-20.32" y="-12.7" length="middle"/>
<pin name="PA12" x="-20.32" y="-15.24" length="middle"/>
<pin name="PA13" x="-20.32" y="-17.78" length="middle"/>
<pin name="PA14" x="-20.32" y="-20.32" length="middle"/>
<pin name="PA15" x="-20.32" y="-22.86" length="middle"/>
<pin name="PB3" x="20.32" y="12.7" length="middle" rot="R180"/>
<pin name="PB4" x="20.32" y="10.16" length="middle" rot="R180"/>
<pin name="PB5" x="20.32" y="7.62" length="middle" rot="R180"/>
<pin name="PB6" x="20.32" y="5.08" length="middle" rot="R180"/>
<pin name="PB7" x="20.32" y="2.54" length="middle" rot="R180"/>
<pin name="PB8-BOOT0" x="20.32" y="0" length="middle" rot="R180"/>
</symbol>
<symbol name="STM32G431C8T">
<wire x1="15.24" y1="33.02" x2="15.24" y2="-53.34" width="0.254" layer="94"/>
<wire x1="15.24" y1="-53.34" x2="-15.24" y2="-53.34" width="0.254" layer="94"/>
<wire x1="-15.24" y1="-53.34" x2="-15.24" y2="33.02" width="0.254" layer="94"/>
<wire x1="-15.24" y1="33.02" x2="15.24" y2="33.02" width="0.254" layer="94"/>
<text x="-15.24" y="34.29" size="2.1844" layer="95">&gt;NAME</text>
<text x="-15.24" y="-54.61" size="2.1844" layer="96" align="top-left">&gt;VALUE</text>
<pin name="VDD" x="20.32" y="30.48" length="middle" direction="pwr" rot="R180"/>
<pin name="PF0-OSC_IN" x="-20.32" y="22.86" length="middle" direction="in"/>
<pin name="PF1-OSC_OUT" x="-20.32" y="20.32" length="middle" direction="out"/>
<pin name="PG10-NRST" x="20.32" y="-43.18" length="middle" rot="R180"/>
<pin name="PA0" x="-20.32" y="15.24" length="middle"/>
<pin name="PA1" x="-20.32" y="12.7" length="middle"/>
<pin name="PA2" x="-20.32" y="10.16" length="middle"/>
<pin name="PA3" x="-20.32" y="7.62" length="middle"/>
<pin name="PA4" x="-20.32" y="5.08" length="middle"/>
<pin name="PA5" x="-20.32" y="2.54" length="middle"/>
<pin name="PA6" x="-20.32" y="0" length="middle"/>
<pin name="PA7" x="-20.32" y="-2.54" length="middle"/>
<pin name="PB0" x="20.32" y="15.24" length="middle" rot="R180"/>
<pin name="VSSA" x="20.32" y="-48.26" length="middle" direction="pwr" rot="R180"/>
<pin name="VDDA/VREF+" x="20.32" y="27.94" length="middle" direction="pwr" rot="R180"/>
<pin name="VSS" x="20.32" y="-50.8" length="middle" direction="pwr" rot="R180"/>
<pin name="PA8" x="-20.32" y="-5.08" length="middle"/>
<pin name="PA9" x="-20.32" y="-7.62" length="middle"/>
<pin name="PA10" x="-20.32" y="-10.16" length="middle"/>
<pin name="PA11" x="-20.32" y="-12.7" length="middle"/>
<pin name="PA12" x="-20.32" y="-15.24" length="middle"/>
<pin name="PA13" x="-20.32" y="-17.78" length="middle"/>
<pin name="PA14" x="-20.32" y="-20.32" length="middle"/>
<pin name="PA15" x="-20.32" y="-22.86" length="middle"/>
<pin name="PB3" x="20.32" y="7.62" length="middle" rot="R180"/>
<pin name="PB4" x="20.32" y="5.08" length="middle" rot="R180"/>
<pin name="PB5" x="20.32" y="2.54" length="middle" rot="R180"/>
<pin name="PB6" x="20.32" y="0" length="middle" rot="R180"/>
<pin name="PB7" x="20.32" y="-2.54" length="middle" rot="R180"/>
<pin name="PB8-BOOT0" x="20.32" y="-5.08" length="middle" rot="R180"/>
<pin name="PB9" x="20.32" y="-7.62" length="middle" rot="R180"/>
<pin name="PB10" x="20.32" y="-10.16" length="middle" rot="R180"/>
<pin name="PB11" x="20.32" y="-12.7" length="middle" rot="R180"/>
<pin name="PB12" x="20.32" y="-15.24" length="middle" rot="R180"/>
<pin name="PB13" x="20.32" y="-17.78" length="middle" rot="R180"/>
<pin name="PB14" x="20.32" y="-20.32" length="middle" rot="R180"/>
<pin name="PB15" x="20.32" y="-22.86" length="middle" rot="R180"/>
<pin name="PB2" x="20.32" y="10.16" length="middle" rot="R180"/>
<pin name="PB1" x="20.32" y="12.7" length="middle" rot="R180"/>
<pin name="PC13" x="-20.32" y="-33.02" length="middle"/>
<pin name="PC14" x="-20.32" y="-35.56" length="middle"/>
<pin name="PC15" x="-20.32" y="-38.1" length="middle"/>
</symbol>
</symbols>
<devicesets>
<deviceset name="STM32G431KBT6" prefix="U">
<description>ARM® Cortex®-M4F STM32G4 Microcontroller IC 32-Bit 170MHz 128KB (128K x 8) FLASH 32-LQFP (7x7) &lt;a href="https://pricing.snapeda.com/parts/STM32G431KBT6/STMicroelectronics/view-part?ref=eda"&gt;Check prices&lt;/a&gt;</description>
<gates>
<gate name="G$1" symbol="STM32G431KBT6" x="0" y="0"/>
</gates>
<devices>
<device name="" package="QFP80P900X900X160-32N">
<connects>
<connect gate="G$1" pin="PA0" pad="5"/>
<connect gate="G$1" pin="PA1" pad="6"/>
<connect gate="G$1" pin="PA10" pad="20"/>
<connect gate="G$1" pin="PA11" pad="21"/>
<connect gate="G$1" pin="PA12" pad="22"/>
<connect gate="G$1" pin="PA13" pad="23"/>
<connect gate="G$1" pin="PA14" pad="24"/>
<connect gate="G$1" pin="PA15" pad="25"/>
<connect gate="G$1" pin="PA2" pad="7"/>
<connect gate="G$1" pin="PA3" pad="8"/>
<connect gate="G$1" pin="PA4" pad="9"/>
<connect gate="G$1" pin="PA5" pad="10"/>
<connect gate="G$1" pin="PA6" pad="11"/>
<connect gate="G$1" pin="PA7" pad="12"/>
<connect gate="G$1" pin="PA8" pad="18"/>
<connect gate="G$1" pin="PA9" pad="19"/>
<connect gate="G$1" pin="PB0" pad="13"/>
<connect gate="G$1" pin="PB3" pad="26"/>
<connect gate="G$1" pin="PB4" pad="27"/>
<connect gate="G$1" pin="PB5" pad="28"/>
<connect gate="G$1" pin="PB6" pad="29"/>
<connect gate="G$1" pin="PB7" pad="30"/>
<connect gate="G$1" pin="PB8-BOOT0" pad="31"/>
<connect gate="G$1" pin="PF0-OSC_IN" pad="2"/>
<connect gate="G$1" pin="PF1-OSC_OUT" pad="3"/>
<connect gate="G$1" pin="PG10-NRST" pad="4"/>
<connect gate="G$1" pin="VDD" pad="1 17"/>
<connect gate="G$1" pin="VDDA/VREF+" pad="15"/>
<connect gate="G$1" pin="VSS" pad="16 32"/>
<connect gate="G$1" pin="VSSA" pad="14"/>
</connects>
<technologies>
<technology name="">
<attribute name="AVAILABILITY" value="Warning"/>
<attribute name="DESCRIPTION" value=" ARM® Cortex®-M4F STM32G4 Microcontroller IC 32-Bit 170MHz 128KB (128K x 8) FLASH 32-LQFP (7x7) "/>
<attribute name="MF" value="STMicroelectronics"/>
<attribute name="MP" value="STM32G431KBT6"/>
<attribute name="PACKAGE" value="LQFP-32 STMicroelectronics"/>
<attribute name="PRICE" value="None"/>
<attribute name="PURCHASE-URL" value="https://pricing.snapeda.com/search/part/STM32G431KBT6/?ref=eda"/>
</technology>
</technologies>
</device>
</devices>
</deviceset>
<deviceset name="STM32G431C8T6">
<gates>
<gate name="G$1" symbol="STM32G431C8T" x="0" y="5.08"/>
</gates>
<devices>
<device name="" package="LQFP48-7X7">
<connects>
<connect gate="G$1" pin="PA0" pad="8"/>
<connect gate="G$1" pin="PA1" pad="9"/>
<connect gate="G$1" pin="PA10" pad="32"/>
<connect gate="G$1" pin="PA11" pad="33"/>
<connect gate="G$1" pin="PA12" pad="34"/>
<connect gate="G$1" pin="PA13" pad="37"/>
<connect gate="G$1" pin="PA14" pad="38"/>
<connect gate="G$1" pin="PA15" pad="39"/>
<connect gate="G$1" pin="PA2" pad="10"/>
<connect gate="G$1" pin="PA3" pad="11"/>
<connect gate="G$1" pin="PA4" pad="12"/>
<connect gate="G$1" pin="PA5" pad="13"/>
<connect gate="G$1" pin="PA6" pad="14"/>
<connect gate="G$1" pin="PA7" pad="15"/>
<connect gate="G$1" pin="PA8" pad="30"/>
<connect gate="G$1" pin="PA9" pad="31"/>
<connect gate="G$1" pin="PB0" pad="16"/>
<connect gate="G$1" pin="PB1" pad="17"/>
<connect gate="G$1" pin="PB10" pad="22"/>
<connect gate="G$1" pin="PB11" pad="25"/>
<connect gate="G$1" pin="PB12" pad="26"/>
<connect gate="G$1" pin="PB13" pad="27"/>
<connect gate="G$1" pin="PB14" pad="28"/>
<connect gate="G$1" pin="PB15" pad="29"/>
<connect gate="G$1" pin="PB2" pad="18"/>
<connect gate="G$1" pin="PB3" pad="40"/>
<connect gate="G$1" pin="PB4" pad="41"/>
<connect gate="G$1" pin="PB5" pad="42"/>
<connect gate="G$1" pin="PB6" pad="43"/>
<connect gate="G$1" pin="PB7" pad="44"/>
<connect gate="G$1" pin="PB8-BOOT0" pad="45"/>
<connect gate="G$1" pin="PB9" pad="46"/>
<connect gate="G$1" pin="PC13" pad="2"/>
<connect gate="G$1" pin="PC14" pad="3"/>
<connect gate="G$1" pin="PC15" pad="4"/>
<connect gate="G$1" pin="PF0-OSC_IN" pad="5"/>
<connect gate="G$1" pin="PF1-OSC_OUT" pad="6"/>
<connect gate="G$1" pin="PG10-NRST" pad="7"/>
<connect gate="G$1" pin="VDD" pad="1 24 36 48"/>
<connect gate="G$1" pin="VDDA/VREF+" pad="20 21"/>
<connect gate="G$1" pin="VSS" pad="23 35 47"/>
<connect gate="G$1" pin="VSSA" pad="19"/>
</connects>
<technologies>
<technology name=""/>
</technologies>
</device>
</devices>
</deviceset>
</devicesets>
</library>
</drawing>
<compatibility>
<note version="8.3" severity="warning">
Since Version 8.3, EAGLE supports URNs for individual library
assets (packages, symbols, and devices). The URNs of those assets
will not be understood (or retained) with this version.
</note>
</compatibility>
</eagle>
